<?xml version="1.0" encoding="UTF-8" standalone="no"?>
<!-- Created with Inkscape (http://www.inkscape.org/) -->

<svg
   xmlns:dc="http://purl.org/dc/elements/1.1/"
   xmlns:cc="http://creativecommons.org/ns#"
   xmlns:rdf="http://www.w3.org/1999/02/22-rdf-syntax-ns#"
   xmlns:svg="http://www.w3.org/2000/svg"
   xmlns="http://www.w3.org/2000/svg"
   xmlns:sodipodi="http://sodipodi.sourceforge.net/DTD/sodipodi-0.dtd"
   xmlns:inkscape="http://www.inkscape.org/namespaces/inkscape"
   width="388.27213"
   height="370.39374"
   id="svg2"
   sodipodi:version="0.32"
   inkscape:version="0.92.5 (2060ec1f9f, 2020-04-08)"
   sodipodi:docname="read_mode_waveforms.svg"
   version="1.0">
  <defs
     id="defs4" />
  <sodipodi:namedview
     id="base"
     pagecolor="#ffffff"
     bordercolor="#666666"
     borderopacity="1.0"
     inkscape:pageopacity="0.0"
     inkscape:pageshadow="2"
     inkscape:zoom="1.0892718"
     inkscape:cx="-88.755258"
     inkscape:cy="265.26053"
     inkscape:document-units="mm"
     inkscape:current-layer="layer2"
     inkscape:window-width="1920"
     inkscape:window-height="1031"
     inkscape:window-x="0"
     inkscape:window-y="0"
     width="12.8cm"
     height="9.6cm"
     units="cm"
     showgrid="true"
     grid_units="mm"
     inkscape:object-paths="false"
     inkscape:grid-points="true"
     inkscape:grid-bbox="true"
     inkscape:guide-points="true"
     showguides="true"
     inkscape:guide-bbox="true"
     inkscape:window-maximized="1"
     inkscape:snap-bbox="true"
     inkscape:snap-bbox-edge-midpoints="true"
     fit-margin-top="0"
     fit-margin-left="0"
     fit-margin-right="0"
     fit-margin-bottom="0"
     inkscape:bbox-nodes="false"
     inkscape:snap-bbox-midpoints="true">
    <sodipodi:guide
       orientation="vertical"
       position="51.177806,-7.559051"
       id="guide3573"
       inkscape:locked="false" />
    <sodipodi:guide
       orientation="horizontal"
       position="236.59104,-37.795272"
       id="guide3579"
       inkscape:locked="false" />
    <sodipodi:guide
       orientation="horizontal"
       position="221.47293,-30.236217"
       id="guide3886"
       inkscape:locked="false" />
    <sodipodi:guide
       orientation="horizontal"
       position="-5.2987213,295.59653"
       id="guide4081"
       inkscape:locked="false" />
    <inkscape:grid
       id="GridFromPre046Settings"
       type="xygrid"
       originx="-5.2987213"
       originy="-7.559051"
       spacingx="2mm"
       spacingy="2mm"
       color="#3f3fff"
       empcolor="#3f3fff"
       opacity="0.15"
       empopacity="0.38"
       empspacing="4" />
  </sodipodi:namedview>
  <metadata
     id="metadata7">
    <rdf:RDF>
      <cc:Work
         rdf:about="">
        <dc:format>image/svg+xml</dc:format>
        <dc:type
           rdf:resource="http://purl.org/dc/dcmitype/StillImage" />
        <dc:title />
      </cc:Work>
    </rdf:RDF>
  </metadata>
  <g
     inkscape:groupmode="layer"
     id="layer2"
     inkscape:label="Layer 2">
    <path
       style="fill:none;stroke:#a0a0a0;stroke-width:1px;stroke-linecap:butt;stroke-linejoin:miter;stroke-opacity:1"
       d="M 206.35482,370.39374 V 3.9802842e-5"
       id="path839-3"
       inkscape:connector-curvature="0"
       sodipodi:nodetypes="cc" />
    <path
       style="fill:none;stroke:#a0a0a0;stroke-width:1px;stroke-linecap:butt;stroke-linejoin:miter;stroke-opacity:1"
       d="M 266.82726,370.39374 V 3.9802842e-5"
       id="path839-6"
       inkscape:connector-curvature="0"
       sodipodi:nodetypes="cc" />
    <path
       style="fill:none;stroke:#a0a0a0;stroke-width:1px;stroke-linecap:butt;stroke-linejoin:miter;stroke-opacity:1"
       d="M 387.77214,370.39374 V 3.5133551e-5"
       id="path839-7"
       inkscape:connector-curvature="0"
       sodipodi:nodetypes="cc" />
    <path
       transform="translate(-5.2987213,37.795283)"
       style="fill:none;stroke:#a0a0a0;stroke-width:1px;stroke-linecap:butt;stroke-linejoin:miter;stroke-opacity:1"
       d="M 151.1811,332.59845 V -37.795283"
       id="path839-35"
       inkscape:connector-curvature="0"
       sodipodi:nodetypes="cc" />
  </g>
  <g
     inkscape:label="Layer 1"
     inkscape:groupmode="layer"
     id="layer1"
     transform="translate(-5.2987213,37.795283)">
    <path
       style="fill:none;stroke:#000000;stroke-width:1px;stroke-linecap:butt;stroke-linejoin:miter;stroke-opacity:1"
       d="m 151.1811,219.2126 60.47244,3e-5 v 30.23622 h 60.47244 v -30.23622 h 120.94489"
       id="path4915"
       inkscape:connector-curvature="0"
       sodipodi:nodetypes="cccccc" />
    <path
       style="fill:none;stroke:#000000;stroke-width:1px;stroke-linecap:butt;stroke-linejoin:miter;stroke-opacity:1"
       d="m 151.1811,7.5590528 h 30.23622 V -22.677168 l 120.94488,3e-5 V 7.5590828 h 90.70867"
       id="path4917"
       inkscape:connector-curvature="0"
       sodipodi:nodetypes="cccccc" />
    <path
       style="fill:none;stroke:#000000;stroke-width:1px;stroke-linecap:butt;stroke-linejoin:miter;stroke-opacity:1"
       d="m 151.1811,68.031494 241.88977,3e-5"
       id="path4919"
       inkscape:connector-curvature="0"
       sodipodi:nodetypes="cc" />
    <text
       xml:space="preserve"
       style="font-style:normal;font-weight:normal;font-size:16px;line-height:1.25;font-family:sans-serif;text-align:end;letter-spacing:0px;word-spacing:0px;text-anchor:end;fill:#000000;fill-opacity:1;stroke:none"
       x="144.74706"
       y="-2.8290434"
       id="text4944"><tspan
         sodipodi:role="line"
         id="tspan4942"
         x="144.74706"
         y="-2.8290434">mode[0]</tspan></text>
    <text
       xml:space="preserve"
       style="font-style:normal;font-weight:normal;font-size:16px;line-height:1.25;font-family:sans-serif;text-align:end;letter-spacing:0px;word-spacing:0px;text-anchor:end;fill:#000000;fill-opacity:1;stroke:none"
       x="144.74706"
       y="57.643406"
       id="text4948"><tspan
         sodipodi:role="line"
         id="tspan4946"
         x="144.74706"
         y="57.643406">mode[1]</tspan></text>
    <text
       xml:space="preserve"
       style="font-style:normal;font-weight:normal;font-size:16px;line-height:1.25;font-family:sans-serif;text-align:end;letter-spacing:0px;word-spacing:0px;text-anchor:end;fill:#000000;fill-opacity:1;stroke:none"
       x="143.41893"
       y="119.05724"
       id="text4952"><tspan
         sodipodi:role="line"
         id="tspan4950"
         x="143.41893"
         y="119.05724">clk</tspan></text>
    <text
       xml:space="preserve"
       style="font-style:normal;font-weight:normal;font-size:16px;line-height:1.25;font-family:sans-serif;text-align:end;letter-spacing:0px;word-spacing:0px;text-anchor:end;fill:#000000;fill-opacity:1;stroke:none"
       x="144.49706"
       y="237.7287"
       id="text4956"><tspan
         sodipodi:role="line"
         id="tspan4954"
         x="144.49706"
         y="237.7287">read_b</tspan></text>
    <path
       style="fill:none;stroke:#000000;stroke-width:1px;stroke-linecap:butt;stroke-linejoin:miter;stroke-opacity:1"
       d="m 151.1811,279.68504 241.88977,3e-5"
       id="path4958"
       inkscape:connector-curvature="0"
       sodipodi:nodetypes="cc" />
    <text
       xml:space="preserve"
       style="font-style:normal;font-weight:normal;font-size:16px;line-height:1.25;font-family:sans-serif;text-align:end;letter-spacing:0px;word-spacing:0px;text-anchor:end;fill:#000000;fill-opacity:1;stroke:none"
       x="144.49706"
       y="298.20114"
       id="text4962"><tspan
         sodipodi:role="line"
         id="tspan4960"
         x="144.49706"
         y="298.20114">write_b</tspan></text>
    <path
       style="fill:none;stroke:#a0a0a0;stroke-width:1px;stroke-linecap:butt;stroke-linejoin:miter;stroke-opacity:1"
       d="m 45.354331,151.18109 h -7.559055 v 164.95763 h 7.559055"
       id="path835"
       inkscape:connector-curvature="0" />
    <text
       xml:space="preserve"
       style="font-style:normal;font-weight:normal;font-size:16px;line-height:1.25;font-family:sans-serif;text-align:end;letter-spacing:0px;word-spacing:0px;text-anchor:end;fill:#a0a0a0;fill-opacity:1;stroke:none"
       x="30.619034"
       y="239.83461"
       id="text843"><tspan
         sodipodi:role="line"
         id="tspan841"
         x="30.619034"
         y="239.83461">out</tspan></text>
    <path
       style="fill:none;stroke:#000000;stroke-width:1px;stroke-linecap:butt;stroke-linejoin:miter;stroke-opacity:1"
       d="m 151.1811,158.74016 241.88977,3e-5"
       id="path1610"
       inkscape:connector-curvature="0"
       sodipodi:nodetypes="cc" />
    <text
       xml:space="preserve"
       style="font-style:normal;font-weight:normal;font-size:16px;line-height:1.25;font-family:sans-serif;text-align:end;letter-spacing:0px;word-spacing:0px;text-anchor:end;fill:#000000;fill-opacity:1;stroke:none"
       x="144.49704"
       y="178.04967"
       id="text1628"><tspan
         sodipodi:role="line"
         id="tspan1626"
         x="144.49704"
         y="178.04967">zero_data_b</tspan></text>
    <path
       style="fill:none;stroke:#a0a0a0;stroke-width:1px;stroke-linecap:butt;stroke-linejoin:miter;stroke-opacity:1"
       d="M 45.35433,-30.23623 H 37.795276 V 136.06299 H 45.35433"
       id="path1995"
       inkscape:connector-curvature="0"
       sodipodi:nodetypes="cccc" />
    <text
       xml:space="preserve"
       style="font-style:normal;font-weight:normal;font-size:16px;line-height:1.25;font-family:sans-serif;text-align:end;letter-spacing:0px;word-spacing:0px;text-anchor:end;fill:#a0a0a0;fill-opacity:1;stroke:none"
       x="31.595594"
       y="58.991501"
       id="text2020"><tspan
         sodipodi:role="line"
         id="tspan2018"
         x="31.595594"
         y="58.991501">in</tspan></text>
    <path
       style="fill:none;stroke:#000000;stroke-width:1px;stroke-linecap:butt;stroke-linejoin:miter;stroke-opacity:1"
       d="M 393.07087,128.50396 H 362.83464 V 98.267744 H 332.59842 V 128.50396 H 302.3622 V 98.267744 H 272.12598 V 128.50396 H 241.88976 V 98.267744 H 211.65354 V 128.50396 H 181.41732 V 98.267744 H 151.1811"
       id="path4907"
       inkscape:connector-curvature="0"
       sodipodi:nodetypes="cccccccccccccccc" />
    <text
       xml:space="preserve"
       style="font-style:normal;font-weight:normal;font-size:16px;line-height:1.25;font-family:sans-serif;text-align:end;letter-spacing:0px;word-spacing:0px;text-anchor:end;fill:#a0a0a0;fill-opacity:1;stroke:none"
       x="199.17514"
       y="330.87143"
       id="text909-0-6"><tspan
         sodipodi:role="line"
         id="tspan907-9-2"
         x="199.17514"
         y="330.87143">IDLE</tspan><tspan
         sodipodi:role="line"
         x="199.17514"
         y="350.87143"
         id="tspan1064" /></text>
    <text
       xml:space="preserve"
       style="font-style:normal;font-weight:normal;font-size:16px;line-height:1.25;font-family:sans-serif;text-align:end;letter-spacing:0px;word-spacing:0px;text-anchor:end;fill:#a0a0a0;fill-opacity:1;stroke:none"
       x="263.82336"
       y="330.87143"
       id="text909-0-6-7"><tspan
         sodipodi:role="line"
         id="tspan907-9-2-9"
         x="263.82336"
         y="330.87143">READ</tspan></text>
    <text
       xml:space="preserve"
       style="font-style:normal;font-weight:normal;font-size:16px;line-height:1.25;font-family:sans-serif;text-align:end;letter-spacing:0px;word-spacing:0px;text-anchor:end;fill:#a0a0a0;fill-opacity:1;stroke:none"
       x="350.35623"
       y="330.87143"
       id="text909-0-6-3"><tspan
         sodipodi:role="line"
         id="tspan907-9-2-6"
         x="350.35623"
         y="330.87143">IDLE</tspan><tspan
         sodipodi:role="line"
         x="350.35623"
         y="350.87143"
         id="tspan1064-7" /></text>
  </g>
</svg>
