<?xml version="1.0" encoding="UTF-8" standalone="no"?>
<!-- Created with Inkscape (http://www.inkscape.org/) -->

<svg
   xmlns:dc="http://purl.org/dc/elements/1.1/"
   xmlns:cc="http://creativecommons.org/ns#"
   xmlns:rdf="http://www.w3.org/1999/02/22-rdf-syntax-ns#"
   xmlns:svg="http://www.w3.org/2000/svg"
   xmlns="http://www.w3.org/2000/svg"
   xmlns:sodipodi="http://sodipodi.sourceforge.net/DTD/sodipodi-0.dtd"
   xmlns:inkscape="http://www.inkscape.org/namespaces/inkscape"
   width="210mm"
   height="297mm"
   viewBox="0 0 210 297"
   version="1.1"
   id="svg8"
   sodipodi:docname="sram_read_timing.svg"
   inkscape:version="0.92.5 (2060ec1f9f, 2020-04-08)">
  <defs
     id="defs2">
    <marker
       inkscape:isstock="true"
       style="overflow:visible;"
       id="marker4042"
       refX="0.0"
       refY="0.0"
       orient="auto"
       inkscape:stockid="Arrow1Mend">
      <path
         transform="scale(0.4) rotate(180) translate(10,0)"
         style="fill-rule:evenodd;stroke:#0000ff;stroke-width:1pt;stroke-opacity:1;fill:#0000ff;fill-opacity:1"
         d="M 0.0,0.0 L 5.0,-5.0 L -12.5,0.0 L 5.0,5.0 L 0.0,0.0 z "
         id="path4040" />
    </marker>
    <marker
       inkscape:stockid="Arrow1Mend"
       orient="auto"
       refY="0.0"
       refX="0.0"
       id="marker2689"
       style="overflow:visible;"
       inkscape:isstock="true"
       inkscape:collect="always">
      <path
         id="path2687"
         d="M 0.0,0.0 L 5.0,-5.0 L -12.5,0.0 L 5.0,5.0 L 0.0,0.0 z "
         style="fill-rule:evenodd;stroke:#0000ff;stroke-width:1pt;stroke-opacity:1;fill:#0000ff;fill-opacity:1"
         transform="scale(0.4) rotate(180) translate(10,0)" />
    </marker>
    <marker
       inkscape:isstock="true"
       style="overflow:visible;"
       id="marker2605"
       refX="0.0"
       refY="0.0"
       orient="auto"
       inkscape:stockid="Arrow1Mend"
       inkscape:collect="always">
      <path
         transform="scale(0.4) rotate(180) translate(10,0)"
         style="fill-rule:evenodd;stroke:#0000ff;stroke-width:1pt;stroke-opacity:1;fill:#0000ff;fill-opacity:1"
         d="M 0.0,0.0 L 5.0,-5.0 L -12.5,0.0 L 5.0,5.0 L 0.0,0.0 z "
         id="path2603" />
    </marker>
    <marker
       inkscape:stockid="Arrow1Mend"
       orient="auto"
       refY="0.0"
       refX="0.0"
       id="marker2289"
       style="overflow:visible;"
       inkscape:isstock="true">
      <path
         id="path2287"
         d="M 0.0,0.0 L 5.0,-5.0 L -12.5,0.0 L 5.0,5.0 L 0.0,0.0 z "
         style="fill-rule:evenodd;stroke:#0000ff;stroke-width:1pt;stroke-opacity:1;fill:#0000ff;fill-opacity:1"
         transform="scale(0.4) rotate(180) translate(10,0)" />
    </marker>
    <marker
       inkscape:isstock="true"
       style="overflow:visible;"
       id="marker1793"
       refX="0.0"
       refY="0.0"
       orient="auto"
       inkscape:stockid="Arrow1Mend">
      <path
         transform="scale(0.4) rotate(180) translate(10,0)"
         style="fill-rule:evenodd;stroke:#000000;stroke-width:1pt;stroke-opacity:1;fill:#000000;fill-opacity:1"
         d="M 0.0,0.0 L 5.0,-5.0 L -12.5,0.0 L 5.0,5.0 L 0.0,0.0 z "
         id="path1791" />
    </marker>
    <marker
       inkscape:isstock="true"
       style="overflow:visible;"
       id="marker1425"
       refX="0.0"
       refY="0.0"
       orient="auto"
       inkscape:stockid="Arrow1Mend">
      <path
         transform="scale(0.4) rotate(180) translate(10,0)"
         style="fill-rule:evenodd;stroke:#000000;stroke-width:1pt;stroke-opacity:1;fill:#000000;fill-opacity:1"
         d="M 0.0,0.0 L 5.0,-5.0 L -12.5,0.0 L 5.0,5.0 L 0.0,0.0 z "
         id="path1423" />
    </marker>
    <marker
       inkscape:stockid="Arrow1Mend"
       orient="auto"
       refY="0.0"
       refX="0.0"
       id="marker969"
       style="overflow:visible;"
       inkscape:isstock="true"
       inkscape:collect="always">
      <path
         id="path967"
         d="M 0.0,0.0 L 5.0,-5.0 L -12.5,0.0 L 5.0,5.0 L 0.0,0.0 z "
         style="fill-rule:evenodd;stroke:#000000;stroke-width:1pt;stroke-opacity:1;fill:#000000;fill-opacity:1"
         transform="scale(0.4) rotate(180) translate(10,0)" />
    </marker>
    <marker
       inkscape:stockid="Arrow1Mend"
       orient="auto"
       refY="0.0"
       refX="0.0"
       id="marker3116"
       style="overflow:visible;"
       inkscape:isstock="true">
      <path
         id="path3114"
         d="M 0.0,0.0 L 5.0,-5.0 L -12.5,0.0 L 5.0,5.0 L 0.0,0.0 z "
         style="fill-rule:evenodd;stroke:#000000;stroke-width:1pt;stroke-opacity:1;fill:#000000;fill-opacity:1"
         transform="scale(0.4) rotate(180) translate(10,0)" />
    </marker>
    <marker
       inkscape:isstock="true"
       style="overflow:visible;"
       id="marker2884"
       refX="0.0"
       refY="0.0"
       orient="auto"
       inkscape:stockid="Arrow1Mend">
      <path
         transform="scale(0.4) rotate(180) translate(10,0)"
         style="fill-rule:evenodd;stroke:#000000;stroke-width:1pt;stroke-opacity:1;fill:#000000;fill-opacity:1"
         d="M 0.0,0.0 L 5.0,-5.0 L -12.5,0.0 L 5.0,5.0 L 0.0,0.0 z "
         id="path2882" />
    </marker>
    <marker
       inkscape:isstock="true"
       style="overflow:visible;"
       id="marker2410"
       refX="0.0"
       refY="0.0"
       orient="auto"
       inkscape:stockid="Arrow1Mend"
       inkscape:collect="always">
      <path
         transform="scale(0.4) rotate(180) translate(10,0)"
         style="fill-rule:evenodd;stroke:#000000;stroke-width:1pt;stroke-opacity:1;fill:#000000;fill-opacity:1"
         d="M 0.0,0.0 L 5.0,-5.0 L -12.5,0.0 L 5.0,5.0 L 0.0,0.0 z "
         id="path2408" />
    </marker>
    <marker
       inkscape:stockid="Arrow1Mend"
       orient="auto"
       refY="0.0"
       refX="0.0"
       id="marker2260"
       style="overflow:visible;"
       inkscape:isstock="true"
       inkscape:collect="always">
      <path
         id="path2258"
         d="M 0.0,0.0 L 5.0,-5.0 L -12.5,0.0 L 5.0,5.0 L 0.0,0.0 z "
         style="fill-rule:evenodd;stroke:#000000;stroke-width:1pt;stroke-opacity:1;fill:#000000;fill-opacity:1"
         transform="scale(0.4) rotate(180) translate(10,0)" />
    </marker>
  </defs>
  <sodipodi:namedview
     id="base"
     pagecolor="#ffffff"
     bordercolor="#666666"
     borderopacity="1.0"
     inkscape:pageopacity="0.0"
     inkscape:pageshadow="2"
     inkscape:zoom="1.7104046"
     inkscape:cx="4.0630103"
     inkscape:cy="668.42056"
     inkscape:document-units="mm"
     inkscape:current-layer="g3808"
     showgrid="true"
     showborder="false"
     inkscape:window-width="1920"
     inkscape:window-height="1031"
     inkscape:window-x="0"
     inkscape:window-y="0"
     inkscape:window-maximized="1">
    <inkscape:grid
       type="xygrid"
       id="grid815" />
  </sodipodi:namedview>
  <metadata
     id="metadata5">
    <rdf:RDF>
      <cc:Work
         rdf:about="">
        <dc:format>image/svg+xml</dc:format>
        <dc:type
           rdf:resource="http://purl.org/dc/dcmitype/StillImage" />
        <dc:title />
      </cc:Work>
    </rdf:RDF>
  </metadata>
  <g
     inkscape:label="Layer 1"
     inkscape:groupmode="layer"
     id="layer1">
    <g
       id="g2285"
       transform="translate(0,82.020833)"
       inkscape:export-filename="C:\Users\User\OneDrive - Akademia Górniczo-Hutnicza im. Stanisława Staszica w Krakowie\Pulpit\Files\dydaktyka\prace_inzynierskie\SRAM dokumentacja\sram_timing_read.png"
       inkscape:export-xdpi="149.90375"
       inkscape:export-ydpi="149.90375">
      <g
         id="g3808"
         inkscape:export-filename="C:\Users\User\OneDrive - Akademia Górniczo-Hutnicza im. Stanisława Staszica w Krakowie\Pulpit\Files\dydaktyka\prace_inzynierskie\SRAM dokumentacja\sram_timing_read.png"
         inkscape:export-xdpi="149.90375"
         inkscape:export-ydpi="149.90375">
        <path
           sodipodi:nodetypes="cccccc"
           inkscape:connector-curvature="0"
           id="path2163"
           d="m 23.8125,35.062499 22.225,10e-7 2.645833,5.291666 23.8125,10e-7 2.645833,-5.291666 9.525001,-2e-6"
           style="fill:none;stroke:#000000;stroke-width:0.26458332px;stroke-linecap:butt;stroke-linejoin:miter;stroke-opacity:1" />
        <path
           sodipodi:nodetypes="cccccc"
           inkscape:connector-curvature="0"
           id="path2165"
           d="m 23.8125,72.104181 h 15.875 l 2.645833,-5.291668 h 23.8125 l 2.645834,5.291667 h 15.875"
           style="fill:none;stroke:#000000;stroke-width:0.26458332px;stroke-linecap:butt;stroke-linejoin:miter;stroke-opacity:1" />
        <path
           sodipodi:nodetypes="cccc"
           style="fill:none;stroke:#000000;stroke-width:0.26458332px;stroke-linecap:butt;stroke-linejoin:miter;stroke-opacity:1"
           d="M 23.8125,82.687514 H 47.625 l 2.645833,-5.291667 h 23.8125"
           id="path2167"
           inkscape:connector-curvature="0" />
        <path
           inkscape:connector-curvature="0"
           id="path2169"
           d="m 74.083332,77.395847 2.645834,5.291667 h 7.9375"
           style="fill:none;stroke:#000000;stroke-width:0.26458332px;stroke-linecap:butt;stroke-linejoin:miter;stroke-opacity:1" />
        <path
           style="fill:none;stroke:#000000;stroke-width:0.26458332px;stroke-linecap:butt;stroke-linejoin:miter;stroke-opacity:1"
           d="m 23.8125,40.354167 22.225,-10e-7 2.645833,-5.291666 23.8125,10e-7 2.645833,5.291666 h 9.525001"
           id="path2171"
           inkscape:connector-curvature="0"
           sodipodi:nodetypes="cccccc" />
        <text
           id="text2175"
           y="28.6369"
           x="21.604883"
           style="font-style:normal;font-weight:normal;font-size:3.52777778px;line-height:1.25;font-family:sans-serif;letter-spacing:0px;word-spacing:0px;fill:#000000;fill-opacity:1;stroke:none;stroke-width:0.26458332;"
           xml:space="preserve"><tspan
             style="font-size:3.52777778px;text-align:end;text-anchor:end;stroke-width:0.26458332;"
             y="28.6369"
             x="21.604883"
             id="tspan2173"
             sodipodi:role="line">addr&lt;5:0&gt;</tspan></text>
        <text
           xml:space="preserve"
           style="font-style:normal;font-weight:normal;font-size:3.52777778px;line-height:1.25;font-family:sans-serif;letter-spacing:0px;word-spacing:0px;fill:#000000;fill-opacity:1;stroke:none;stroke-width:0.26458332;"
           x="21.226908"
           y="39.220234"
           id="text2179"><tspan
             sodipodi:role="line"
             id="tspan2177"
             x="21.226908"
             y="39.220234"
             style="font-size:3.52777778px;text-align:end;text-anchor:end;stroke-width:0.26458332;">dout&lt;11:0&gt;</tspan></text>
        <text
           id="text2183"
           y="49.425591"
           x="21.03792"
           style="font-style:normal;font-weight:normal;font-size:3.52777778px;line-height:1.25;font-family:sans-serif;letter-spacing:0px;word-spacing:0px;fill:#000000;fill-opacity:1;stroke:none;stroke-width:0.26458332;"
           xml:space="preserve"><tspan
             style="font-size:3.52777778px;text-align:end;text-anchor:end;stroke-width:0.26458332;"
             y="49.425591"
             x="21.03792"
             id="tspan2181"
             sodipodi:role="line">write</tspan></text>
        <text
           xml:space="preserve"
           style="font-style:normal;font-weight:normal;font-size:3.52777778px;line-height:1.25;font-family:sans-serif;letter-spacing:0px;word-spacing:0px;fill:#000000;fill-opacity:1;stroke:none;stroke-width:0.26458332;"
           x="20.659945"
           y="59.819935"
           id="text2187"><tspan
             sodipodi:role="line"
             id="tspan2185"
             x="20.659945"
             y="59.819935"
             style="font-size:3.52777778px;text-align:end;text-anchor:end;stroke-width:0.26458332;">write_done</tspan></text>
        <path
           inkscape:connector-curvature="0"
           id="path2205"
           d="M 23.8125,50.9375 H 84.666666"
           style="fill:none;fill-opacity:1;stroke:#000000;stroke-width:0.26458332;stroke-linecap:round;stroke-linejoin:round;stroke-miterlimit:4;stroke-dasharray:none;stroke-dashoffset:0;stroke-opacity:1;paint-order:stroke fill markers" />
        <text
           id="text2209"
           y="70.592255"
           x="21.03792"
           style="font-style:normal;font-weight:normal;font-size:3.52777778px;line-height:1.25;font-family:sans-serif;letter-spacing:0px;word-spacing:0px;fill:#000000;fill-opacity:1;stroke:none;stroke-width:0.26458332;"
           xml:space="preserve"><tspan
             style="font-size:3.52777778px;text-align:end;text-anchor:end;stroke-width:0.26458332;"
             y="70.592255"
             x="21.03792"
             id="tspan2207"
             sodipodi:role="line">read</tspan></text>
        <path
           style="fill:none;fill-opacity:1;stroke:#000000;stroke-width:0.26458332;stroke-linecap:round;stroke-linejoin:round;stroke-miterlimit:4;stroke-dasharray:none;stroke-dashoffset:0;stroke-opacity:1;paint-order:stroke fill markers"
           d="M 23.8125,61.520833 H 84.666666"
           id="path2211"
           inkscape:connector-curvature="0" />
        <text
           xml:space="preserve"
           style="font-style:normal;font-weight:normal;font-size:3.52777778px;line-height:1.25;font-family:sans-serif;letter-spacing:0px;word-spacing:0px;fill:#000000;fill-opacity:1;stroke:none;stroke-width:0.26458332;"
           x="21.03792"
           y="81.175591"
           id="text2215"><tspan
             sodipodi:role="line"
             id="tspan2213"
             x="21.03792"
             y="81.175591"
             style="font-size:3.52777778px;text-align:end;text-anchor:end;stroke-width:0.26458332;">read_done</tspan></text>
        <path
           style="fill:none;stroke:#000000;stroke-width:0.26458332px;stroke-linecap:butt;stroke-linejoin:miter;stroke-opacity:1"
           d="m 23.8125,24.479166 5.291667,1e-6 2.645833,5.291666 47.625,1e-6 2.645833,-5.291666 2.645834,-2e-6"
           id="path2217"
           inkscape:connector-curvature="0"
           sodipodi:nodetypes="cccccc" />
        <path
           sodipodi:nodetypes="cccccc"
           inkscape:connector-curvature="0"
           id="path2219"
           d="m 23.8125,29.770834 5.291667,-1e-6 2.645833,-5.291666 47.625,1e-6 2.645833,5.291666 h 2.645834"
           style="fill:none;stroke:#000000;stroke-width:0.26458332px;stroke-linecap:butt;stroke-linejoin:miter;stroke-opacity:1" />
        <path
           sodipodi:nodetypes="cc"
           inkscape:connector-curvature="0"
           id="path2221"
           d="m 41.539583,69.458334 c 3.96875,2.645833 0.793751,7.937512 6.085417,10.583346"
           style="fill:none;fill-opacity:1;stroke:#0000ff;stroke-width:0.26458332;stroke-linecap:round;stroke-linejoin:round;stroke-miterlimit:4;stroke-dasharray:none;stroke-dashoffset:0;stroke-opacity:1;marker-end:url(#marker2605);paint-order:stroke fill markers" />
        <path
           style="fill:none;fill-opacity:1;stroke:#0000ff;stroke-width:0.26458332;stroke-linecap:round;stroke-linejoin:round;stroke-miterlimit:4;stroke-dasharray:none;stroke-dashoffset:0;stroke-opacity:1;marker-end:url(#marker2289);paint-order:stroke fill markers"
           d="m 67.997917,69.458334 c 3.96875,2.645833 0.79375,7.937512 6.085416,10.583346"
           id="path2223"
           inkscape:connector-curvature="0"
           sodipodi:nodetypes="cc" />
        <path
           sodipodi:nodetypes="cc"
           inkscape:connector-curvature="0"
           id="path2225"
           d="M 30.427083,32.416668 V 15.21875"
           style="fill:none;fill-opacity:1;stroke:#000000;stroke-width:0.13229167;stroke-linecap:round;stroke-linejoin:round;stroke-miterlimit:4;stroke-dasharray:0.39687505, 0.39687505;stroke-dashoffset:0;stroke-opacity:1;paint-order:stroke fill markers" />
        <path
           sodipodi:nodetypes="cc"
           style="fill:none;fill-opacity:1;stroke:#000000;stroke-width:0.13229167;stroke-linecap:round;stroke-linejoin:round;stroke-miterlimit:4;stroke-dasharray:0.39687505, 0.39687505;stroke-dashoffset:0;stroke-opacity:1;paint-order:stroke fill markers"
           d="M 41.010417,74.750002 V 15.21875"
           id="path2227"
           inkscape:connector-curvature="0" />
        <path
           inkscape:connector-curvature="0"
           id="path2229"
           d="M 75.40625,85.333336 V 15.21875"
           style="fill:none;fill-opacity:1;stroke:#000000;stroke-width:0.13229167;stroke-linecap:round;stroke-linejoin:round;stroke-miterlimit:4;stroke-dasharray:0.39687505, 0.39687505;stroke-dashoffset:0;stroke-opacity:1;paint-order:stroke fill markers"
           sodipodi:nodetypes="cc" />
        <path
           sodipodi:nodetypes="cc"
           style="fill:none;fill-opacity:1;stroke:#000000;stroke-width:0.13229167;stroke-linecap:round;stroke-linejoin:round;stroke-miterlimit:4;stroke-dasharray:0.39687505, 0.39687505;stroke-dashoffset:0;stroke-opacity:1;paint-order:stroke fill markers"
           d="M 80.697917,32.416668 V 15.21875"
           id="path2231"
           inkscape:connector-curvature="0" />
        <path
           sodipodi:nodetypes="cc"
           inkscape:connector-curvature="0"
           id="path2233"
           d="m 26.458333,16.541666 3.439584,1e-6"
           style="fill:none;fill-opacity:1;stroke:#000000;stroke-width:0.26458332;stroke-linecap:round;stroke-linejoin:round;stroke-miterlimit:4;stroke-dasharray:none;stroke-dashoffset:0;stroke-opacity:1;marker-end:url(#marker2260);paint-order:stroke fill markers" />
        <path
           style="fill:none;fill-opacity:1;stroke:#000000;stroke-width:0.26458332;stroke-linecap:round;stroke-linejoin:round;stroke-miterlimit:4;stroke-dasharray:none;stroke-dashoffset:0;stroke-opacity:1;marker-end:url(#marker2410);paint-order:stroke fill markers"
           d="m 44.979167,16.541666 -3.439584,1e-6"
           id="path2235"
           inkscape:connector-curvature="0"
           sodipodi:nodetypes="cc" />
        <path
           inkscape:connector-curvature="0"
           id="path2237"
           d="M 30.427083,16.541666 H 41.010416"
           style="fill:none;fill-opacity:1;stroke:#000000;stroke-width:0.13229167;stroke-linecap:round;stroke-linejoin:round;stroke-miterlimit:4;stroke-dasharray:none;stroke-dashoffset:0;stroke-opacity:1;paint-order:stroke fill markers" />
        <path
           style="fill:none;fill-opacity:1;stroke:#000000;stroke-width:0.26458332;stroke-linecap:round;stroke-linejoin:round;stroke-miterlimit:4;stroke-dasharray:none;stroke-dashoffset:0;stroke-opacity:1;marker-end:url(#marker2884);paint-order:stroke fill markers"
           d="m 71.4375,16.541667 3.439584,1e-6"
           id="path2239"
           inkscape:connector-curvature="0"
           sodipodi:nodetypes="cc" />
        <path
           sodipodi:nodetypes="cc"
           inkscape:connector-curvature="0"
           id="path2241"
           d="m 84.666664,16.541667 -3.439584,1e-6"
           style="fill:none;fill-opacity:1;stroke:#000000;stroke-width:0.26458332;stroke-linecap:round;stroke-linejoin:round;stroke-miterlimit:4;stroke-dasharray:none;stroke-dashoffset:0;stroke-opacity:1;marker-end:url(#marker3116);paint-order:stroke fill markers" />
        <path
           sodipodi:nodetypes="cc"
           style="fill:none;fill-opacity:1;stroke:#000000;stroke-width:0.13229167;stroke-linecap:round;stroke-linejoin:round;stroke-miterlimit:4;stroke-dasharray:none;stroke-dashoffset:0;stroke-opacity:1;paint-order:stroke fill markers"
           d="m 75.40625,16.541667 h 5.291667"
           id="path2243"
           inkscape:connector-curvature="0" />
        <text
           id="text2249"
           y="14.978342"
           x="32.551807"
           style="font-style:normal;font-weight:normal;font-size:2.82222223px;line-height:1.25;font-family:sans-serif;letter-spacing:0px;word-spacing:0px;fill:#000000;fill-opacity:1;stroke:none;stroke-width:0.26458332"
           xml:space="preserve"><tspan
             style="stroke-width:0.26458332"
             y="14.978342"
             x="32.551807"
             id="tspan2247"
             sodipodi:role="line">t<tspan
   id="tspan2245"
   style="font-size:64.99999762%;baseline-shift:sub">setup</tspan></tspan></text>
        <text
           xml:space="preserve"
           style="font-style:normal;font-weight:normal;font-size:2.82222223px;line-height:1.25;font-family:sans-serif;letter-spacing:0px;word-spacing:0px;fill:#000000;fill-opacity:1;stroke:none;stroke-width:0.26458332"
           x="75.51001"
           y="14.978342"
           id="text2255"><tspan
             sodipodi:role="line"
             id="tspan2253"
             x="75.51001"
             y="14.978342"
             style="stroke-width:0.26458332">t<tspan
   style="font-size:64.99999762%;baseline-shift:sub"
   id="tspan2251">hold</tspan></tspan></text>
        <path
           inkscape:connector-curvature="0"
           id="path2257"
           d="m 48.947917,85.333334 5e-6,-70.114584"
           style="fill:none;fill-opacity:1;stroke:#000000;stroke-width:0.13229167;stroke-linecap:round;stroke-linejoin:round;stroke-miterlimit:4;stroke-dasharray:0.39687505, 0.39687505;stroke-dashoffset:0;stroke-opacity:1;paint-order:stroke fill markers"
           sodipodi:nodetypes="cc" />
        <path
           inkscape:connector-curvature="0"
           id="path2259"
           d="M 67.468767,74.750002 V 15.21875"
           style="fill:none;fill-opacity:1;stroke:#000000;stroke-width:0.13229167;stroke-linecap:round;stroke-linejoin:round;stroke-miterlimit:4;stroke-dasharray:0.39687505, 0.39687505;stroke-dashoffset:0;stroke-opacity:1;paint-order:stroke fill markers"
           sodipodi:nodetypes="cc" />
        <text
           xml:space="preserve"
           style="font-style:normal;font-weight:normal;font-size:2.82222223px;line-height:1.25;font-family:sans-serif;letter-spacing:0px;word-spacing:0px;fill:#000000;fill-opacity:1;stroke:none;stroke-width:0.26458332"
           x="43.782501"
           y="20.719265"
           id="text2265"><tspan
             sodipodi:role="line"
             id="tspan2263"
             x="43.782501"
             y="20.719265"
             style="stroke-width:0.26458332">t<tspan
   style="font-size:64.99999762%;baseline-shift:sub"
   id="tspan2261">r</tspan></tspan></text>
        <path
           sodipodi:nodetypes="cc"
           inkscape:connector-curvature="0"
           id="path2267"
           d="m 52.916667,21.833333 -3.439584,1e-6"
           style="fill:none;fill-opacity:1;stroke:#000000;stroke-width:0.26458332;stroke-linecap:round;stroke-linejoin:round;stroke-miterlimit:4;stroke-dasharray:none;stroke-dashoffset:0;stroke-opacity:1;marker-end:url(#marker969);paint-order:stroke fill markers" />
        <path
           style="fill:none;fill-opacity:1;stroke:#000000;stroke-width:0.26458332;stroke-linecap:round;stroke-linejoin:round;stroke-miterlimit:4;stroke-dasharray:none;stroke-dashoffset:0;stroke-opacity:1;marker-end:url(#marker1425);paint-order:stroke fill markers"
           d="m 37.041667,21.833333 3.439584,1e-6"
           id="path2269"
           inkscape:connector-curvature="0"
           sodipodi:nodetypes="cc" />
        <path
           style="fill:none;fill-opacity:1;stroke:#000000;stroke-width:0.13229167;stroke-linecap:round;stroke-linejoin:round;stroke-miterlimit:4;stroke-dasharray:none;stroke-dashoffset:0;stroke-opacity:1;paint-order:stroke fill markers"
           d="m 41.010417,21.833333 h 7.9375"
           id="path2271"
           inkscape:connector-curvature="0"
           sodipodi:nodetypes="cc" />
        <text
           id="text2277"
           y="20.719265"
           x="69.711693"
           style="font-style:normal;font-weight:normal;font-size:2.82222223px;line-height:1.25;font-family:sans-serif;letter-spacing:0px;word-spacing:0px;fill:#000000;fill-opacity:1;stroke:none;stroke-width:0.26458332"
           xml:space="preserve"><tspan
             style="stroke-width:0.26458332"
             y="20.719265"
             x="69.711693"
             id="tspan2275"
             sodipodi:role="line">t<tspan
   id="tspan2273"
   style="font-size:64.99999762%;baseline-shift:sub">rb</tspan></tspan></text>
        <path
           style="fill:none;fill-opacity:1;stroke:#000000;stroke-width:0.26458332;stroke-linecap:round;stroke-linejoin:round;stroke-miterlimit:4;stroke-dasharray:none;stroke-dashoffset:0;stroke-opacity:1;marker-end:url(#marker1793);paint-order:stroke fill markers"
           d="m 79.375017,21.833333 -3.439584,1e-6"
           id="path2279"
           inkscape:connector-curvature="0"
           sodipodi:nodetypes="cc" />
        <path
           sodipodi:nodetypes="cc"
           inkscape:connector-curvature="0"
           id="path2281"
           d="m 63.500017,21.833333 3.439584,1e-6"
           style="fill:none;fill-opacity:1;stroke:#000000;stroke-width:0.26458332;stroke-linecap:round;stroke-linejoin:round;stroke-miterlimit:4;stroke-dasharray:none;stroke-dashoffset:0;stroke-opacity:1;marker-end:url(#marker1425);paint-order:stroke fill markers" />
        <path
           sodipodi:nodetypes="cc"
           inkscape:connector-curvature="0"
           id="path2283"
           d="m 67.468767,21.833333 h 7.9375"
           style="fill:none;fill-opacity:1;stroke:#000000;stroke-width:0.13229167;stroke-linecap:round;stroke-linejoin:round;stroke-miterlimit:4;stroke-dasharray:none;stroke-dashoffset:0;stroke-opacity:1;paint-order:stroke fill markers" />
        <path
           style="fill:none;fill-opacity:1;stroke:#0000ff;stroke-width:0.26458332;stroke-linecap:round;stroke-linejoin:round;stroke-miterlimit:4;stroke-dasharray:none;stroke-dashoffset:0;stroke-opacity:1;marker-end:url(#marker2689);paint-order:stroke fill markers"
           d="M 41.539583,69.458334 C 53.445833,60.197917 34.395833,43 46.302083,37.708334"
           id="path2685"
           inkscape:connector-curvature="0"
           sodipodi:nodetypes="cc" />
        <path
           sodipodi:nodetypes="cc"
           inkscape:connector-curvature="0"
           id="path4038"
           d="M 67.997917,69.458334 C 79.904167,60.197917 60.854167,43 72.760417,37.708334"
           style="fill:none;fill-opacity:1;stroke:#0000ff;stroke-width:0.26458332;stroke-linecap:round;stroke-linejoin:round;stroke-miterlimit:4;stroke-dasharray:none;stroke-dashoffset:0;stroke-opacity:1;marker-end:url(#marker4042);paint-order:stroke fill markers" />
      </g>
    </g>
  </g>
</svg>
