%!PS-Adobe-2.0 EPSF-2.0
%%Title: /home/mikolaj/proj/bachelor-thesis/fig_src/async_ctrl_state_diagram.dia
%%Creator: Dia v0.97+git
%%CreationDate: Mon Dec 28 02:18:29 2020
%%For: mikolaj
%%Orientation: Portrait
%%Magnification: 1.0000
%%BoundingBox: 0 0 528 549
%%BeginSetup
%%EndSetup
%%EndComments
%%BeginProlog
[ /.notdef /.notdef /.notdef /.notdef /.notdef /.notdef /.notdef /.notdef /.notdef /.notdef
/.notdef /.notdef /.notdef /.notdef /.notdef /.notdef /.notdef /.notdef /.notdef /.notdef
/.notdef /.notdef /.notdef /.notdef /.notdef /.notdef /.notdef /.notdef /.notdef /.notdef
/.notdef /.notdef /space /exclam /quotedbl /numbersign /dollar /percent /ampersand /quoteright
/parenleft /parenright /asterisk /plus /comma /hyphen /period /slash /zero /one
/two /three /four /five /six /seven /eight /nine /colon /semicolon
/less /equal /greater /question /at /A /B /C /D /E
/F /G /H /I /J /K /L /M /N /O
/P /Q /R /S /T /U /V /W /X /Y
/Z /bracketleft /backslash /bracketright /asciicircum /underscore /quoteleft /a /b /c
/d /e /f /g /h /i /j /k /l /m
/n /o /p /q /r /s /t /u /v /w
/x /y /z /braceleft /bar /braceright /asciitilde /.notdef /.notdef /.notdef
/.notdef /.notdef /.notdef /.notdef /.notdef /.notdef /.notdef /.notdef /.notdef /.notdef
/.notdef /.notdef /.notdef /.notdef /.notdef /.notdef /.notdef /.notdef /.notdef /.notdef
/.notdef /.notdef /.notdef /.notdef /.notdef /.notdef /.notdef /.notdef /.notdef /.notdef
/space /exclamdown /cent /sterling /currency /yen /brokenbar /section /dieresis /copyright
/ordfeminine /guillemotleft /logicalnot /hyphen /registered /macron /degree /plusminus /twosuperior /threesuperior
/acute /mu /paragraph /periodcentered /cedilla /onesuperior /ordmasculine /guillemotright /onequarter /onehalf
/threequarters /questiondown /Agrave /Aacute /Acircumflex /Atilde /Adieresis /Aring /AE /Ccedilla
/Egrave /Eacute /Ecircumflex /Edieresis /Igrave /Iacute /Icircumflex /Idieresis /Eth /Ntilde
/Ograve /Oacute /Ocircumflex /Otilde /Odieresis /multiply /Oslash /Ugrave /Uacute /Ucircumflex
/Udieresis /Yacute /Thorn /germandbls /agrave /aacute /acircumflex /atilde /adieresis /aring
/ae /ccedilla /egrave /eacute /ecircumflex /edieresis /igrave /iacute /icircumflex /idieresis
/eth /ntilde /ograve /oacute /ocircumflex /otilde /odieresis /divide /oslash /ugrave
/uacute /ucircumflex /udieresis /yacute /thorn /ydieresis] /isolatin1encoding exch def
/cp {closepath} bind def
/c {curveto} bind def
/f {fill} bind def
/a {arc} bind def
/ef {eofill} bind def
/ex {exch} bind def
/gr {grestore} bind def
/gs {gsave} bind def
/sa {save} bind def
/rs {restore} bind def
/l {lineto} bind def
/m {moveto} bind def
/rm {rmoveto} bind def
/n {newpath} bind def
/s {stroke} bind def
/sh {show} bind def
/slc {setlinecap} bind def
/slj {setlinejoin} bind def
/slw {setlinewidth} bind def
/srgb {setrgbcolor} bind def
/rot {rotate} bind def
/sc {scale} bind def
/sd {setdash} bind def
/ff {findfont} bind def
/sf {setfont} bind def
/scf {scalefont} bind def
/sw {stringwidth pop} bind def
/tr {translate} bind def

/ellipsedict 8 dict def
ellipsedict /mtrx matrix put
/ellipse
{ ellipsedict begin
   /endangle exch def
   /startangle exch def
   /yrad exch def
   /xrad exch def
   /y exch def
   /x exch def   /savematrix mtrx currentmatrix def
   x y tr xrad yrad sc
   0 0 1 startangle endangle arc
   savematrix setmatrix
   end
} def

/mergeprocs {
dup length
3 -1 roll
dup
length
dup
5 1 roll
3 -1 roll
add
array cvx
dup
3 -1 roll
0 exch
putinterval
dup
4 2 roll
putinterval
} bind def
/dpi_x 300 def
/dpi_y 300 def
/conicto {
    /to_y exch def
    /to_x exch def
    /conic_cntrl_y exch def
    /conic_cntrl_x exch def
    currentpoint
    /p0_y exch def
    /p0_x exch def
    /p1_x p0_x conic_cntrl_x p0_x sub 2 3 div mul add def
    /p1_y p0_y conic_cntrl_y p0_y sub 2 3 div mul add def
    /p2_x p1_x to_x p0_x sub 1 3 div mul add def
    /p2_y p1_y to_y p0_y sub 1 3 div mul add def
    p1_x p1_y p2_x p2_y to_x to_y curveto
} bind def
/start_ol { gsave 1.1 dpi_x div dup scale} bind def
/end_ol { closepath fill grestore } bind def
28.346000 -28.346000 scale
-29.450000 -30.550000 translate
%%EndProlog


0.100000 slw
[] 0 sd
0 slj
1.000000 1.000000 1.000000 srgb
n 38.750000 13.750000 1.750000 1.750000 0 360 ellipse f
0.000000 0.000000 0.000000 srgb
n 38.750000 13.750000 1.750000 1.750000 0 360 ellipse cp s
gsave 38.027500 13.944062 translate 0.035278 -0.035278 scale
start_ol
477 3520 moveto
957 3520 lineto
957 0 lineto
477 0 lineto
477 3520 lineto
end_ol grestore 
gsave 38.217322 13.944062 translate 0.035278 -0.035278 scale
start_ol
957 3136 moveto
957 384 lineto
1537 384 lineto
2271 384 2611 716 conicto
2952 1048 2952 1764 conicto
2952 2475 2611 2805 conicto
2271 3136 1537 3136 conicto
957 3136 lineto
477 3520 moveto
1463 3520 lineto
2494 3520 2976 3094 conicto
3458 2669 3458 1764 conicto
3458 853 2973 426 conicto
2489 0 1463 0 conicto
477 0 lineto
477 3520 lineto
end_ol grestore 
gsave 38.709356 13.944062 translate 0.035278 -0.035278 scale
start_ol
477 3520 moveto
957 3520 lineto
957 384 lineto
2684 384 lineto
2684 0 lineto
477 0 lineto
477 3520 lineto
end_ol grestore 
gsave 39.066519 13.944062 translate 0.035278 -0.035278 scale
start_ol
477 3520 moveto
2719 3520 lineto
2719 3136 lineto
957 3136 lineto
957 2112 lineto
2646 2112 lineto
2646 1728 lineto
957 1728 lineto
957 384 lineto
2762 384 lineto
2762 0 lineto
477 0 lineto
477 3520 lineto
end_ol grestore 
0.100000 slw
[] 0 sd
0 slj
1.000000 1.000000 1.000000 srgb
n 46.250000 21.250000 1.750000 1.750000 0 360 ellipse f
0.000000 0.000000 0.000000 srgb
n 46.250000 21.250000 1.750000 1.750000 0 360 ellipse cp s
gsave 45.360000 21.444063 translate 0.035278 -0.035278 scale
start_ol
2159 1632 moveto
2313 1581 2459 1413 conicto
2606 1245 2753 952 conicto
3240 0 lineto
2724 0 lineto
2271 893 lineto
2095 1243 1930 1357 conicto
1765 1472 1480 1472 conicto
957 1472 lineto
957 0 lineto
477 0 lineto
477 3520 lineto
1560 3520 lineto
2168 3520 2467 3265 conicto
2767 3010 2767 2496 conicto
2767 2161 2611 1939 conicto
2456 1718 2159 1632 conicto
957 3136 moveto
957 1856 lineto
1560 1856 lineto
1907 1856 2084 2019 conicto
2261 2182 2261 2498 conicto
2261 2815 2084 2975 conicto
1907 3136 1560 3136 conicto
957 3136 lineto
end_ol grestore 
gsave 45.804583 21.444063 translate 0.035278 -0.035278 scale
start_ol
477 3520 moveto
2719 3520 lineto
2719 3136 lineto
957 3136 lineto
957 2112 lineto
2646 2112 lineto
2646 1728 lineto
957 1728 lineto
957 384 lineto
2762 384 lineto
2762 0 lineto
477 0 lineto
477 3520 lineto
end_ol grestore 
gsave 46.209197 21.444063 translate 0.035278 -0.035278 scale
start_ol
1663 3047 moveto
1012 1280 lineto
2316 1280 lineto
1663 3047 lineto
1392 3520 moveto
1936 3520 lineto
3287 0 lineto
2788 0 lineto
2465 896 lineto
867 896 lineto
544 0 lineto
38 0 lineto
1392 3520 lineto
end_ol grestore 
gsave 46.646288 21.444063 translate 0.035278 -0.035278 scale
start_ol
957 3136 moveto
957 384 lineto
1537 384 lineto
2271 384 2611 716 conicto
2952 1048 2952 1764 conicto
2952 2475 2611 2805 conicto
2271 3136 1537 3136 conicto
957 3136 lineto
477 3520 moveto
1463 3520 lineto
2494 3520 2976 3094 conicto
3458 2669 3458 1764 conicto
3458 853 2973 426 conicto
2489 0 1463 0 conicto
477 0 lineto
477 3520 lineto
end_ol grestore 
0.100000 slw
[] 0 sd
0 slj
1.000000 1.000000 1.000000 srgb
n 38.750000 28.750000 1.750000 1.750000 0 360 ellipse f
0.000000 0.000000 0.000000 srgb
n 38.750000 28.750000 1.750000 1.750000 0 360 ellipse cp s
gsave 37.941094 28.944063 translate 0.035278 -0.035278 scale
start_ol
162 3520 moveto
646 3520 lineto
1392 545 lineto
2135 3520 lineto
2674 3520 lineto
3420 545 lineto
4163 3520 lineto
4650 3520 lineto
3760 0 lineto
3156 0 lineto
2408 3056 lineto
1653 0 lineto
1050 0 lineto
162 3520 lineto
end_ol grestore 
gsave 38.538035 28.944063 translate 0.035278 -0.035278 scale
start_ol
1663 3047 moveto
1012 1280 lineto
2316 1280 lineto
1663 3047 lineto
1392 3520 moveto
1936 3520 lineto
3287 0 lineto
2788 0 lineto
2465 896 lineto
867 896 lineto
544 0 lineto
38 0 lineto
1392 3520 lineto
end_ol grestore 
gsave 38.975127 28.944063 translate 0.035278 -0.035278 scale
start_ol
477 3520 moveto
957 3520 lineto
957 0 lineto
477 0 lineto
477 3520 lineto
end_ol grestore 
gsave 39.164949 28.944063 translate 0.035278 -0.035278 scale
start_ol
-14 3520 moveto
2985 3520 lineto
2985 3136 lineto
1727 3136 lineto
1727 0 lineto
1245 0 lineto
1245 3136 lineto
-14 3136 lineto
-14 3520 lineto
end_ol grestore 
0.100000 slw
[] 0 sd
0 slj
1.000000 1.000000 1.000000 srgb
n 31.250000 21.250000 1.750000 1.750000 0 360 ellipse f
0.000000 0.000000 0.000000 srgb
n 31.250000 21.250000 1.750000 1.750000 0 360 ellipse cp s
gsave 30.218750 21.444063 translate 0.035278 -0.035278 scale
start_ol
162 3520 moveto
646 3520 lineto
1392 545 lineto
2135 3520 lineto
2674 3520 lineto
3420 545 lineto
4163 3520 lineto
4650 3520 lineto
3760 0 lineto
3156 0 lineto
2408 3056 lineto
1653 0 lineto
1050 0 lineto
162 3520 lineto
end_ol grestore 
gsave 30.850658 21.444063 translate 0.035278 -0.035278 scale
start_ol
2159 1632 moveto
2313 1581 2459 1413 conicto
2606 1245 2753 952 conicto
3240 0 lineto
2724 0 lineto
2271 893 lineto
2095 1243 1930 1357 conicto
1765 1472 1480 1472 conicto
957 1472 lineto
957 0 lineto
477 0 lineto
477 3520 lineto
1560 3520 lineto
2168 3520 2467 3265 conicto
2767 3010 2767 2496 conicto
2767 2161 2611 1939 conicto
2456 1718 2159 1632 conicto
957 3136 moveto
957 1856 lineto
1560 1856 lineto
1907 1856 2084 2019 conicto
2261 2182 2261 2498 conicto
2261 2815 2084 2975 conicto
1907 3136 1560 3136 conicto
957 3136 lineto
end_ol grestore 
gsave 31.295240 21.444063 translate 0.035278 -0.035278 scale
start_ol
477 3520 moveto
957 3520 lineto
957 0 lineto
477 0 lineto
477 3520 lineto
end_ol grestore 
gsave 31.485062 21.444063 translate 0.035278 -0.035278 scale
start_ol
-14 3520 moveto
2985 3520 lineto
2985 3136 lineto
1727 3136 lineto
1727 0 lineto
1245 0 lineto
1245 3136 lineto
-14 3136 lineto
-14 3520 lineto
end_ol grestore 
gsave 31.874694 21.444063 translate 0.035278 -0.035278 scale
start_ol
477 3520 moveto
2719 3520 lineto
2719 3136 lineto
957 3136 lineto
957 2112 lineto
2646 2112 lineto
2646 1728 lineto
957 1728 lineto
957 384 lineto
2762 384 lineto
2762 0 lineto
477 0 lineto
477 3520 lineto
end_ol grestore 
0.100000 slw
[] 0 sd
0 slc
n 40.023041 15.023041 m 44.632737 19.632737 l s
[] 0 sd
0 slj
0 slc
n 44.897902 19.897902 m 44.367572 19.721126 l 44.632737 19.632737 l 44.721126 19.367572 l ef
n 44.897902 19.897902 m 44.367572 19.721126 l 44.632737 19.632737 l 44.721126 19.367572 l cp s
0.100000 slw
[] 0 sd
0 slc
n 45.012600 22.487400 m 40.331622 27.168378 l s
[] 0 sd
0 slj
0 slc
n 40.066457 27.433543 m 40.243234 26.903213 l 40.331622 27.168378 l 40.596787 27.256766 l ef
n 40.066457 27.433543 m 40.243234 26.903213 l 40.331622 27.168378 l 40.596787 27.256766 l cp s
0.100000 slw
[] 0 sd
0 slc
n 37.477527 27.477527 m 32.831622 22.831622 l s
[] 0 sd
0 slj
0 slc
n 32.566457 22.566457 m 33.096787 22.743234 l 32.831622 22.831622 l 32.743234 23.096787 l ef
n 32.566457 22.566457 m 33.096787 22.743234 l 32.831622 22.831622 l 32.743234 23.096787 l cp s
0.100000 slw
[] 0 sd
0 slc
n 32.522473 19.977527 m 37.168378 15.331622 l s
[] 0 sd
0 slj
0 slc
n 37.433543 15.066457 m 37.256766 15.596787 l 37.168378 15.331622 l 36.903213 15.243234 l ef
n 37.433543 15.066457 m 37.256766 15.596787 l 37.168378 15.331622 l 36.903213 15.243234 l cp s
0.100000 slw
[0.200000] 0 sd
0 slc
n 41.250975 18.749025 5.055118 5.055118 266.957241 368.543330 ellipse s
[] 0 sd
0 slj
0 slc
n 40.610563 13.733391 m 41.067875 13.411886 l 40.981402 13.677682 l 41.142154 13.906338 l ef
n 40.610563 13.733391 m 41.067875 13.411886 l 40.981402 13.677682 l 41.142154 13.906338 l cp s
0.100000 slw
[0.200000] 0 sd
0 slc
n 38.750000 27.000000 m 38.750000 15.986803 l s
[] 0 sd
0 slj
0 slc
n 38.750000 15.611803 m 39.000000 16.111803 l 38.750000 15.986803 l 38.500000 16.111803 l ef
n 38.750000 15.611803 m 39.000000 16.111803 l 38.750000 15.986803 l 38.500000 16.111803 l cp s
gsave 37.900000 11.680193 translate 0.035278 -0.035278 scale
start_ol
362 2112 moveto
707 2112 lineto
707 0 lineto
362 0 lineto
362 2112 lineto
362 2944 moveto
707 2944 lineto
707 2496 lineto
362 2496 lineto
362 2944 lineto
end_ol grestore 
gsave 38.039865 11.680193 translate 0.035278 -0.035278 scale
start_ol
2108 1281 moveto
2108 0 lineto
1763 0 lineto
1763 1269 lineto
1763 1563 1646 1709 conicto
1530 1856 1298 1856 conicto
1019 1856 857 1679 conicto
696 1503 696 1199 conicto
696 0 lineto
349 0 lineto
349 2112 lineto
696 2112 lineto
696 1792 lineto
820 1985 987 2080 conicto
1155 2176 1375 2176 conicto
1737 2176 1922 1949 conicto
2108 1722 2108 1281 conicto
end_ol grestore 
gsave 38.362062 11.680193 translate 0.035278 -0.035278 scale
start_ol
1873 1984 moveto
1873 1664 lineto
1727 1760 1580 1808 conicto
1433 1856 1283 1856 conicto
947 1856 761 1646 conicto
576 1436 576 1056 conicto
576 676 761 466 conicto
947 256 1283 256 conicto
1433 256 1580 304 conicto
1727 352 1873 448 conicto
1873 128 lineto
1729 32 1574 -16 conicto
1419 -64 1245 -64 conicto
771 -64 491 239 conicto
212 542 212 1056 conicto
212 1578 494 1877 conicto
776 2176 1267 2176 conicto
1427 2176 1579 2128 conicto
1731 2080 1873 1984 conicto
end_ol grestore 
gsave 38.641792 11.680193 translate 0.035278 -0.035278 scale
start_ol
1579 1792 moveto
1521 1825 1452 1840 conicto
1384 1856 1302 1856 conicto
1009 1856 852 1665 conicto
696 1475 696 1118 conicto
696 0 lineto
349 0 lineto
349 2112 lineto
696 2112 lineto
696 1792 lineto
805 1987 979 2081 conicto
1153 2176 1403 2176 conicto
1438 2176 1481 2176 conicto
1525 2176 1577 2176 conicto
1579 1792 lineto
end_ol grestore 
gsave 38.851590 11.680193 translate 0.035278 -0.035278 scale
start_ol
407 1728 moveto
2811 1728 lineto
2811 1408 lineto
407 1408 lineto
407 1728 lineto
407 960 moveto
2811 960 lineto
2811 640 lineto
407 640 lineto
407 960 lineto
end_ol grestore 
gsave 39.276189 11.680193 translate 0.035278 -0.035278 scale
start_ol
1221 2560 moveto
928 2560 781 2272 conicto
634 1984 634 1407 conicto
634 832 781 544 conicto
928 256 1221 256 conicto
1515 256 1662 544 conicto
1809 832 1809 1407 conicto
1809 1984 1662 2272 conicto
1515 2560 1221 2560 conicto
1221 2880 moveto
1691 2880 1939 2502 conicto
2188 2125 2188 1407 conicto
2188 691 1939 313 conicto
1691 -64 1221 -64 conicto
750 -64 501 313 conicto
253 691 253 1407 conicto
253 2125 501 2502 conicto
750 2880 1221 2880 conicto
end_ol grestore 
gsave 40.700000 18.071536 translate 0.035278 -0.035278 scale
start_ol
362 2112 moveto
707 2112 lineto
707 0 lineto
362 0 lineto
362 2112 lineto
362 2944 moveto
707 2944 lineto
707 2496 lineto
362 2496 lineto
362 2944 lineto
end_ol grestore 
gsave 40.839865 18.071536 translate 0.035278 -0.035278 scale
start_ol
2108 1281 moveto
2108 0 lineto
1763 0 lineto
1763 1269 lineto
1763 1563 1646 1709 conicto
1530 1856 1298 1856 conicto
1019 1856 857 1679 conicto
696 1503 696 1199 conicto
696 0 lineto
349 0 lineto
349 2112 lineto
696 2112 lineto
696 1792 lineto
820 1985 987 2080 conicto
1155 2176 1375 2176 conicto
1737 2176 1922 1949 conicto
2108 1722 2108 1281 conicto
end_ol grestore 
gsave 41.162062 18.071536 translate 0.035278 -0.035278 scale
start_ol
1873 1984 moveto
1873 1664 lineto
1727 1760 1580 1808 conicto
1433 1856 1283 1856 conicto
947 1856 761 1646 conicto
576 1436 576 1056 conicto
576 676 761 466 conicto
947 256 1283 256 conicto
1433 256 1580 304 conicto
1727 352 1873 448 conicto
1873 128 lineto
1729 32 1574 -16 conicto
1419 -64 1245 -64 conicto
771 -64 491 239 conicto
212 542 212 1056 conicto
212 1578 494 1877 conicto
776 2176 1267 2176 conicto
1427 2176 1579 2128 conicto
1731 2080 1873 1984 conicto
end_ol grestore 
gsave 41.441792 18.071536 translate 0.035278 -0.035278 scale
start_ol
1579 1792 moveto
1521 1825 1452 1840 conicto
1384 1856 1302 1856 conicto
1009 1856 852 1665 conicto
696 1475 696 1118 conicto
696 0 lineto
349 0 lineto
349 2112 lineto
696 2112 lineto
696 1792 lineto
805 1987 979 2081 conicto
1153 2176 1403 2176 conicto
1438 2176 1481 2176 conicto
1525 2176 1577 2176 conicto
1579 1792 lineto
end_ol grestore 
gsave 41.651590 18.071536 translate 0.035278 -0.035278 scale
start_ol
407 1728 moveto
2811 1728 lineto
2811 1408 lineto
407 1408 lineto
407 1728 lineto
407 960 moveto
2811 960 lineto
2811 640 lineto
407 640 lineto
407 960 lineto
end_ol grestore 
gsave 42.076189 18.071536 translate 0.035278 -0.035278 scale
start_ol
476 320 moveto
1095 320 lineto
1095 2496 lineto
422 2368 lineto
422 2688 lineto
1091 2816 lineto
1470 2816 lineto
1470 320 lineto
2089 320 lineto
2089 0 lineto
476 0 lineto
476 320 lineto
end_ol grestore 
gsave 35.100000 18.071536 translate 0.035278 -0.035278 scale
start_ol
362 2112 moveto
707 2112 lineto
707 0 lineto
362 0 lineto
362 2112 lineto
362 2944 moveto
707 2944 lineto
707 2496 lineto
362 2496 lineto
362 2944 lineto
end_ol grestore 
gsave 35.239865 18.071536 translate 0.035278 -0.035278 scale
start_ol
2108 1281 moveto
2108 0 lineto
1763 0 lineto
1763 1269 lineto
1763 1563 1646 1709 conicto
1530 1856 1298 1856 conicto
1019 1856 857 1679 conicto
696 1503 696 1199 conicto
696 0 lineto
349 0 lineto
349 2112 lineto
696 2112 lineto
696 1792 lineto
820 1985 987 2080 conicto
1155 2176 1375 2176 conicto
1737 2176 1922 1949 conicto
2108 1722 2108 1281 conicto
end_ol grestore 
gsave 35.562062 18.071536 translate 0.035278 -0.035278 scale
start_ol
1873 1984 moveto
1873 1664 lineto
1727 1760 1580 1808 conicto
1433 1856 1283 1856 conicto
947 1856 761 1646 conicto
576 1436 576 1056 conicto
576 676 761 466 conicto
947 256 1283 256 conicto
1433 256 1580 304 conicto
1727 352 1873 448 conicto
1873 128 lineto
1729 32 1574 -16 conicto
1419 -64 1245 -64 conicto
771 -64 491 239 conicto
212 542 212 1056 conicto
212 1578 494 1877 conicto
776 2176 1267 2176 conicto
1427 2176 1579 2128 conicto
1731 2080 1873 1984 conicto
end_ol grestore 
gsave 35.841792 18.071536 translate 0.035278 -0.035278 scale
start_ol
1579 1792 moveto
1521 1825 1452 1840 conicto
1384 1856 1302 1856 conicto
1009 1856 852 1665 conicto
696 1475 696 1118 conicto
696 0 lineto
349 0 lineto
349 2112 lineto
696 2112 lineto
696 1792 lineto
805 1987 979 2081 conicto
1153 2176 1403 2176 conicto
1438 2176 1481 2176 conicto
1525 2176 1577 2176 conicto
1579 1792 lineto
end_ol grestore 
gsave 36.051590 18.071536 translate 0.035278 -0.035278 scale
start_ol
407 1728 moveto
2811 1728 lineto
2811 1408 lineto
407 1408 lineto
407 1728 lineto
407 960 moveto
2811 960 lineto
2811 640 lineto
407 640 lineto
407 960 lineto
end_ol grestore 
gsave 36.476189 18.071536 translate 0.035278 -0.035278 scale
start_ol
1221 2560 moveto
928 2560 781 2272 conicto
634 1984 634 1407 conicto
634 832 781 544 conicto
928 256 1221 256 conicto
1515 256 1662 544 conicto
1809 832 1809 1407 conicto
1809 1984 1662 2272 conicto
1515 2560 1221 2560 conicto
1221 2880 moveto
1691 2880 1939 2502 conicto
2188 2125 2188 1407 conicto
2188 691 1939 313 conicto
1691 -64 1221 -64 conicto
750 -64 501 313 conicto
253 691 253 1407 conicto
253 2125 501 2502 conicto
750 2880 1221 2880 conicto
end_ol grestore 
gsave 42.600000 25.571536 translate 0.035278 -0.035278 scale
start_ol
1579 1792 moveto
1521 1825 1452 1840 conicto
1384 1856 1302 1856 conicto
1009 1856 852 1665 conicto
696 1475 696 1118 conicto
696 0 lineto
349 0 lineto
349 2112 lineto
696 2112 lineto
696 1792 lineto
805 1987 979 2081 conicto
1153 2176 1403 2176 conicto
1438 2176 1481 2176 conicto
1525 2176 1577 2176 conicto
1579 1792 lineto
end_ol grestore 
gsave 42.797313 25.571536 translate 0.035278 -0.035278 scale
start_ol
2158 1224 moveto
2158 1024 lineto
572 1024 lineto
595 649 787 452 conicto
979 256 1322 256 conicto
1521 256 1707 304 conicto
1894 352 2078 448 conicto
2078 128 lineto
1892 34 1697 -15 conicto
1502 -64 1302 -64 conicto
799 -64 505 233 conicto
212 530 212 1037 conicto
212 1561 490 1868 conicto
769 2176 1241 2176 conicto
1665 2176 1911 1920 conicto
2158 1664 2158 1224 conicto
1813 1344 moveto
1809 1578 1654 1717 conicto
1500 1856 1245 1856 conicto
956 1856 782 1721 conicto
609 1587 583 1342 conicto
1813 1344 lineto
end_ol grestore 
gsave 43.109521 25.571536 translate 0.035278 -0.035278 scale
start_ol
1316 1024 moveto
898 1024 737 934 conicto
576 845 576 629 conicto
576 458 697 357 conicto
818 256 1026 256 conicto
1312 256 1485 446 conicto
1659 636 1659 951 conicto
1659 1024 lineto
1316 1024 lineto
2004 1193 moveto
2004 0 lineto
1659 0 lineto
1659 320 lineto
1541 123 1365 29 conicto
1189 -64 934 -64 conicto
611 -64 421 120 conicto
231 305 231 615 conicto
231 977 468 1160 conicto
705 1344 1176 1344 conicto
1659 1344 lineto
1659 1374 lineto
1659 1604 1502 1730 conicto
1346 1856 1063 1856 conicto
883 1856 712 1808 conicto
542 1760 384 1664 conicto
384 1984 lineto
573 2080 751 2128 conicto
930 2176 1098 2176 conicto
1554 2176 1779 1932 conicto
2004 1688 2004 1193 conicto
end_ol grestore 
gsave 43.421730 25.571536 translate 0.035278 -0.035278 scale
start_ol
1744 1792 moveto
1744 2944 lineto
2089 2944 lineto
2089 0 lineto
1744 0 lineto
1744 320 lineto
1635 125 1469 30 conicto
1303 -64 1071 -64 conicto
690 -64 451 244 conicto
212 553 212 1056 conicto
212 1559 451 1867 conicto
690 2176 1071 2176 conicto
1303 2176 1469 2081 conicto
1635 1987 1744 1792 conicto
568 1056 moveto
568 682 724 469 conicto
881 256 1155 256 conicto
1429 256 1586 469 conicto
1744 682 1744 1056 conicto
1744 1430 1586 1643 conicto
1429 1856 1155 1856 conicto
881 1856 724 1643 conicto
568 1430 568 1056 conicto
end_ol grestore 
gsave 43.743926 25.571536 translate 0.035278 -0.035278 scale
start_ol
1958 -576 moveto
1958 -896 lineto
-38 -896 lineto
-38 -576 lineto
1958 -576 lineto
end_ol grestore 
gsave 43.998687 25.571536 translate 0.035278 -0.035278 scale
start_ol
362 2112 moveto
707 2112 lineto
707 0 lineto
362 0 lineto
362 2112 lineto
362 2944 moveto
707 2944 lineto
707 2496 lineto
362 2496 lineto
362 2944 lineto
end_ol grestore 
gsave 44.138552 25.571536 translate 0.035278 -0.035278 scale
start_ol
2108 1281 moveto
2108 0 lineto
1763 0 lineto
1763 1269 lineto
1763 1563 1646 1709 conicto
1530 1856 1298 1856 conicto
1019 1856 857 1679 conicto
696 1503 696 1199 conicto
696 0 lineto
349 0 lineto
349 2112 lineto
696 2112 lineto
696 1792 lineto
820 1985 987 2080 conicto
1155 2176 1375 2176 conicto
1737 2176 1922 1949 conicto
2108 1722 2108 1281 conicto
end_ol grestore 
gsave 44.460748 25.571536 translate 0.035278 -0.035278 scale
start_ol
407 1728 moveto
2811 1728 lineto
2811 1408 lineto
407 1408 lineto
407 1728 lineto
407 960 moveto
2811 960 lineto
2811 640 lineto
407 640 lineto
407 960 lineto
end_ol grestore 
gsave 44.885347 25.571536 translate 0.035278 -0.035278 scale
start_ol
476 320 moveto
1095 320 lineto
1095 2496 lineto
422 2368 lineto
422 2688 lineto
1091 2816 lineto
1470 2816 lineto
1470 320 lineto
2089 320 lineto
2089 0 lineto
476 0 lineto
476 320 lineto
end_ol grestore 
gsave 32.290000 25.571536 translate 0.035278 -0.035278 scale
start_ol
1579 1792 moveto
1521 1825 1452 1840 conicto
1384 1856 1302 1856 conicto
1009 1856 852 1665 conicto
696 1475 696 1118 conicto
696 0 lineto
349 0 lineto
349 2112 lineto
696 2112 lineto
696 1792 lineto
805 1987 979 2081 conicto
1153 2176 1403 2176 conicto
1438 2176 1481 2176 conicto
1525 2176 1577 2176 conicto
1579 1792 lineto
end_ol grestore 
gsave 32.487313 25.571536 translate 0.035278 -0.035278 scale
start_ol
2158 1224 moveto
2158 1024 lineto
572 1024 lineto
595 649 787 452 conicto
979 256 1322 256 conicto
1521 256 1707 304 conicto
1894 352 2078 448 conicto
2078 128 lineto
1892 34 1697 -15 conicto
1502 -64 1302 -64 conicto
799 -64 505 233 conicto
212 530 212 1037 conicto
212 1561 490 1868 conicto
769 2176 1241 2176 conicto
1665 2176 1911 1920 conicto
2158 1664 2158 1224 conicto
1813 1344 moveto
1809 1578 1654 1717 conicto
1500 1856 1245 1856 conicto
956 1856 782 1721 conicto
609 1587 583 1342 conicto
1813 1344 lineto
end_ol grestore 
gsave 32.799521 25.571536 translate 0.035278 -0.035278 scale
start_ol
1316 1024 moveto
898 1024 737 934 conicto
576 845 576 629 conicto
576 458 697 357 conicto
818 256 1026 256 conicto
1312 256 1485 446 conicto
1659 636 1659 951 conicto
1659 1024 lineto
1316 1024 lineto
2004 1193 moveto
2004 0 lineto
1659 0 lineto
1659 320 lineto
1541 123 1365 29 conicto
1189 -64 934 -64 conicto
611 -64 421 120 conicto
231 305 231 615 conicto
231 977 468 1160 conicto
705 1344 1176 1344 conicto
1659 1344 lineto
1659 1374 lineto
1659 1604 1502 1730 conicto
1346 1856 1063 1856 conicto
883 1856 712 1808 conicto
542 1760 384 1664 conicto
384 1984 lineto
573 2080 751 2128 conicto
930 2176 1098 2176 conicto
1554 2176 1779 1932 conicto
2004 1688 2004 1193 conicto
end_ol grestore 
gsave 33.111730 25.571536 translate 0.035278 -0.035278 scale
start_ol
1744 1792 moveto
1744 2944 lineto
2089 2944 lineto
2089 0 lineto
1744 0 lineto
1744 320 lineto
1635 125 1469 30 conicto
1303 -64 1071 -64 conicto
690 -64 451 244 conicto
212 553 212 1056 conicto
212 1559 451 1867 conicto
690 2176 1071 2176 conicto
1303 2176 1469 2081 conicto
1635 1987 1744 1792 conicto
568 1056 moveto
568 682 724 469 conicto
881 256 1155 256 conicto
1429 256 1586 469 conicto
1744 682 1744 1056 conicto
1744 1430 1586 1643 conicto
1429 1856 1155 1856 conicto
881 1856 724 1643 conicto
568 1430 568 1056 conicto
end_ol grestore 
gsave 33.433926 25.571536 translate 0.035278 -0.035278 scale
start_ol
1958 -576 moveto
1958 -896 lineto
-38 -896 lineto
-38 -576 lineto
1958 -576 lineto
end_ol grestore 
gsave 33.688687 25.571536 translate 0.035278 -0.035278 scale
start_ol
362 2112 moveto
707 2112 lineto
707 0 lineto
362 0 lineto
362 2112 lineto
362 2944 moveto
707 2944 lineto
707 2496 lineto
362 2496 lineto
362 2944 lineto
end_ol grestore 
gsave 33.828552 25.571536 translate 0.035278 -0.035278 scale
start_ol
2108 1281 moveto
2108 0 lineto
1763 0 lineto
1763 1269 lineto
1763 1563 1646 1709 conicto
1530 1856 1298 1856 conicto
1019 1856 857 1679 conicto
696 1503 696 1199 conicto
696 0 lineto
349 0 lineto
349 2112 lineto
696 2112 lineto
696 1792 lineto
820 1985 987 2080 conicto
1155 2176 1375 2176 conicto
1737 2176 1922 1949 conicto
2108 1722 2108 1281 conicto
end_ol grestore 
gsave 34.150748 25.571536 translate 0.035278 -0.035278 scale
start_ol
407 1728 moveto
2811 1728 lineto
2811 1408 lineto
407 1408 lineto
407 1728 lineto
407 960 moveto
2811 960 lineto
2811 640 lineto
407 640 lineto
407 960 lineto
end_ol grestore 
gsave 34.575347 25.571536 translate 0.035278 -0.035278 scale
start_ol
1221 2560 moveto
928 2560 781 2272 conicto
634 1984 634 1407 conicto
634 832 781 544 conicto
928 256 1221 256 conicto
1515 256 1662 544 conicto
1809 832 1809 1407 conicto
1809 1984 1662 2272 conicto
1515 2560 1221 2560 conicto
1221 2880 moveto
1691 2880 1939 2502 conicto
2188 2125 2188 1407 conicto
2188 691 1939 313 conicto
1691 -64 1221 -64 conicto
750 -64 501 313 conicto
253 691 253 1407 conicto
253 2125 501 2502 conicto
750 2880 1221 2880 conicto
end_ol grestore 
gsave 39.000000 21.425864 translate 0.035278 -0.035278 scale
start_ol
362 2112 moveto
707 2112 lineto
707 0 lineto
362 0 lineto
362 2112 lineto
362 2944 moveto
707 2944 lineto
707 2496 lineto
362 2496 lineto
362 2944 lineto
end_ol grestore 
gsave 39.139865 21.425864 translate 0.035278 -0.035278 scale
start_ol
2108 1281 moveto
2108 0 lineto
1763 0 lineto
1763 1269 lineto
1763 1563 1646 1709 conicto
1530 1856 1298 1856 conicto
1019 1856 857 1679 conicto
696 1503 696 1199 conicto
696 0 lineto
349 0 lineto
349 2112 lineto
696 2112 lineto
696 1792 lineto
820 1985 987 2080 conicto
1155 2176 1375 2176 conicto
1737 2176 1922 1949 conicto
2108 1722 2108 1281 conicto
end_ol grestore 
gsave 39.462062 21.425864 translate 0.035278 -0.035278 scale
start_ol
1873 1984 moveto
1873 1664 lineto
1727 1760 1580 1808 conicto
1433 1856 1283 1856 conicto
947 1856 761 1646 conicto
576 1436 576 1056 conicto
576 676 761 466 conicto
947 256 1283 256 conicto
1433 256 1580 304 conicto
1727 352 1873 448 conicto
1873 128 lineto
1729 32 1574 -16 conicto
1419 -64 1245 -64 conicto
771 -64 491 239 conicto
212 542 212 1056 conicto
212 1578 494 1877 conicto
776 2176 1267 2176 conicto
1427 2176 1579 2128 conicto
1731 2080 1873 1984 conicto
end_ol grestore 
gsave 39.741792 21.425864 translate 0.035278 -0.035278 scale
start_ol
1579 1792 moveto
1521 1825 1452 1840 conicto
1384 1856 1302 1856 conicto
1009 1856 852 1665 conicto
696 1475 696 1118 conicto
696 0 lineto
349 0 lineto
349 2112 lineto
696 2112 lineto
696 1792 lineto
805 1987 979 2081 conicto
1153 2176 1403 2176 conicto
1438 2176 1481 2176 conicto
1525 2176 1577 2176 conicto
1579 1792 lineto
end_ol grestore 
gsave 39.951590 21.425864 translate 0.035278 -0.035278 scale
start_ol
407 1728 moveto
2811 1728 lineto
2811 1408 lineto
407 1408 lineto
407 1728 lineto
407 960 moveto
2811 960 lineto
2811 640 lineto
407 640 lineto
407 960 lineto
end_ol grestore 
gsave 40.376189 21.425864 translate 0.035278 -0.035278 scale
start_ol
1221 2560 moveto
928 2560 781 2272 conicto
634 1984 634 1407 conicto
634 832 781 544 conicto
928 256 1221 256 conicto
1515 256 1662 544 conicto
1809 832 1809 1407 conicto
1809 1984 1662 2272 conicto
1515 2560 1221 2560 conicto
1221 2880 moveto
1691 2880 1939 2502 conicto
2188 2125 2188 1407 conicto
2188 691 1939 313 conicto
1691 -64 1221 -64 conicto
750 -64 501 313 conicto
253 691 253 1407 conicto
253 2125 501 2502 conicto
750 2880 1221 2880 conicto
end_ol grestore 
gsave 44.800000 15.080193 translate 0.035278 -0.035278 scale
start_ol
362 2112 moveto
707 2112 lineto
707 0 lineto
362 0 lineto
362 2112 lineto
362 2944 moveto
707 2944 lineto
707 2496 lineto
362 2496 lineto
362 2944 lineto
end_ol grestore 
gsave 44.939865 15.080193 translate 0.035278 -0.035278 scale
start_ol
2108 1281 moveto
2108 0 lineto
1763 0 lineto
1763 1269 lineto
1763 1563 1646 1709 conicto
1530 1856 1298 1856 conicto
1019 1856 857 1679 conicto
696 1503 696 1199 conicto
696 0 lineto
349 0 lineto
349 2112 lineto
696 2112 lineto
696 1792 lineto
820 1985 987 2080 conicto
1155 2176 1375 2176 conicto
1737 2176 1922 1949 conicto
2108 1722 2108 1281 conicto
end_ol grestore 
gsave 45.262062 15.080193 translate 0.035278 -0.035278 scale
start_ol
1873 1984 moveto
1873 1664 lineto
1727 1760 1580 1808 conicto
1433 1856 1283 1856 conicto
947 1856 761 1646 conicto
576 1436 576 1056 conicto
576 676 761 466 conicto
947 256 1283 256 conicto
1433 256 1580 304 conicto
1727 352 1873 448 conicto
1873 128 lineto
1729 32 1574 -16 conicto
1419 -64 1245 -64 conicto
771 -64 491 239 conicto
212 542 212 1056 conicto
212 1578 494 1877 conicto
776 2176 1267 2176 conicto
1427 2176 1579 2128 conicto
1731 2080 1873 1984 conicto
end_ol grestore 
gsave 45.541792 15.080193 translate 0.035278 -0.035278 scale
start_ol
1579 1792 moveto
1521 1825 1452 1840 conicto
1384 1856 1302 1856 conicto
1009 1856 852 1665 conicto
696 1475 696 1118 conicto
696 0 lineto
349 0 lineto
349 2112 lineto
696 2112 lineto
696 1792 lineto
805 1987 979 2081 conicto
1153 2176 1403 2176 conicto
1438 2176 1481 2176 conicto
1525 2176 1577 2176 conicto
1579 1792 lineto
end_ol grestore 
gsave 45.751590 15.080193 translate 0.035278 -0.035278 scale
start_ol
407 1728 moveto
2811 1728 lineto
2811 1408 lineto
407 1408 lineto
407 1728 lineto
407 960 moveto
2811 960 lineto
2811 640 lineto
407 640 lineto
407 960 lineto
end_ol grestore 
gsave 46.176189 15.080193 translate 0.035278 -0.035278 scale
start_ol
1221 2560 moveto
928 2560 781 2272 conicto
634 1984 634 1407 conicto
634 832 781 544 conicto
928 256 1221 256 conicto
1515 256 1662 544 conicto
1809 832 1809 1407 conicto
1809 1984 1662 2272 conicto
1515 2560 1221 2560 conicto
1221 2880 moveto
1691 2880 1939 2502 conicto
2188 2125 2188 1407 conicto
2188 691 1939 313 conicto
1691 -64 1221 -64 conicto
750 -64 501 313 conicto
253 691 253 1407 conicto
253 2125 501 2502 conicto
750 2880 1221 2880 conicto
end_ol grestore 
showpage
