%!PS-Adobe-2.0 EPSF-2.0
%%Title: /home/mikolaj/proj/bachelor-thesis/fig_src/hpc_processing.dia
%%Creator: Dia v0.97+git
%%CreationDate: Fri Dec 11 02:23:33 2020
%%For: mikolaj
%%Orientation: Portrait
%%Magnification: 1.0000
%%BoundingBox: 0 0 812 227
%%BeginSetup
%%EndSetup
%%EndComments
%%BeginProlog
[ /.notdef /.notdef /.notdef /.notdef /.notdef /.notdef /.notdef /.notdef /.notdef /.notdef
/.notdef /.notdef /.notdef /.notdef /.notdef /.notdef /.notdef /.notdef /.notdef /.notdef
/.notdef /.notdef /.notdef /.notdef /.notdef /.notdef /.notdef /.notdef /.notdef /.notdef
/.notdef /.notdef /space /exclam /quotedbl /numbersign /dollar /percent /ampersand /quoteright
/parenleft /parenright /asterisk /plus /comma /hyphen /period /slash /zero /one
/two /three /four /five /six /seven /eight /nine /colon /semicolon
/less /equal /greater /question /at /A /B /C /D /E
/F /G /H /I /J /K /L /M /N /O
/P /Q /R /S /T /U /V /W /X /Y
/Z /bracketleft /backslash /bracketright /asciicircum /underscore /quoteleft /a /b /c
/d /e /f /g /h /i /j /k /l /m
/n /o /p /q /r /s /t /u /v /w
/x /y /z /braceleft /bar /braceright /asciitilde /.notdef /.notdef /.notdef
/.notdef /.notdef /.notdef /.notdef /.notdef /.notdef /.notdef /.notdef /.notdef /.notdef
/.notdef /.notdef /.notdef /.notdef /.notdef /.notdef /.notdef /.notdef /.notdef /.notdef
/.notdef /.notdef /.notdef /.notdef /.notdef /.notdef /.notdef /.notdef /.notdef /.notdef
/space /exclamdown /cent /sterling /currency /yen /brokenbar /section /dieresis /copyright
/ordfeminine /guillemotleft /logicalnot /hyphen /registered /macron /degree /plusminus /twosuperior /threesuperior
/acute /mu /paragraph /periodcentered /cedilla /onesuperior /ordmasculine /guillemotright /onequarter /onehalf
/threequarters /questiondown /Agrave /Aacute /Acircumflex /Atilde /Adieresis /Aring /AE /Ccedilla
/Egrave /Eacute /Ecircumflex /Edieresis /Igrave /Iacute /Icircumflex /Idieresis /Eth /Ntilde
/Ograve /Oacute /Ocircumflex /Otilde /Odieresis /multiply /Oslash /Ugrave /Uacute /Ucircumflex
/Udieresis /Yacute /Thorn /germandbls /agrave /aacute /acircumflex /atilde /adieresis /aring
/ae /ccedilla /egrave /eacute /ecircumflex /edieresis /igrave /iacute /icircumflex /idieresis
/eth /ntilde /ograve /oacute /ocircumflex /otilde /odieresis /divide /oslash /ugrave
/uacute /ucircumflex /udieresis /yacute /thorn /ydieresis] /isolatin1encoding exch def
/cp {closepath} bind def
/c {curveto} bind def
/f {fill} bind def
/a {arc} bind def
/ef {eofill} bind def
/ex {exch} bind def
/gr {grestore} bind def
/gs {gsave} bind def
/sa {save} bind def
/rs {restore} bind def
/l {lineto} bind def
/m {moveto} bind def
/rm {rmoveto} bind def
/n {newpath} bind def
/s {stroke} bind def
/sh {show} bind def
/slc {setlinecap} bind def
/slj {setlinejoin} bind def
/slw {setlinewidth} bind def
/srgb {setrgbcolor} bind def
/rot {rotate} bind def
/sc {scale} bind def
/sd {setdash} bind def
/ff {findfont} bind def
/sf {setfont} bind def
/scf {scalefont} bind def
/sw {stringwidth pop} bind def
/tr {translate} bind def

/ellipsedict 8 dict def
ellipsedict /mtrx matrix put
/ellipse
{ ellipsedict begin
   /endangle exch def
   /startangle exch def
   /yrad exch def
   /xrad exch def
   /y exch def
   /x exch def   /savematrix mtrx currentmatrix def
   x y tr xrad yrad sc
   0 0 1 startangle endangle arc
   savematrix setmatrix
   end
} def

/mergeprocs {
dup length
3 -1 roll
dup
length
dup
5 1 roll
3 -1 roll
add
array cvx
dup
3 -1 roll
0 exch
putinterval
dup
4 2 roll
putinterval
} bind def
/dpi_x 300 def
/dpi_y 300 def
/conicto {
    /to_y exch def
    /to_x exch def
    /conic_cntrl_y exch def
    /conic_cntrl_x exch def
    currentpoint
    /p0_y exch def
    /p0_x exch def
    /p1_x p0_x conic_cntrl_x p0_x sub 2 3 div mul add def
    /p1_y p0_y conic_cntrl_y p0_y sub 2 3 div mul add def
    /p2_x p1_x to_x p0_x sub 1 3 div mul add def
    /p2_y p1_y to_y p0_y sub 1 3 div mul add def
    p1_x p1_y p2_x p2_y to_x to_y curveto
} bind def
/start_ol { gsave 1.1 dpi_x div dup scale} bind def
/end_ol { closepath fill grestore } bind def
28.346000 -28.346000 scale
-24.450000 -26.050000 translate
%%EndProlog


0.100000 slw
[] 0 sd
0 slj
1.000000 1.000000 1.000000 srgb
n 31.000000 21.000000 m 35.847500 21.000000 l 35.847500 24.000000 l 31.000000 24.000000 l ef
0.000000 0.000000 0.000000 srgb
n 31.000000 21.000000 m 35.847500 21.000000 l 35.847500 24.000000 l 31.000000 24.000000 l cp s
gsave 31.550000 22.773827 translate 0.035278 -0.035278 scale
start_ol
3039 2351 moveto
3256 2277 3462 2034 conicto
3668 1791 3875 1366 conicto
4561 0 lineto
3835 0 lineto
3197 1282 lineto
2949 1784 2716 1948 conicto
2484 2112 2083 2112 conicto
1348 2112 lineto
1348 0 lineto
672 0 lineto
672 4992 lineto
2197 4992 lineto
3053 4992 3474 4635 conicto
3895 4279 3895 3560 conicto
3895 3090 3676 2780 conicto
3457 2471 3039 2351 conicto
1348 4416 moveto
1348 2688 lineto
2197 2688 lineto
2685 2688 2934 2908 conicto
3183 3128 3183 3555 conicto
3183 3982 2934 4199 conicto
2685 4416 2197 4416 conicto
1348 4416 lineto
end_ol grestore 
gsave 32.136945 22.773827 translate 0.035278 -0.035278 scale
start_ol
3849 2072 moveto
3849 1792 lineto
1020 1792 lineto
1060 1104 1403 744 conicto
1746 384 2357 384 conicto
2712 384 3044 464 conicto
3377 544 3705 704 conicto
3705 128 lineto
3374 3 3026 -62 conicto
2678 -128 2321 -128 conicto
1425 -128 901 407 conicto
378 942 378 1854 conicto
378 2797 874 3350 conicto
1371 3904 2214 3904 conicto
2970 3904 3409 3411 conicto
3849 2919 3849 2072 conicto
3233 2240 moveto
3226 2766 2950 3079 conicto
2675 3392 2220 3392 conicto
1705 3392 1396 3089 conicto
1087 2786 1040 2237 conicto
3233 2240 lineto
end_ol grestore 
gsave 32.691421 22.773827 translate 0.035278 -0.035278 scale
start_ol
2347 1920 moveto
1602 1920 1314 1741 conicto
1027 1562 1027 1131 conicto
1027 787 1242 585 conicto
1458 384 1829 384 conicto
2341 384 2650 763 conicto
2959 1143 2959 1773 conicto
2959 1920 lineto
2347 1920 lineto
3574 2156 moveto
3574 0 lineto
2959 0 lineto
2959 512 lineto
2748 184 2434 28 conicto
2120 -128 1665 -128 conicto
1090 -128 750 199 conicto
411 527 411 1076 conicto
411 1717 834 2042 conicto
1257 2368 2097 2368 conicto
2959 2368 lineto
2959 2434 lineto
2959 2891 2680 3141 conicto
2401 3392 1896 3392 conicto
1575 3392 1270 3312 conicto
966 3232 685 3072 conicto
685 3648 lineto
1023 3776 1340 3840 conicto
1658 3904 1959 3904 conicto
2772 3904 3173 3470 conicto
3574 3037 3574 2156 conicto
end_ol grestore 
gsave 33.243399 22.773827 translate 0.035278 -0.035278 scale
start_ol
3110 3264 moveto
3110 5184 lineto
3725 5184 lineto
3725 0 lineto
3110 0 lineto
3110 512 lineto
2916 187 2620 29 conicto
2324 -128 1910 -128 conicto
1231 -128 804 427 conicto
378 983 378 1888 conicto
378 2793 804 3348 conicto
1231 3904 1910 3904 conicto
2324 3904 2620 3746 conicto
2916 3589 3110 3264 conicto
1013 1888 moveto
1013 1185 1292 784 conicto
1572 384 2060 384 conicto
2548 384 2829 784 conicto
3110 1185 3110 1888 conicto
3110 2591 2829 2991 conicto
2548 3392 2060 3392 conicto
1572 3392 1292 2991 conicto
1013 2591 1013 1888 conicto
end_ol grestore 
gsave 33.815362 22.773827 translate 0.035278 -0.035278 scale
start_ol
2097 3392 moveto
1602 3392 1314 2990 conicto
1027 2588 1027 1888 conicto
1027 1188 1313 786 conicto
1599 384 2097 384 conicto
2588 384 2875 788 conicto
3163 1192 3163 1888 conicto
3163 2581 2875 2986 conicto
2588 3392 2097 3392 conicto
2096 3904 moveto
2899 3904 3357 3369 conicto
3815 2834 3815 1888 conicto
3815 945 3357 408 conicto
2899 -128 2096 -128 conicto
1291 -128 834 408 conicto
378 945 378 1888 conicto
378 2834 834 3369 conicto
1291 3904 2096 3904 conicto
end_ol grestore 
gsave 34.367341 22.773827 translate 0.035278 -0.035278 scale
start_ol
582 1487 moveto
582 3776 lineto
1197 3776 lineto
1197 1511 lineto
1197 947 1404 665 conicto
1612 384 2026 384 conicto
2525 384 2814 719 conicto
3103 1054 3103 1633 conicto
3103 3776 lineto
3718 3776 lineto
3718 0 lineto
3103 0 lineto
3103 576 lineto
2879 219 2583 45 conicto
2287 -128 1896 -128 conicto
1251 -128 916 283 conicto
582 695 582 1487 conicto
2130 3904 moveto
2130 3904 lineto
end_ol grestore 
gsave 34.939304 22.773827 translate 0.035278 -0.035278 scale
start_ol
1254 4864 moveto
1254 3776 lineto
2521 3776 lineto
2521 3328 lineto
1254 3328 lineto
1254 1248 lineto
1254 779 1379 645 conicto
1505 512 1889 512 conicto
2521 512 lineto
2521 0 lineto
1889 0 lineto
1177 0 906 269 conicto
635 538 635 1248 conicto
635 3328 lineto
184 3328 lineto
184 3776 lineto
635 3776 lineto
635 4864 lineto
1254 4864 lineto
end_ol grestore 
0.100000 slw
[] 0 sd
0 slj
1.000000 1.000000 1.000000 srgb
n 39.500000 23.000000 m 42.542500 23.000000 l 42.542500 26.000000 l 39.500000 26.000000 l ef
0.000000 0.000000 0.000000 srgb
n 39.500000 23.000000 m 42.542500 23.000000 l 42.542500 26.000000 l 39.500000 26.000000 l cp s
gsave 40.050000 24.773827 translate 0.035278 -0.035278 scale
start_ol
2341 4330 moveto
1424 1856 lineto
3260 1856 lineto
2341 4330 lineto
1959 4992 moveto
2725 4992 lineto
4628 0 lineto
3926 0 lineto
3471 1280 lineto
1220 1280 lineto
766 0 lineto
54 0 lineto
1959 4992 lineto
end_ol grestore 
gsave 40.666917 24.773827 translate 0.035278 -0.035278 scale
start_ol
1348 4416 moveto
1348 576 lineto
2163 576 lineto
3196 576 3676 1039 conicto
4156 1502 4156 2501 conicto
4156 3493 3676 3954 conicto
3196 4416 2163 4416 conicto
1348 4416 lineto
672 4992 moveto
2060 4992 lineto
3511 4992 4190 4388 conicto
4869 3785 4869 2501 conicto
4869 1210 4187 605 conicto
3505 0 2060 0 conicto
672 0 lineto
672 4992 lineto
end_ol grestore 
gsave 41.361267 24.773827 translate 0.035278 -0.035278 scale
start_ol
4410 4672 moveto
4410 3968 lineto
4069 4258 3683 4401 conicto
3297 4544 2862 4544 conicto
2006 4544 1551 4017 conicto
1097 3491 1097 2494 conicto
1097 1501 1551 974 conicto
2006 448 2862 448 conicto
3297 448 3683 607 conicto
4069 766 4410 1088 conicto
4410 384 lineto
4056 128 3659 0 conicto
3263 -128 2822 -128 conicto
1689 -128 1037 575 conicto
385 1278 385 2494 conicto
385 3714 1037 4417 conicto
1689 5120 2822 5120 conicto
3270 5120 3666 5008 conicto
4062 4896 4410 4672 conicto
end_ol grestore 
0.100000 slw
[] 0 sd
0 slj
1.000000 1.000000 1.000000 srgb
n 39.500000 19.000000 m 42.500000 19.000000 l 42.500000 22.000000 l 39.500000 22.000000 l ef
0.000000 0.000000 0.000000 srgb
n 39.500000 19.000000 m 42.500000 19.000000 l 42.500000 22.000000 l 39.500000 22.000000 l cp s
0.100000 slw
[] 0 sd
0 slc
n 40.000000 21.500000 m 41.000000 21.500000 l s
0.100000 slw
[] 0 sd
0 slc
n 41.000000 21.500000 m 41.000000 19.500000 l s
0.100000 slw
[] 0 sd
0 slc
n 41.000000 19.500000 m 42.000000 19.500000 l s
0.050000 slw
[] 0 sd
0 slc
n 40.000000 20.500000 m 42.000000 20.500000 l s
0.100000 slw
[] 0 sd
0 slc
n 37.500000 20.500000 m 37.500000 24.500000 l s
0.100000 slw
[] 0 sd
0 slc
n 35.847500 22.500000 m 37.500000 22.500000 l s
0.100000 slw
[] 0 sd
0 slc
n 37.500000 24.500000 m 38.964671 24.500000 l s
[] 0 sd
0 slj
0 slc
n 39.339671 24.500000 m 38.839671 24.750000 l 38.964671 24.500000 l 38.839671 24.250000 l ef
n 39.339671 24.500000 m 38.839671 24.750000 l 38.964671 24.500000 l 38.839671 24.250000 l cp s
0.100000 slw
[] 0 sd
0 slc
n 37.500000 20.500000 m 39.013197 20.500000 l s
[] 0 sd
0 slj
0 slc
n 39.388197 20.500000 m 38.888197 20.750000 l 39.013197 20.500000 l 38.888197 20.250000 l ef
n 39.388197 20.500000 m 38.888197 20.750000 l 39.013197 20.500000 l 38.888197 20.250000 l cp s
0.100000 slw
[] 0 sd
0 slc
0 slj
0.100000 slw
0 slc
0 slj
[] 0 sd
n 37.500000 22.500000 0.100000 0.100000 0 360 ellipse f
n 37.500000 22.500000 0.100000 0.100000 0 360 ellipse cp s
gsave 39.400000 18.649065 translate 0.035278 -0.035278 scale
start_ol
3133 3264 moveto
3133 2752 lineto
2891 2977 2616 3088 conicto
2342 3200 2033 3200 conicto
1425 3200 1102 2829 conicto
779 2459 779 1759 conicto
779 1061 1102 690 conicto
1425 320 2033 320 conicto
2342 320 2616 431 conicto
2891 543 3133 768 conicto
3133 256 lineto
2881 96 2599 16 conicto
2318 -64 2005 -64 conicto
1199 -64 736 424 conicto
273 913 273 1759 conicto
273 2607 736 3095 conicto
1199 3584 2005 3584 conicto
2323 3584 2604 3504 conicto
2886 3424 3133 3264 conicto
end_ol grestore 
gsave 39.847080 18.649065 translate 0.035278 -0.035278 scale
start_ol
1489 2368 moveto
1138 2368 933 2094 conicto
729 1820 729 1344 conicto
729 868 932 594 conicto
1135 320 1489 320 conicto
1838 320 2042 595 conicto
2247 870 2247 1344 conicto
2247 1816 2042 2092 conicto
1838 2368 1489 2368 conicto
1489 2752 moveto
2059 2752 2384 2378 conicto
2710 2005 2710 1344 conicto
2710 685 2384 310 conicto
2059 -64 1489 -64 conicto
917 -64 592 310 conicto
268 685 268 1344 conicto
268 2005 592 2378 conicto
917 2752 1489 2752 conicto
end_ol grestore 
gsave 40.239209 18.649065 translate 0.035278 -0.035278 scale
start_ol
2529 2204 moveto
2693 2485 2921 2618 conicto
3149 2752 3458 2752 conicto
3874 2752 4099 2464 conicto
4325 2177 4325 1646 conicto
4325 0 lineto
3886 0 lineto
3886 1632 lineto
3886 2006 3750 2187 conicto
3615 2368 3337 2368 conicto
2997 2368 2800 2146 conicto
2603 1925 2603 1542 conicto
2603 0 lineto
2164 0 lineto
2164 1632 lineto
2164 2008 2028 2188 conicto
1893 2368 1610 2368 conicto
1275 2368 1078 2145 conicto
881 1922 881 1542 conicto
881 0 lineto
442 0 lineto
442 2688 lineto
881 2688 lineto
881 2304 lineto
1031 2534 1240 2643 conicto
1449 2752 1736 2752 conicto
2026 2752 2229 2611 conicto
2432 2471 2529 2204 conicto
end_ol grestore 
gsave 40.861120 18.649065 translate 0.035278 -0.035278 scale
start_ol
881 384 moveto
881 -1024 lineto
442 -1024 lineto
442 2688 lineto
881 2688 lineto
881 2304 lineto
1019 2531 1229 2641 conicto
1439 2752 1732 2752 conicto
2216 2752 2519 2364 conicto
2822 1976 2822 1344 conicto
2822 712 2519 324 conicto
2216 -64 1732 -64 conicto
1439 -64 1229 46 conicto
1019 157 881 384 conicto
2368 1344 moveto
2368 1823 2169 2095 conicto
1971 2368 1624 2368 conicto
1278 2368 1079 2095 conicto
881 1823 881 1344 conicto
881 865 1079 592 conicto
1278 320 1624 320 conicto
1971 320 2169 592 conicto
2368 865 2368 1344 conicto
end_ol grestore 
gsave 41.265734 18.649065 translate 0.035278 -0.035278 scale
start_ol
520 576 moveto
1021 576 lineto
1021 0 lineto
520 0 lineto
520 576 lineto
end_ol grestore 
0.100000 slw
[] 0 sd
0 slj
1.000000 1.000000 1.000000 srgb
n 44.500000 19.000000 m 53.045000 19.000000 l 53.045000 26.000000 l 44.500000 26.000000 l ef
0.000000 0.000000 0.000000 srgb
n 44.500000 19.000000 m 53.045000 19.000000 l 53.045000 26.000000 l 44.500000 26.000000 l cp s
gsave 45.050000 22.773827 translate 0.035278 -0.035278 scale
start_ol
1348 4416 moveto
1348 576 lineto
2163 576 lineto
3196 576 3676 1039 conicto
4156 1502 4156 2501 conicto
4156 3493 3676 3954 conicto
3196 4416 2163 4416 conicto
1348 4416 lineto
672 4992 moveto
2060 4992 lineto
3511 4992 4190 4388 conicto
4869 3785 4869 2501 conicto
4869 1210 4187 605 conicto
3505 0 2060 0 conicto
672 0 lineto
672 4992 lineto
end_ol grestore 
gsave 45.744349 22.773827 translate 0.035278 -0.035278 scale
start_ol
645 3776 moveto
1261 3776 lineto
1261 0 lineto
645 0 lineto
645 3776 lineto
645 5184 moveto
1261 5184 lineto
1261 4416 lineto
645 4416 lineto
645 5184 lineto
end_ol grestore 
gsave 45.994116 22.773827 translate 0.035278 -0.035278 scale
start_ol
3110 1950 moveto
3110 2637 2834 3014 conicto
2558 3392 2060 3392 conicto
1565 3392 1289 3014 conicto
1013 2637 1013 1950 conicto
1013 1267 1289 889 conicto
1565 512 2060 512 conicto
2558 512 2834 889 conicto
3110 1267 3110 1950 conicto
3725 462 moveto
3725 -485 3300 -946 conicto
2876 -1408 1999 -1408 conicto
1675 -1408 1387 -1345 conicto
1100 -1282 829 -1152 conicto
829 -576 lineto
1100 -740 1364 -818 conicto
1628 -896 1903 -896 conicto
2508 -896 2809 -585 conicto
3110 -275 3110 352 conicto
3110 640 lineto
2919 318 2621 159 conicto
2324 0 1910 0 conicto
1221 0 799 534 conicto
378 1069 378 1950 conicto
378 2835 799 3369 conicto
1221 3904 1910 3904 conicto
2324 3904 2621 3745 conicto
2919 3586 3110 3264 conicto
3110 3776 lineto
3725 3776 lineto
3725 462 lineto
end_ol grestore 
gsave 46.566079 22.773827 translate 0.035278 -0.035278 scale
start_ol
645 3776 moveto
1261 3776 lineto
1261 0 lineto
645 0 lineto
645 3776 lineto
645 5184 moveto
1261 5184 lineto
1261 4416 lineto
645 4416 lineto
645 5184 lineto
end_ol grestore 
gsave 46.815846 22.773827 translate 0.035278 -0.035278 scale
start_ol
1254 4864 moveto
1254 3776 lineto
2521 3776 lineto
2521 3328 lineto
1254 3328 lineto
1254 1248 lineto
1254 779 1379 645 conicto
1505 512 1889 512 conicto
2521 512 lineto
2521 0 lineto
1889 0 lineto
1177 0 906 269 conicto
635 538 635 1248 conicto
635 3328 lineto
184 3328 lineto
184 3776 lineto
635 3776 lineto
635 4864 lineto
1254 4864 lineto
end_ol grestore 
gsave 47.170511 22.773827 translate 0.035278 -0.035278 scale
start_ol
2347 1920 moveto
1602 1920 1314 1741 conicto
1027 1562 1027 1131 conicto
1027 787 1242 585 conicto
1458 384 1829 384 conicto
2341 384 2650 763 conicto
2959 1143 2959 1773 conicto
2959 1920 lineto
2347 1920 lineto
3574 2156 moveto
3574 0 lineto
2959 0 lineto
2959 512 lineto
2748 184 2434 28 conicto
2120 -128 1665 -128 conicto
1090 -128 750 199 conicto
411 527 411 1076 conicto
411 1717 834 2042 conicto
1257 2368 2097 2368 conicto
2959 2368 lineto
2959 2434 lineto
2959 2891 2680 3141 conicto
2401 3392 1896 3392 conicto
1575 3392 1270 3312 conicto
966 3232 685 3072 conicto
685 3648 lineto
1023 3776 1340 3840 conicto
1658 3904 1959 3904 conicto
2772 3904 3173 3470 conicto
3574 3037 3574 2156 conicto
end_ol grestore 
gsave 47.722490 22.773827 translate 0.035278 -0.035278 scale
start_ol
645 5184 moveto
1261 5184 lineto
1261 0 lineto
645 0 lineto
645 5184 lineto
end_ol grestore 
gsave 47.972257 22.773827 translate 0.035278 -0.035278 scale
start_ol
end_ol grestore 
gsave 48.259487 22.773827 translate 0.035278 -0.035278 scale
start_ol
1348 2368 moveto
1348 576 lineto
2431 576 lineto
2976 576 3238 797 conicto
3501 1018 3501 1474 conicto
3501 1932 3238 2150 conicto
2976 2368 2431 2368 conicto
1348 2368 lineto
1348 4416 moveto
1348 2944 lineto
2347 2944 lineto
2842 2944 3084 3125 conicto
3327 3307 3327 3680 conicto
3327 4050 3084 4233 conicto
2842 4416 2347 4416 conicto
1348 4416 lineto
672 4992 moveto
2397 4992 lineto
3170 4992 3588 4671 conicto
4006 4350 4006 3758 conicto
4006 3300 3792 3029 conicto
3578 2758 3163 2691 conicto
3661 2584 3937 2244 conicto
4213 1905 4213 1397 conicto
4213 729 3758 364 conicto
3303 0 2464 0 conicto
672 0 lineto
672 4992 lineto
end_ol grestore 
gsave 48.878901 22.773827 translate 0.035278 -0.035278 scale
start_ol
2347 1920 moveto
1602 1920 1314 1741 conicto
1027 1562 1027 1131 conicto
1027 787 1242 585 conicto
1458 384 1829 384 conicto
2341 384 2650 763 conicto
2959 1143 2959 1773 conicto
2959 1920 lineto
2347 1920 lineto
3574 2156 moveto
3574 0 lineto
2959 0 lineto
2959 512 lineto
2748 184 2434 28 conicto
2120 -128 1665 -128 conicto
1090 -128 750 199 conicto
411 527 411 1076 conicto
411 1717 834 2042 conicto
1257 2368 2097 2368 conicto
2959 2368 lineto
2959 2434 lineto
2959 2891 2680 3141 conicto
2401 3392 1896 3392 conicto
1575 3392 1270 3312 conicto
966 3232 685 3072 conicto
685 3648 lineto
1023 3776 1340 3840 conicto
1658 3904 1959 3904 conicto
2772 3904 3173 3470 conicto
3574 3037 3574 2156 conicto
end_ol grestore 
gsave 49.430880 22.773827 translate 0.035278 -0.035278 scale
start_ol
3340 3648 moveto
3340 3072 lineto
3079 3232 2817 3312 conicto
2555 3392 2287 3392 conicto
1689 3392 1358 2997 conicto
1027 2602 1027 1888 conicto
1027 1174 1358 779 conicto
1689 384 2287 384 conicto
2555 384 2817 448 conicto
3079 512 3340 640 conicto
3340 64 lineto
3083 -32 2807 -80 conicto
2531 -128 2220 -128 conicto
1374 -128 876 417 conicto
378 962 378 1888 conicto
378 2827 881 3365 conicto
1384 3904 2260 3904 conicto
2544 3904 2815 3840 conicto
3086 3776 3340 3648 conicto
end_ol grestore 
gsave 49.927908 22.773827 translate 0.035278 -0.035278 scale
start_ol
622 5184 moveto
1241 5184 lineto
1241 2148 lineto
3076 3776 lineto
3862 3776 lineto
1876 2009 lineto
3946 0 lineto
3144 0 lineto
1241 1844 lineto
1241 0 lineto
622 0 lineto
622 5184 lineto
end_ol grestore 
gsave 50.449914 22.773827 translate 0.035278 -0.035278 scale
start_ol
334 2176 moveto
2137 2176 lineto
2137 1600 lineto
334 1600 lineto
334 2176 lineto
end_ol grestore 
gsave 50.774608 22.773827 translate 0.035278 -0.035278 scale
start_ol
672 4992 moveto
3829 4992 lineto
3829 4416 lineto
1348 4416 lineto
1348 2944 lineto
3725 2944 lineto
3725 2368 lineto
1348 2368 lineto
1348 576 lineto
3889 576 lineto
3889 0 lineto
672 0 lineto
672 4992 lineto
end_ol grestore 
gsave 51.344074 22.773827 translate 0.035278 -0.035278 scale
start_ol
3758 2287 moveto
3758 0 lineto
3143 0 lineto
3143 2266 lineto
3143 2831 2936 3111 conicto
2729 3392 2314 3392 conicto
1816 3392 1528 3056 conicto
1241 2721 1241 2141 conicto
1241 0 lineto
622 0 lineto
622 3776 lineto
1241 3776 lineto
1241 3200 lineto
1462 3554 1761 3729 conicto
2060 3904 2451 3904 conicto
3096 3904 3427 3493 conicto
3758 3083 3758 2287 conicto
end_ol grestore 
gsave 51.916037 22.773827 translate 0.035278 -0.035278 scale
start_ol
3110 3264 moveto
3110 5184 lineto
3725 5184 lineto
3725 0 lineto
3110 0 lineto
3110 512 lineto
2916 187 2620 29 conicto
2324 -128 1910 -128 conicto
1231 -128 804 427 conicto
378 983 378 1888 conicto
378 2793 804 3348 conicto
1231 3904 1910 3904 conicto
2324 3904 2620 3746 conicto
2916 3589 3110 3264 conicto
1013 1888 moveto
1013 1185 1292 784 conicto
1572 384 2060 384 conicto
2548 384 2829 784 conicto
3110 1185 3110 1888 conicto
3110 2591 2829 2991 conicto
2548 3392 2060 3392 conicto
1572 3392 1292 2991 conicto
1013 2591 1013 1888 conicto
end_ol grestore 
0.100000 slw
[] 0 sd
0 slc
n 42.500000 20.500000 m 44.013197 20.500000 l s
[] 0 sd
0 slj
0 slc
n 44.388197 20.500000 m 43.888197 20.750000 l 44.013197 20.500000 l 43.888197 20.250000 l ef
n 44.388197 20.500000 m 43.888197 20.750000 l 44.013197 20.500000 l 43.888197 20.250000 l cp s
0.100000 slw
[] 0 sd
0 slc
n 42.542500 24.500000 m 44.013197 24.500000 l s
[] 0 sd
0 slj
0 slc
n 44.388197 24.500000 m 43.888197 24.750000 l 44.013197 24.500000 l 43.888197 24.250000 l ef
n 44.388197 24.500000 m 43.888197 24.750000 l 44.013197 24.500000 l 43.888197 24.250000 l cp s
gsave 44.800000 20.721559 translate 0.035278 -0.035278 scale
start_ol
458 2688 moveto
895 2688 lineto
895 0 lineto
458 0 lineto
458 2688 lineto
458 3712 moveto
895 3712 lineto
895 3136 lineto
458 3136 lineto
458 3712 lineto
end_ol grestore 
gsave 44.977329 20.721559 translate 0.035278 -0.035278 scale
start_ol
2670 1646 moveto
2670 0 lineto
2233 0 lineto
2233 1632 lineto
2233 2001 2085 2184 conicto
1938 2368 1644 2368 conicto
1290 2368 1085 2146 conicto
881 1925 881 1542 conicto
881 0 lineto
442 0 lineto
442 2688 lineto
881 2688 lineto
881 2304 lineto
1038 2529 1250 2640 conicto
1463 2752 1741 2752 conicto
2200 2752 2435 2471 conicto
2670 2191 2670 1646 conicto
end_ol grestore 
gsave 45.381943 20.721559 translate 0.035278 -0.035278 scale
start_ol
2373 2560 moveto
2373 2176 lineto
2188 2272 2001 2320 conicto
1815 2368 1625 2368 conicto
1199 2368 964 2099 conicto
729 1830 729 1344 conicto
729 858 964 589 conicto
1199 320 1625 320 conicto
1815 320 2001 368 conicto
2188 416 2373 512 conicto
2373 128 lineto
2190 32 1994 -16 conicto
1798 -64 1577 -64 conicto
976 -64 622 316 conicto
268 697 268 1344 conicto
268 2000 625 2376 conicto
983 2752 1606 2752 conicto
1808 2752 2000 2704 conicto
2192 2656 2373 2560 conicto
end_ol grestore 
gsave 45.734111 20.721559 translate 0.035278 -0.035278 scale
start_ol
2000 2304 moveto
1926 2337 1839 2352 conicto
1753 2368 1648 2368 conicto
1278 2368 1079 2127 conicto
881 1887 881 1437 conicto
881 0 lineto
442 0 lineto
442 2688 lineto
881 2688 lineto
881 2304 lineto
1019 2531 1240 2641 conicto
1461 2752 1777 2752 conicto
1822 2752 1876 2752 conicto
1931 2752 1998 2752 conicto
2000 2304 lineto
end_ol grestore 
gsave 44.800000 24.721559 translate 0.035278 -0.035278 scale
start_ol
1667 1344 moveto
1137 1344 933 1225 conicto
729 1106 729 818 conicto
729 589 882 454 conicto
1035 320 1299 320 conicto
1663 320 1882 572 conicto
2102 825 2102 1244 conicto
2102 1344 lineto
1667 1344 lineto
2539 1513 moveto
2539 0 lineto
2102 0 lineto
2102 384 lineto
1952 154 1729 45 conicto
1506 -64 1183 -64 conicto
774 -64 533 162 conicto
292 389 292 769 conicto
292 1213 592 1438 conicto
893 1664 1489 1664 conicto
2102 1664 lineto
2102 1712 lineto
2102 2025 1903 2196 conicto
1705 2368 1347 2368 conicto
1119 2368 903 2320 conicto
687 2272 487 2176 conicto
487 2560 lineto
727 2656 952 2704 conicto
1178 2752 1392 2752 conicto
1969 2752 2254 2444 conicto
2539 2137 2539 1513 conicto
end_ol grestore 
gsave 45.192129 24.721559 translate 0.035278 -0.035278 scale
start_ol
2209 2304 moveto
2209 3712 lineto
2646 3712 lineto
2646 0 lineto
2209 0 lineto
2209 384 lineto
2071 157 1861 46 conicto
1651 -64 1356 -64 conicto
874 -64 571 324 conicto
268 712 268 1344 conicto
268 1976 571 2364 conicto
874 2752 1356 2752 conicto
1651 2752 1861 2641 conicto
2071 2531 2209 2304 conicto
720 1344 moveto
720 865 918 592 conicto
1117 320 1463 320 conicto
1810 320 2009 592 conicto
2209 865 2209 1344 conicto
2209 1823 2009 2095 conicto
1810 2368 1463 2368 conicto
1117 2368 918 2095 conicto
720 1823 720 1344 conicto
end_ol grestore 
gsave 45.596743 24.721559 translate 0.035278 -0.035278 scale
start_ol
2209 2304 moveto
2209 3712 lineto
2646 3712 lineto
2646 0 lineto
2209 0 lineto
2209 384 lineto
2071 157 1861 46 conicto
1651 -64 1356 -64 conicto
874 -64 571 324 conicto
268 712 268 1344 conicto
268 1976 571 2364 conicto
874 2752 1356 2752 conicto
1651 2752 1861 2641 conicto
2071 2531 2209 2304 conicto
720 1344 moveto
720 865 918 592 conicto
1117 320 1463 320 conicto
1810 320 2009 592 conicto
2209 865 2209 1344 conicto
2209 1823 2009 2095 conicto
1810 2368 1463 2368 conicto
1117 2368 918 2095 conicto
720 1823 720 1344 conicto
end_ol grestore 
gsave 46.001357 24.721559 translate 0.035278 -0.035278 scale
start_ol
2000 2304 moveto
1926 2337 1839 2352 conicto
1753 2368 1648 2368 conicto
1278 2368 1079 2127 conicto
881 1887 881 1437 conicto
881 0 lineto
442 0 lineto
442 2688 lineto
881 2688 lineto
881 2304 lineto
1019 2531 1240 2641 conicto
1461 2752 1777 2752 conicto
1822 2752 1876 2752 conicto
1931 2752 1998 2752 conicto
2000 2304 lineto
end_ol grestore 
0.100000 slw
[] 0 sd
0 slj
1.000000 1.000000 1.000000 srgb
n 24.500000 21.000000 m 29.000000 21.000000 l 29.000000 24.000000 l 24.500000 24.000000 l ef
0.000000 0.000000 0.000000 srgb
n 24.500000 21.000000 m 29.000000 21.000000 l 29.000000 24.000000 l 24.500000 24.000000 l cp s
gsave 25.202500 22.773827 translate 0.035278 -0.035278 scale
start_ol
3665 4864 moveto
3665 4224 lineto
3280 4385 2939 4464 conicto
2598 4544 2280 4544 conicto
1729 4544 1429 4332 conicto
1130 4120 1130 3730 conicto
1130 3402 1329 3235 conicto
1528 3068 2083 2965 conicto
2491 2880 lineto
3247 2734 3606 2364 conicto
3966 1994 3966 1374 conicto
3966 635 3479 253 conicto
2993 -128 2053 -128 conicto
1698 -128 1298 -47 conicto
899 34 471 192 conicto
471 896 lineto
882 674 1277 561 conicto
1672 448 2053 448 conicto
2631 448 2945 677 conicto
3260 906 3260 1330 conicto
3260 1701 3034 1910 conicto
2809 2119 2294 2223 conicto
1883 2305 lineto
1127 2457 789 2781 conicto
451 3105 451 3682 conicto
451 4350 917 4735 conicto
1384 5120 2203 5120 conicto
2555 5120 2919 5056 conicto
3284 4992 3665 4864 conicto
end_ol grestore 
gsave 25.774463 22.773827 translate 0.035278 -0.035278 scale
start_ol
3849 2072 moveto
3849 1792 lineto
1020 1792 lineto
1060 1104 1403 744 conicto
1746 384 2357 384 conicto
2712 384 3044 464 conicto
3377 544 3705 704 conicto
3705 128 lineto
3374 3 3026 -62 conicto
2678 -128 2321 -128 conicto
1425 -128 901 407 conicto
378 942 378 1854 conicto
378 2797 874 3350 conicto
1371 3904 2214 3904 conicto
2970 3904 3409 3411 conicto
3849 2919 3849 2072 conicto
3233 2240 moveto
3226 2766 2950 3079 conicto
2675 3392 2220 3392 conicto
1705 3392 1396 3089 conicto
1087 2786 1040 2237 conicto
3233 2240 lineto
end_ol grestore 
gsave 26.328939 22.773827 translate 0.035278 -0.035278 scale
start_ol
3758 2287 moveto
3758 0 lineto
3143 0 lineto
3143 2266 lineto
3143 2831 2936 3111 conicto
2729 3392 2314 3392 conicto
1816 3392 1528 3056 conicto
1241 2721 1241 2141 conicto
1241 0 lineto
622 0 lineto
622 3776 lineto
1241 3776 lineto
1241 3200 lineto
1462 3554 1761 3729 conicto
2060 3904 2451 3904 conicto
3096 3904 3427 3493 conicto
3758 3083 3758 2287 conicto
end_ol grestore 
gsave 26.900902 22.773827 translate 0.035278 -0.035278 scale
start_ol
3033 3712 moveto
3033 3136 lineto
2772 3264 2491 3328 conicto
2210 3392 1909 3392 conicto
1451 3392 1222 3249 conicto
993 3106 993 2819 conicto
993 2601 1157 2476 conicto
1321 2352 1816 2240 conicto
2026 2192 lineto
2681 2047 2957 1782 conicto
3233 1517 3233 1042 conicto
3233 502 2820 187 conicto
2407 -128 1685 -128 conicto
1384 -128 1058 -64 conicto
732 0 371 128 conicto
371 768 lineto
712 576 1043 480 conicto
1374 384 1698 384 conicto
2133 384 2367 540 conicto
2601 697 2601 982 conicto
2601 1246 2432 1386 conicto
2263 1527 1692 1657 conicto
1478 1709 lineto
906 1832 652 2085 conicto
398 2339 398 2781 conicto
398 3319 772 3611 conicto
1147 3904 1836 3904 conicto
2177 3904 2478 3856 conicto
2779 3808 3033 3712 conicto
end_ol grestore 
gsave 27.370463 22.773827 translate 0.035278 -0.035278 scale
start_ol
2097 3392 moveto
1602 3392 1314 2990 conicto
1027 2588 1027 1888 conicto
1027 1188 1313 786 conicto
1599 384 2097 384 conicto
2588 384 2875 788 conicto
3163 1192 3163 1888 conicto
3163 2581 2875 2986 conicto
2588 3392 2097 3392 conicto
2096 3904 moveto
2899 3904 3357 3369 conicto
3815 2834 3815 1888 conicto
3815 945 3357 408 conicto
2899 -128 2096 -128 conicto
1291 -128 834 408 conicto
378 945 378 1888 conicto
378 2834 834 3369 conicto
1291 3904 2096 3904 conicto
end_ol grestore 
gsave 27.922441 22.773827 translate 0.035278 -0.035278 scale
start_ol
2815 3200 moveto
2711 3266 2589 3297 conicto
2467 3328 2320 3328 conicto
1799 3328 1520 2984 conicto
1241 2640 1241 1996 conicto
1241 0 lineto
622 0 lineto
622 3776 lineto
1241 3776 lineto
1241 3200 lineto
1435 3557 1745 3730 conicto
2056 3904 2501 3904 conicto
2564 3904 2641 3888 conicto
2718 3872 2812 3840 conicto
2815 3200 lineto
end_ol grestore 
0.100000 slw
[] 0 sd
0 slc
n 29.000000 22.500000 m 30.513197 22.500000 l s
[] 0 sd
0 slj
0 slc
n 30.888197 22.500000 m 30.388197 22.750000 l 30.513197 22.500000 l 30.388197 22.250000 l ef
n 30.888197 22.500000 m 30.388197 22.750000 l 30.513197 22.500000 l 30.388197 22.250000 l cp s
showpage
