%!PS-Adobe-2.0 EPSF-2.0
%%Title: /home/mikolaj/proj/bachelor-thesis/fig_src/state_diagram.dia
%%Creator: Dia v0.97+git
%%CreationDate: Mon Dec 14 01:28:32 2020
%%For: mikolaj
%%Orientation: Portrait
%%Magnification: 1.0000
%%BoundingBox: 0 0 1109 882
%%BeginSetup
%%EndSetup
%%EndComments
%%BeginProlog
[ /.notdef /.notdef /.notdef /.notdef /.notdef /.notdef /.notdef /.notdef /.notdef /.notdef
/.notdef /.notdef /.notdef /.notdef /.notdef /.notdef /.notdef /.notdef /.notdef /.notdef
/.notdef /.notdef /.notdef /.notdef /.notdef /.notdef /.notdef /.notdef /.notdef /.notdef
/.notdef /.notdef /space /exclam /quotedbl /numbersign /dollar /percent /ampersand /quoteright
/parenleft /parenright /asterisk /plus /comma /hyphen /period /slash /zero /one
/two /three /four /five /six /seven /eight /nine /colon /semicolon
/less /equal /greater /question /at /A /B /C /D /E
/F /G /H /I /J /K /L /M /N /O
/P /Q /R /S /T /U /V /W /X /Y
/Z /bracketleft /backslash /bracketright /asciicircum /underscore /quoteleft /a /b /c
/d /e /f /g /h /i /j /k /l /m
/n /o /p /q /r /s /t /u /v /w
/x /y /z /braceleft /bar /braceright /asciitilde /.notdef /.notdef /.notdef
/.notdef /.notdef /.notdef /.notdef /.notdef /.notdef /.notdef /.notdef /.notdef /.notdef
/.notdef /.notdef /.notdef /.notdef /.notdef /.notdef /.notdef /.notdef /.notdef /.notdef
/.notdef /.notdef /.notdef /.notdef /.notdef /.notdef /.notdef /.notdef /.notdef /.notdef
/space /exclamdown /cent /sterling /currency /yen /brokenbar /section /dieresis /copyright
/ordfeminine /guillemotleft /logicalnot /hyphen /registered /macron /degree /plusminus /twosuperior /threesuperior
/acute /mu /paragraph /periodcentered /cedilla /onesuperior /ordmasculine /guillemotright /onequarter /onehalf
/threequarters /questiondown /Agrave /Aacute /Acircumflex /Atilde /Adieresis /Aring /AE /Ccedilla
/Egrave /Eacute /Ecircumflex /Edieresis /Igrave /Iacute /Icircumflex /Idieresis /Eth /Ntilde
/Ograve /Oacute /Ocircumflex /Otilde /Odieresis /multiply /Oslash /Ugrave /Uacute /Ucircumflex
/Udieresis /Yacute /Thorn /germandbls /agrave /aacute /acircumflex /atilde /adieresis /aring
/ae /ccedilla /egrave /eacute /ecircumflex /edieresis /igrave /iacute /icircumflex /idieresis
/eth /ntilde /ograve /oacute /ocircumflex /otilde /odieresis /divide /oslash /ugrave
/uacute /ucircumflex /udieresis /yacute /thorn /ydieresis] /isolatin1encoding exch def
/cp {closepath} bind def
/c {curveto} bind def
/f {fill} bind def
/a {arc} bind def
/ef {eofill} bind def
/ex {exch} bind def
/gr {grestore} bind def
/gs {gsave} bind def
/sa {save} bind def
/rs {restore} bind def
/l {lineto} bind def
/m {moveto} bind def
/rm {rmoveto} bind def
/n {newpath} bind def
/s {stroke} bind def
/sh {show} bind def
/slc {setlinecap} bind def
/slj {setlinejoin} bind def
/slw {setlinewidth} bind def
/srgb {setrgbcolor} bind def
/rot {rotate} bind def
/sc {scale} bind def
/sd {setdash} bind def
/ff {findfont} bind def
/sf {setfont} bind def
/scf {scalefont} bind def
/sw {stringwidth pop} bind def
/tr {translate} bind def

/ellipsedict 8 dict def
ellipsedict /mtrx matrix put
/ellipse
{ ellipsedict begin
   /endangle exch def
   /startangle exch def
   /yrad exch def
   /xrad exch def
   /y exch def
   /x exch def   /savematrix mtrx currentmatrix def
   x y tr xrad yrad sc
   0 0 1 startangle endangle arc
   savematrix setmatrix
   end
} def

/mergeprocs {
dup length
3 -1 roll
dup
length
dup
5 1 roll
3 -1 roll
add
array cvx
dup
3 -1 roll
0 exch
putinterval
dup
4 2 roll
putinterval
} bind def
/dpi_x 300 def
/dpi_y 300 def
/conicto {
    /to_y exch def
    /to_x exch def
    /conic_cntrl_y exch def
    /conic_cntrl_x exch def
    currentpoint
    /p0_y exch def
    /p0_x exch def
    /p1_x p0_x conic_cntrl_x p0_x sub 2 3 div mul add def
    /p1_y p0_y conic_cntrl_y p0_y sub 2 3 div mul add def
    /p2_x p1_x to_x p0_x sub 1 3 div mul add def
    /p2_y p1_y to_y p0_y sub 1 3 div mul add def
    p1_x p1_y p2_x p2_y to_x to_y curveto
} bind def
/start_ol { gsave 1.1 dpi_x div dup scale} bind def
/end_ol { closepath fill grestore } bind def
28.346000 -28.346000 scale
-17.950000 -31.050000 translate
%%EndProlog


0.100000 slw
[] 0 sd
0 slj
1.000000 1.000000 1.000000 srgb
n 37.500000 5.500000 2.500000 1.500000 0 360 ellipse f
0.000000 0.000000 0.000000 srgb
n 37.500000 5.500000 2.500000 1.500000 0 360 ellipse cp s
gsave 36.482500 5.773842 translate 0.035278 -0.035278 scale
start_ol
672 4992 moveto
1348 4992 lineto
1348 0 lineto
672 0 lineto
672 4992 lineto
end_ol grestore 
gsave 36.749746 5.773842 translate 0.035278 -0.035278 scale
start_ol
1348 4416 moveto
1348 576 lineto
2163 576 lineto
3196 576 3676 1039 conicto
4156 1502 4156 2501 conicto
4156 3493 3676 3954 conicto
3196 4416 2163 4416 conicto
1348 4416 lineto
672 4992 moveto
2060 4992 lineto
3511 4992 4190 4388 conicto
4869 3785 4869 2501 conicto
4869 1210 4187 605 conicto
3505 0 2060 0 conicto
672 0 lineto
672 4992 lineto
end_ol grestore 
gsave 37.444095 5.773842 translate 0.035278 -0.035278 scale
start_ol
672 4992 moveto
1348 4992 lineto
1348 576 lineto
3778 576 lineto
3778 0 lineto
672 0 lineto
672 4992 lineto
end_ol grestore 
gsave 37.946125 5.773842 translate 0.035278 -0.035278 scale
start_ol
672 4992 moveto
3829 4992 lineto
3829 4416 lineto
1348 4416 lineto
1348 2944 lineto
3725 2944 lineto
3725 2368 lineto
1348 2368 lineto
1348 576 lineto
3889 576 lineto
3889 0 lineto
672 0 lineto
672 4992 lineto
end_ol grestore 
0.100000 slw
[] 0 sd
0 slj
1.000000 1.000000 1.000000 srgb
n 37.500000 12.500000 2.500000 1.500000 0 360 ellipse f
0.000000 0.000000 0.000000 srgb
n 37.500000 12.500000 2.500000 1.500000 0 360 ellipse cp s
gsave 35.993292 12.773842 translate 0.035278 -0.035278 scale
start_ol
3039 2351 moveto
3256 2277 3462 2034 conicto
3668 1791 3875 1366 conicto
4561 0 lineto
3835 0 lineto
3197 1282 lineto
2949 1784 2716 1948 conicto
2484 2112 2083 2112 conicto
1348 2112 lineto
1348 0 lineto
672 0 lineto
672 4992 lineto
2197 4992 lineto
3053 4992 3474 4635 conicto
3895 4279 3895 3560 conicto
3895 3090 3676 2780 conicto
3457 2471 3039 2351 conicto
1348 4416 moveto
1348 2688 lineto
2197 2688 lineto
2685 2688 2934 2908 conicto
3183 3128 3183 3555 conicto
3183 3982 2934 4199 conicto
2685 4416 2197 4416 conicto
1348 4416 lineto
end_ol grestore 
gsave 36.620206 12.773842 translate 0.035278 -0.035278 scale
start_ol
672 4992 moveto
3829 4992 lineto
3829 4416 lineto
1348 4416 lineto
1348 2944 lineto
3725 2944 lineto
3725 2368 lineto
1348 2368 lineto
1348 576 lineto
3889 576 lineto
3889 0 lineto
672 0 lineto
672 4992 lineto
end_ol grestore 
gsave 37.189672 12.773842 translate 0.035278 -0.035278 scale
start_ol
2341 4330 moveto
1424 1856 lineto
3260 1856 lineto
2341 4330 lineto
1959 4992 moveto
2725 4992 lineto
4628 0 lineto
3926 0 lineto
3471 1280 lineto
1220 1280 lineto
766 0 lineto
54 0 lineto
1959 4992 lineto
end_ol grestore 
gsave 37.806589 12.773842 translate 0.035278 -0.035278 scale
start_ol
1348 4416 moveto
1348 576 lineto
2163 576 lineto
3196 576 3676 1039 conicto
4156 1502 4156 2501 conicto
4156 3493 3676 3954 conicto
3196 4416 2163 4416 conicto
1348 4416 lineto
672 4992 moveto
2060 4992 lineto
3511 4992 4190 4388 conicto
4869 3785 4869 2501 conicto
4869 1210 4187 605 conicto
3505 0 2060 0 conicto
672 0 lineto
672 4992 lineto
end_ol grestore 
gsave 38.450982 12.773842 translate 0.035278 -0.035278 scale
start_ol
-13 4992 moveto
713 4992 lineto
2097 2939 lineto
3471 4992 lineto
4196 4992 lineto
2431 2377 lineto
2431 0 lineto
1752 0 lineto
1752 2377 lineto
-13 4992 lineto
end_ol grestore 
0.100000 slw
[] 0 sd
0 slj
1.000000 1.000000 1.000000 srgb
n 24.500000 12.500000 2.500000 1.500000 0 360 ellipse f
0.000000 0.000000 0.000000 srgb
n 24.500000 12.500000 2.500000 1.500000 0 360 ellipse cp s
gsave 22.993292 12.773842 translate 0.035278 -0.035278 scale
start_ol
3039 2351 moveto
3256 2277 3462 2034 conicto
3668 1791 3875 1366 conicto
4561 0 lineto
3835 0 lineto
3197 1282 lineto
2949 1784 2716 1948 conicto
2484 2112 2083 2112 conicto
1348 2112 lineto
1348 0 lineto
672 0 lineto
672 4992 lineto
2197 4992 lineto
3053 4992 3474 4635 conicto
3895 4279 3895 3560 conicto
3895 3090 3676 2780 conicto
3457 2471 3039 2351 conicto
1348 4416 moveto
1348 2688 lineto
2197 2688 lineto
2685 2688 2934 2908 conicto
3183 3128 3183 3555 conicto
3183 3982 2934 4199 conicto
2685 4416 2197 4416 conicto
1348 4416 lineto
end_ol grestore 
gsave 23.620206 12.773842 translate 0.035278 -0.035278 scale
start_ol
672 4992 moveto
3829 4992 lineto
3829 4416 lineto
1348 4416 lineto
1348 2944 lineto
3725 2944 lineto
3725 2368 lineto
1348 2368 lineto
1348 576 lineto
3889 576 lineto
3889 0 lineto
672 0 lineto
672 4992 lineto
end_ol grestore 
gsave 24.189672 12.773842 translate 0.035278 -0.035278 scale
start_ol
2341 4330 moveto
1424 1856 lineto
3260 1856 lineto
2341 4330 lineto
1959 4992 moveto
2725 4992 lineto
4628 0 lineto
3926 0 lineto
3471 1280 lineto
1220 1280 lineto
766 0 lineto
54 0 lineto
1959 4992 lineto
end_ol grestore 
gsave 24.806589 12.773842 translate 0.035278 -0.035278 scale
start_ol
1348 4416 moveto
1348 576 lineto
2163 576 lineto
3196 576 3676 1039 conicto
4156 1502 4156 2501 conicto
4156 3493 3676 3954 conicto
3196 4416 2163 4416 conicto
1348 4416 lineto
672 4992 moveto
2060 4992 lineto
3511 4992 4190 4388 conicto
4869 3785 4869 2501 conicto
4869 1210 4187 605 conicto
3505 0 2060 0 conicto
672 0 lineto
672 4992 lineto
end_ol grestore 
gsave 25.450982 12.773842 translate 0.035278 -0.035278 scale
start_ol
-13 4992 moveto
713 4992 lineto
2097 2939 lineto
3471 4992 lineto
4196 4992 lineto
2431 2377 lineto
2431 0 lineto
1752 0 lineto
1752 2377 lineto
-13 4992 lineto
end_ol grestore 
0.100000 slw
[] 0 sd
0 slj
1.000000 1.000000 1.000000 srgb
n 37.500000 17.500000 2.500000 1.500000 0 360 ellipse f
0.000000 0.000000 0.000000 srgb
n 37.500000 17.500000 2.500000 1.500000 0 360 ellipse cp s
gsave 36.245000 17.773842 translate 0.035278 -0.035278 scale
start_ol
3039 2351 moveto
3256 2277 3462 2034 conicto
3668 1791 3875 1366 conicto
4561 0 lineto
3835 0 lineto
3197 1282 lineto
2949 1784 2716 1948 conicto
2484 2112 2083 2112 conicto
1348 2112 lineto
1348 0 lineto
672 0 lineto
672 4992 lineto
2197 4992 lineto
3053 4992 3474 4635 conicto
3895 4279 3895 3560 conicto
3895 3090 3676 2780 conicto
3457 2471 3039 2351 conicto
1348 4416 moveto
1348 2688 lineto
2197 2688 lineto
2685 2688 2934 2908 conicto
3183 3128 3183 3555 conicto
3183 3982 2934 4199 conicto
2685 4416 2197 4416 conicto
1348 4416 lineto
end_ol grestore 
gsave 36.871914 17.773842 translate 0.035278 -0.035278 scale
start_ol
672 4992 moveto
3829 4992 lineto
3829 4416 lineto
1348 4416 lineto
1348 2944 lineto
3725 2944 lineto
3725 2368 lineto
1348 2368 lineto
1348 576 lineto
3889 576 lineto
3889 0 lineto
672 0 lineto
672 4992 lineto
end_ol grestore 
gsave 37.441380 17.773842 translate 0.035278 -0.035278 scale
start_ol
2341 4330 moveto
1424 1856 lineto
3260 1856 lineto
2341 4330 lineto
1959 4992 moveto
2725 4992 lineto
4628 0 lineto
3926 0 lineto
3471 1280 lineto
1220 1280 lineto
766 0 lineto
54 0 lineto
1959 4992 lineto
end_ol grestore 
gsave 38.058297 17.773842 translate 0.035278 -0.035278 scale
start_ol
1348 4416 moveto
1348 576 lineto
2163 576 lineto
3196 576 3676 1039 conicto
4156 1502 4156 2501 conicto
4156 3493 3676 3954 conicto
3196 4416 2163 4416 conicto
1348 4416 lineto
672 4992 moveto
2060 4992 lineto
3511 4992 4190 4388 conicto
4869 3785 4869 2501 conicto
4869 1210 4187 605 conicto
3505 0 2060 0 conicto
672 0 lineto
672 4992 lineto
end_ol grestore 
0.100000 slw
[] 0 sd
0 slj
1.000000 1.000000 1.000000 srgb
n 24.500000 17.500000 2.500000 1.500000 0 360 ellipse f
0.000000 0.000000 0.000000 srgb
n 24.500000 17.500000 2.500000 1.500000 0 360 ellipse cp s
gsave 23.245000 17.773842 translate 0.035278 -0.035278 scale
start_ol
3039 2351 moveto
3256 2277 3462 2034 conicto
3668 1791 3875 1366 conicto
4561 0 lineto
3835 0 lineto
3197 1282 lineto
2949 1784 2716 1948 conicto
2484 2112 2083 2112 conicto
1348 2112 lineto
1348 0 lineto
672 0 lineto
672 4992 lineto
2197 4992 lineto
3053 4992 3474 4635 conicto
3895 4279 3895 3560 conicto
3895 3090 3676 2780 conicto
3457 2471 3039 2351 conicto
1348 4416 moveto
1348 2688 lineto
2197 2688 lineto
2685 2688 2934 2908 conicto
3183 3128 3183 3555 conicto
3183 3982 2934 4199 conicto
2685 4416 2197 4416 conicto
1348 4416 lineto
end_ol grestore 
gsave 23.871914 17.773842 translate 0.035278 -0.035278 scale
start_ol
672 4992 moveto
3829 4992 lineto
3829 4416 lineto
1348 4416 lineto
1348 2944 lineto
3725 2944 lineto
3725 2368 lineto
1348 2368 lineto
1348 576 lineto
3889 576 lineto
3889 0 lineto
672 0 lineto
672 4992 lineto
end_ol grestore 
gsave 24.441380 17.773842 translate 0.035278 -0.035278 scale
start_ol
2341 4330 moveto
1424 1856 lineto
3260 1856 lineto
2341 4330 lineto
1959 4992 moveto
2725 4992 lineto
4628 0 lineto
3926 0 lineto
3471 1280 lineto
1220 1280 lineto
766 0 lineto
54 0 lineto
1959 4992 lineto
end_ol grestore 
gsave 25.058297 17.773842 translate 0.035278 -0.035278 scale
start_ol
1348 4416 moveto
1348 576 lineto
2163 576 lineto
3196 576 3676 1039 conicto
4156 1502 4156 2501 conicto
4156 3493 3676 3954 conicto
3196 4416 2163 4416 conicto
1348 4416 lineto
672 4992 moveto
2060 4992 lineto
3511 4992 4190 4388 conicto
4869 3785 4869 2501 conicto
4869 1210 4187 605 conicto
3505 0 2060 0 conicto
672 0 lineto
672 4992 lineto
end_ol grestore 
0.100000 slw
[] 0 sd
0 slj
1.000000 1.000000 1.000000 srgb
n 24.505447 22.503268 2.505447 1.503268 0 360 ellipse f
0.000000 0.000000 0.000000 srgb
n 24.505447 22.503268 2.505447 1.503268 0 360 ellipse cp s
gsave 23.242947 22.777110 translate 0.035278 -0.035278 scale
start_ol
385 4992 moveto
4307 4992 lineto
4307 4478 lineto
1150 576 lineto
4384 576 lineto
4384 0 lineto
308 0 lineto
308 514 lineto
3464 4416 lineto
385 4416 lineto
385 4992 lineto
end_ol grestore 
gsave 23.859864 22.777110 translate 0.035278 -0.035278 scale
start_ol
672 4992 moveto
3829 4992 lineto
3829 4416 lineto
1348 4416 lineto
1348 2944 lineto
3725 2944 lineto
3725 2368 lineto
1348 2368 lineto
1348 576 lineto
3889 576 lineto
3889 0 lineto
672 0 lineto
672 4992 lineto
end_ol grestore 
gsave 24.429330 22.777110 translate 0.035278 -0.035278 scale
start_ol
3039 2351 moveto
3256 2277 3462 2034 conicto
3668 1791 3875 1366 conicto
4561 0 lineto
3835 0 lineto
3197 1282 lineto
2949 1784 2716 1948 conicto
2484 2112 2083 2112 conicto
1348 2112 lineto
1348 0 lineto
672 0 lineto
672 4992 lineto
2197 4992 lineto
3053 4992 3474 4635 conicto
3895 4279 3895 3560 conicto
3895 3090 3676 2780 conicto
3457 2471 3039 2351 conicto
1348 4416 moveto
1348 2688 lineto
2197 2688 lineto
2685 2688 2934 2908 conicto
3183 3128 3183 3555 conicto
3183 3982 2934 4199 conicto
2685 4416 2197 4416 conicto
1348 4416 lineto
end_ol grestore 
gsave 25.056244 22.777110 translate 0.035278 -0.035278 scale
start_ol
2698 4544 moveto
1963 4544 1530 3994 conicto
1097 3444 1097 2494 conicto
1097 1548 1530 998 conicto
1963 448 2698 448 conicto
3434 448 3863 998 conicto
4293 1548 4293 2494 conicto
4293 3444 3863 3994 conicto
3434 4544 2698 4544 conicto
2699 5120 moveto
3749 5120 4377 4407 conicto
5006 3694 5006 2494 conicto
5006 1298 4377 585 conicto
3749 -128 2699 -128 conicto
1646 -128 1015 583 conicto
385 1295 385 2494 conicto
385 3694 1015 4407 conicto
1646 5120 2699 5120 conicto
end_ol grestore 
0.100000 slw
[] 0 sd
0 slj
1.000000 1.000000 1.000000 srgb
n 24.505447 27.503268 2.505447 1.503268 0 360 ellipse f
0.000000 0.000000 0.000000 srgb
n 24.505447 27.503268 2.505447 1.503268 0 360 ellipse cp s
gsave 23.050447 27.777110 translate 0.035278 -0.035278 scale
start_ol
227 4992 moveto
910 4992 lineto
1959 772 lineto
3006 4992 lineto
3765 4992 lineto
4815 772 lineto
5862 4992 lineto
6547 4992 lineto
5293 0 lineto
4444 0 lineto
3391 4333 lineto
2327 0 lineto
1478 0 lineto
227 4992 lineto
end_ol grestore 
gsave 23.942109 27.777110 translate 0.035278 -0.035278 scale
start_ol
3039 2351 moveto
3256 2277 3462 2034 conicto
3668 1791 3875 1366 conicto
4561 0 lineto
3835 0 lineto
3197 1282 lineto
2949 1784 2716 1948 conicto
2484 2112 2083 2112 conicto
1348 2112 lineto
1348 0 lineto
672 0 lineto
672 4992 lineto
2197 4992 lineto
3053 4992 3474 4635 conicto
3895 4279 3895 3560 conicto
3895 3090 3676 2780 conicto
3457 2471 3039 2351 conicto
1348 4416 moveto
1348 2688 lineto
2197 2688 lineto
2685 2688 2934 2908 conicto
3183 3128 3183 3555 conicto
3183 3982 2934 4199 conicto
2685 4416 2197 4416 conicto
1348 4416 lineto
end_ol grestore 
gsave 24.569023 27.777110 translate 0.035278 -0.035278 scale
start_ol
672 4992 moveto
1348 4992 lineto
1348 0 lineto
672 0 lineto
672 4992 lineto
end_ol grestore 
gsave 24.836268 27.777110 translate 0.035278 -0.035278 scale
start_ol
-20 4992 moveto
4203 4992 lineto
4203 4416 lineto
2431 4416 lineto
2431 0 lineto
1752 0 lineto
1752 4416 lineto
-20 4416 lineto
-20 4992 lineto
end_ol grestore 
gsave 25.388247 27.777110 translate 0.035278 -0.035278 scale
start_ol
672 4992 moveto
3829 4992 lineto
3829 4416 lineto
1348 4416 lineto
1348 2944 lineto
3725 2944 lineto
3725 2368 lineto
1348 2368 lineto
1348 576 lineto
3889 576 lineto
3889 0 lineto
672 0 lineto
672 4992 lineto
end_ol grestore 
0.100000 slw
[] 0 sd
0 slc
n 37.500000 14.000000 m 37.500000 15.513197 l s
[] 0 sd
0 slj
0 slc
n 37.500000 15.888197 m 37.250000 15.388197 l 37.500000 15.513197 l 37.750000 15.388197 l ef
n 37.500000 15.888197 m 37.250000 15.388197 l 37.500000 15.513197 l 37.750000 15.388197 l cp s
0.100000 slw
[] 0 sd
0 slc
n 24.500000 14.000000 m 24.500000 15.513197 l s
[] 0 sd
0 slj
0 slc
n 24.500000 15.888197 m 24.250000 15.388197 l 24.500000 15.513197 l 24.750000 15.388197 l ef
n 24.500000 15.888197 m 24.250000 15.388197 l 24.500000 15.513197 l 24.750000 15.388197 l cp s
0.100000 slw
[] 0 sd
0 slc
n 24.502390 19.049194 m 24.504649 20.513197 l s
[] 0 sd
0 slj
0 slc
n 24.505228 20.888197 m 24.254456 20.388583 l 24.504649 20.513197 l 24.754456 20.387812 l ef
n 24.505228 20.888197 m 24.254456 20.388583 l 24.504649 20.513197 l 24.754456 20.387812 l cp s
0.100000 slw
[] 0 sd
0 slc
n 24.505426 24.055284 m 24.505406 25.513197 l s
[] 0 sd
0 slj
0 slc
n 24.505401 25.888197 m 24.255408 25.388193 l 24.505406 25.513197 l 24.755408 25.388200 l ef
n 24.505401 25.888197 m 24.255408 25.388193 l 24.505406 25.513197 l 24.755408 25.388200 l cp s
0.100000 slw
[] 0 sd
0 slc
n 29.879125 20.001650 10.879125 10.879125 136.405873 221.032048 ellipse s
[] 0 sd
0 slj
0 slc
n 21.922906 12.580973 m 21.759194 13.115480 l 21.664327 12.852564 l 21.397073 12.770708 l ef
n 21.922906 12.580973 m 21.759194 13.115480 l 21.664327 12.852564 l 21.397073 12.770708 l cp s
0.100000 slw
[] 0 sd
0 slc
n 39.437500 15.000000 2.562500 2.562500 293.436805 437.319617 ellipse s
[] 0 sd
0 slj
0 slc
n 40.109076 12.524542 m 40.651759 12.390396 l 40.474930 12.606859 l 40.542003 12.878201 l ef
n 40.109076 12.524542 m 40.651759 12.390396 l 40.474930 12.606859 l 40.542003 12.878201 l cp s
0.100000 slw
[] 0 sd
0 slj
0 slc
0.600000 0.600000 0.600000 srgb
n 18.000000 10.000000 m 31.000000 10.000000 l 31.000000 31.000000 l 18.000000 31.000000 l cp s
0.000000 0.000000 0.000000 srgb
gsave 26.340000 9.349063 translate 0.035278 -0.035278 scale
start_ol
2529 2204 moveto
2693 2485 2921 2618 conicto
3149 2752 3458 2752 conicto
3874 2752 4099 2464 conicto
4325 2177 4325 1646 conicto
4325 0 lineto
3886 0 lineto
3886 1632 lineto
3886 2006 3750 2187 conicto
3615 2368 3337 2368 conicto
2997 2368 2800 2146 conicto
2603 1925 2603 1542 conicto
2603 0 lineto
2164 0 lineto
2164 1632 lineto
2164 2008 2028 2188 conicto
1893 2368 1610 2368 conicto
1275 2368 1078 2145 conicto
881 1922 881 1542 conicto
881 0 lineto
442 0 lineto
442 2688 lineto
881 2688 lineto
881 2304 lineto
1031 2534 1240 2643 conicto
1449 2752 1736 2752 conicto
2026 2752 2229 2611 conicto
2432 2471 2529 2204 conicto
end_ol grestore 
gsave 26.961911 9.349063 translate 0.035278 -0.035278 scale
start_ol
1489 2368 moveto
1138 2368 933 2094 conicto
729 1820 729 1344 conicto
729 868 932 594 conicto
1135 320 1489 320 conicto
1838 320 2042 595 conicto
2247 870 2247 1344 conicto
2247 1816 2042 2092 conicto
1838 2368 1489 2368 conicto
1489 2752 moveto
2059 2752 2384 2378 conicto
2710 2005 2710 1344 conicto
2710 685 2384 310 conicto
2059 -64 1489 -64 conicto
917 -64 592 310 conicto
268 685 268 1344 conicto
268 2005 592 2378 conicto
917 2752 1489 2752 conicto
end_ol grestore 
gsave 27.354040 9.349063 translate 0.035278 -0.035278 scale
start_ol
2209 2304 moveto
2209 3712 lineto
2646 3712 lineto
2646 0 lineto
2209 0 lineto
2209 384 lineto
2071 157 1861 46 conicto
1651 -64 1356 -64 conicto
874 -64 571 324 conicto
268 712 268 1344 conicto
268 1976 571 2364 conicto
874 2752 1356 2752 conicto
1651 2752 1861 2641 conicto
2071 2531 2209 2304 conicto
720 1344 moveto
720 865 918 592 conicto
1117 320 1463 320 conicto
1810 320 2009 592 conicto
2209 865 2209 1344 conicto
2209 1823 2009 2095 conicto
1810 2368 1463 2368 conicto
1117 2368 918 2095 conicto
720 1823 720 1344 conicto
end_ol grestore 
gsave 27.761160 9.349063 translate 0.035278 -0.035278 scale
start_ol
2734 1480 moveto
2734 1280 lineto
724 1280 lineto
753 811 996 565 conicto
1240 320 1674 320 conicto
1926 320 2162 384 conicto
2399 448 2632 576 conicto
2632 192 lineto
2397 67 2150 1 conicto
1903 -64 1648 -64 conicto
1012 -64 640 309 conicto
268 683 268 1320 conicto
268 1979 621 2365 conicto
974 2752 1572 2752 conicto
2109 2752 2421 2410 conicto
2734 2068 2734 1480 conicto
2297 1600 moveto
2292 1950 2096 2159 conicto
1900 2368 1577 2368 conicto
1212 2368 992 2166 conicto
772 1964 739 1597 conicto
2297 1600 lineto
end_ol grestore 
gsave 28.155786 9.349063 translate 0.035278 -0.035278 scale
start_ol
515 2176 moveto
3560 2176 lineto
3560 1792 lineto
515 1792 lineto
515 2176 lineto
515 1216 moveto
3560 1216 lineto
3560 832 lineto
515 832 lineto
515 1216 lineto
end_ol grestore 
gsave 28.692782 9.349063 translate 0.035278 -0.035278 scale
start_ol
872 3520 moveto
872 2176 lineto
468 2176 lineto
468 3520 lineto
872 3520 lineto
end_ol grestore 
gsave 28.867614 9.349063 translate 0.035278 -0.035278 scale
start_ol
2368 1344 moveto
2368 1823 2169 2095 conicto
1971 2368 1624 2368 conicto
1278 2368 1079 2095 conicto
881 1823 881 1344 conicto
881 865 1079 592 conicto
1278 320 1624 320 conicto
1971 320 2169 592 conicto
2368 865 2368 1344 conicto
881 2304 moveto
1019 2531 1229 2641 conicto
1439 2752 1732 2752 conicto
2216 2752 2519 2364 conicto
2822 1976 2822 1344 conicto
2822 712 2519 324 conicto
2216 -64 1732 -64 conicto
1439 -64 1229 46 conicto
1019 157 881 384 conicto
881 0 lineto
442 0 lineto
442 3712 lineto
881 3712 lineto
881 2304 lineto
end_ol grestore 
gsave 29.274734 9.349063 translate 0.035278 -0.035278 scale
start_ol
603 384 moveto
1387 384 lineto
1387 3136 lineto
534 2944 lineto
534 3328 lineto
1382 3520 lineto
1862 3520 lineto
1862 384 lineto
2646 384 lineto
2646 0 lineto
603 0 lineto
603 384 lineto
end_ol grestore 
gsave 29.681853 9.349063 translate 0.035278 -0.035278 scale
start_ol
1546 3200 moveto
1176 3200 989 2840 conicto
803 2481 803 1759 conicto
803 1039 989 679 conicto
1176 320 1546 320 conicto
1919 320 2105 679 conicto
2292 1039 2292 1759 conicto
2292 2481 2105 2840 conicto
1919 3200 1546 3200 conicto
1547 3584 moveto
2143 3584 2457 3116 conicto
2772 2649 2772 1759 conicto
2772 871 2457 403 conicto
2143 -64 1547 -64 conicto
950 -64 635 403 conicto
321 871 321 1759 conicto
321 2649 635 3116 conicto
950 3584 1547 3584 conicto
end_ol grestore 
gsave 30.088972 9.349063 translate 0.035278 -0.035278 scale
start_ol
1546 3200 moveto
1176 3200 989 2840 conicto
803 2481 803 1759 conicto
803 1039 989 679 conicto
1176 320 1546 320 conicto
1919 320 2105 679 conicto
2292 1039 2292 1759 conicto
2292 2481 2105 2840 conicto
1919 3200 1546 3200 conicto
1547 3584 moveto
2143 3584 2457 3116 conicto
2772 2649 2772 1759 conicto
2772 871 2457 403 conicto
2143 -64 1547 -64 conicto
950 -64 635 403 conicto
321 871 321 1759 conicto
321 2649 635 3116 conicto
950 3584 1547 3584 conicto
end_ol grestore 
gsave 24.800000 20.000000 translate 0.035278 -0.035278 scale
start_ol
2373 2560 moveto
2373 2176 lineto
2188 2272 2001 2320 conicto
1815 2368 1625 2368 conicto
1199 2368 964 2099 conicto
729 1830 729 1344 conicto
729 858 964 589 conicto
1199 320 1625 320 conicto
1815 320 2001 368 conicto
2188 416 2373 512 conicto
2373 128 lineto
2190 32 1994 -16 conicto
1798 -64 1577 -64 conicto
976 -64 622 316 conicto
268 697 268 1344 conicto
268 2000 625 2376 conicto
983 2752 1606 2752 conicto
1808 2752 2000 2704 conicto
2192 2656 2373 2560 conicto
end_ol grestore 
gsave 25.152169 20.000000 translate 0.035278 -0.035278 scale
start_ol
458 3712 moveto
895 3712 lineto
895 0 lineto
458 0 lineto
458 3712 lineto
end_ol grestore 
gsave 25.329497 20.000000 translate 0.035278 -0.035278 scale
start_ol
442 3712 moveto
881 3712 lineto
881 1529 lineto
2185 2688 lineto
2743 2688 lineto
1332 1430 lineto
2803 0 lineto
2233 0 lineto
881 1313 lineto
881 0 lineto
442 0 lineto
442 3712 lineto
end_ol grestore 
gsave 25.699145 20.000000 translate 0.035278 -0.035278 scale
start_ol
1931 3584 moveto
2145 3584 lineto
3076 2624 lineto
2791 2339 lineto
2240 2895 lineto
2240 0 lineto
1836 0 lineto
1836 2895 lineto
1280 2339 lineto
995 2624 lineto
1931 3584 lineto
end_ol grestore 
gsave 35.762500 15.000000 translate 0.035278 -0.035278 scale
start_ol
2373 2560 moveto
2373 2176 lineto
2188 2272 2001 2320 conicto
1815 2368 1625 2368 conicto
1199 2368 964 2099 conicto
729 1830 729 1344 conicto
729 858 964 589 conicto
1199 320 1625 320 conicto
1815 320 2001 368 conicto
2188 416 2373 512 conicto
2373 128 lineto
2190 32 1994 -16 conicto
1798 -64 1577 -64 conicto
976 -64 622 316 conicto
268 697 268 1344 conicto
268 2000 625 2376 conicto
983 2752 1606 2752 conicto
1808 2752 2000 2704 conicto
2192 2656 2373 2560 conicto
end_ol grestore 
gsave 36.114669 15.000000 translate 0.035278 -0.035278 scale
start_ol
458 3712 moveto
895 3712 lineto
895 0 lineto
458 0 lineto
458 3712 lineto
end_ol grestore 
gsave 36.291997 15.000000 translate 0.035278 -0.035278 scale
start_ol
442 3712 moveto
881 3712 lineto
881 1529 lineto
2185 2688 lineto
2743 2688 lineto
1332 1430 lineto
2803 0 lineto
2233 0 lineto
881 1313 lineto
881 0 lineto
442 0 lineto
442 3712 lineto
end_ol grestore 
gsave 36.661645 15.000000 translate 0.035278 -0.035278 scale
start_ol
1931 3584 moveto
2145 3584 lineto
3076 2624 lineto
2791 2339 lineto
2240 2895 lineto
2240 0 lineto
1836 0 lineto
1836 2895 lineto
1280 2339 lineto
995 2624 lineto
1931 3584 lineto
end_ol grestore 
gsave 19.200000 20.000000 translate 0.035278 -0.035278 scale
start_ol
2373 2560 moveto
2373 2176 lineto
2188 2272 2001 2320 conicto
1815 2368 1625 2368 conicto
1199 2368 964 2099 conicto
729 1830 729 1344 conicto
729 858 964 589 conicto
1199 320 1625 320 conicto
1815 320 2001 368 conicto
2188 416 2373 512 conicto
2373 128 lineto
2190 32 1994 -16 conicto
1798 -64 1577 -64 conicto
976 -64 622 316 conicto
268 697 268 1344 conicto
268 2000 625 2376 conicto
983 2752 1606 2752 conicto
1808 2752 2000 2704 conicto
2192 2656 2373 2560 conicto
end_ol grestore 
gsave 19.552169 20.000000 translate 0.035278 -0.035278 scale
start_ol
458 3712 moveto
895 3712 lineto
895 0 lineto
458 0 lineto
458 3712 lineto
end_ol grestore 
gsave 19.729497 20.000000 translate 0.035278 -0.035278 scale
start_ol
442 3712 moveto
881 3712 lineto
881 1529 lineto
2185 2688 lineto
2743 2688 lineto
1332 1430 lineto
2803 0 lineto
2233 0 lineto
881 1313 lineto
881 0 lineto
442 0 lineto
442 3712 lineto
end_ol grestore 
gsave 20.099145 20.000000 translate 0.035278 -0.035278 scale
start_ol
1931 3584 moveto
2145 3584 lineto
3076 2624 lineto
2791 2339 lineto
2240 2895 lineto
2240 0 lineto
1836 0 lineto
1836 2895 lineto
1280 2339 lineto
995 2624 lineto
1931 3584 lineto
end_ol grestore 
0.100000 slw
[] 0 sd
0 slc
n 37.500000 2.500000 m 37.500000 3.513197 l s
[] 0 sd
0 slj
0 slc
n 37.500000 3.888197 m 37.250000 3.388197 l 37.500000 3.513197 l 37.750000 3.388197 l ef
n 37.500000 3.888197 m 37.250000 3.388197 l 37.500000 3.513197 l 37.750000 3.388197 l cp s
gsave 35.420000 2.349063 translate 0.035278 -0.035278 scale
start_ol
2529 2204 moveto
2693 2485 2921 2618 conicto
3149 2752 3458 2752 conicto
3874 2752 4099 2464 conicto
4325 2177 4325 1646 conicto
4325 0 lineto
3886 0 lineto
3886 1632 lineto
3886 2006 3750 2187 conicto
3615 2368 3337 2368 conicto
2997 2368 2800 2146 conicto
2603 1925 2603 1542 conicto
2603 0 lineto
2164 0 lineto
2164 1632 lineto
2164 2008 2028 2188 conicto
1893 2368 1610 2368 conicto
1275 2368 1078 2145 conicto
881 1922 881 1542 conicto
881 0 lineto
442 0 lineto
442 2688 lineto
881 2688 lineto
881 2304 lineto
1031 2534 1240 2643 conicto
1449 2752 1736 2752 conicto
2026 2752 2229 2611 conicto
2432 2471 2529 2204 conicto
end_ol grestore 
gsave 36.041911 2.349063 translate 0.035278 -0.035278 scale
start_ol
1489 2368 moveto
1138 2368 933 2094 conicto
729 1820 729 1344 conicto
729 868 932 594 conicto
1135 320 1489 320 conicto
1838 320 2042 595 conicto
2247 870 2247 1344 conicto
2247 1816 2042 2092 conicto
1838 2368 1489 2368 conicto
1489 2752 moveto
2059 2752 2384 2378 conicto
2710 2005 2710 1344 conicto
2710 685 2384 310 conicto
2059 -64 1489 -64 conicto
917 -64 592 310 conicto
268 685 268 1344 conicto
268 2005 592 2378 conicto
917 2752 1489 2752 conicto
end_ol grestore 
gsave 36.434040 2.349063 translate 0.035278 -0.035278 scale
start_ol
2209 2304 moveto
2209 3712 lineto
2646 3712 lineto
2646 0 lineto
2209 0 lineto
2209 384 lineto
2071 157 1861 46 conicto
1651 -64 1356 -64 conicto
874 -64 571 324 conicto
268 712 268 1344 conicto
268 1976 571 2364 conicto
874 2752 1356 2752 conicto
1651 2752 1861 2641 conicto
2071 2531 2209 2304 conicto
720 1344 moveto
720 865 918 592 conicto
1117 320 1463 320 conicto
1810 320 2009 592 conicto
2209 865 2209 1344 conicto
2209 1823 2009 2095 conicto
1810 2368 1463 2368 conicto
1117 2368 918 2095 conicto
720 1823 720 1344 conicto
end_ol grestore 
gsave 36.841160 2.349063 translate 0.035278 -0.035278 scale
start_ol
2734 1480 moveto
2734 1280 lineto
724 1280 lineto
753 811 996 565 conicto
1240 320 1674 320 conicto
1926 320 2162 384 conicto
2399 448 2632 576 conicto
2632 192 lineto
2397 67 2150 1 conicto
1903 -64 1648 -64 conicto
1012 -64 640 309 conicto
268 683 268 1320 conicto
268 1979 621 2365 conicto
974 2752 1572 2752 conicto
2109 2752 2421 2410 conicto
2734 2068 2734 1480 conicto
2297 1600 moveto
2292 1950 2096 2159 conicto
1900 2368 1577 2368 conicto
1212 2368 992 2166 conicto
772 1964 739 1597 conicto
2297 1600 lineto
end_ol grestore 
gsave 37.235786 2.349063 translate 0.035278 -0.035278 scale
start_ol
515 2176 moveto
3560 2176 lineto
3560 1792 lineto
515 1792 lineto
515 2176 lineto
515 1216 moveto
3560 1216 lineto
3560 832 lineto
515 832 lineto
515 1216 lineto
end_ol grestore 
gsave 37.772782 2.349063 translate 0.035278 -0.035278 scale
start_ol
872 3520 moveto
872 2176 lineto
468 2176 lineto
468 3520 lineto
872 3520 lineto
end_ol grestore 
gsave 37.947614 2.349063 translate 0.035278 -0.035278 scale
start_ol
2368 1344 moveto
2368 1823 2169 2095 conicto
1971 2368 1624 2368 conicto
1278 2368 1079 2095 conicto
881 1823 881 1344 conicto
881 865 1079 592 conicto
1278 320 1624 320 conicto
1971 320 2169 592 conicto
2368 865 2368 1344 conicto
881 2304 moveto
1019 2531 1229 2641 conicto
1439 2752 1732 2752 conicto
2216 2752 2519 2364 conicto
2822 1976 2822 1344 conicto
2822 712 2519 324 conicto
2216 -64 1732 -64 conicto
1439 -64 1229 46 conicto
1019 157 881 384 conicto
881 0 lineto
442 0 lineto
442 3712 lineto
881 3712 lineto
881 2304 lineto
end_ol grestore 
gsave 38.354734 2.349063 translate 0.035278 -0.035278 scale
start_ol
1546 3200 moveto
1176 3200 989 2840 conicto
803 2481 803 1759 conicto
803 1039 989 679 conicto
1176 320 1546 320 conicto
1919 320 2105 679 conicto
2292 1039 2292 1759 conicto
2292 2481 2105 2840 conicto
1919 3200 1546 3200 conicto
1547 3584 moveto
2143 3584 2457 3116 conicto
2772 2649 2772 1759 conicto
2772 871 2457 403 conicto
2143 -64 1547 -64 conicto
950 -64 635 403 conicto
321 871 321 1759 conicto
321 2649 635 3116 conicto
950 3584 1547 3584 conicto
end_ol grestore 
gsave 38.761853 2.349063 translate 0.035278 -0.035278 scale
start_ol
1546 3200 moveto
1176 3200 989 2840 conicto
803 2481 803 1759 conicto
803 1039 989 679 conicto
1176 320 1546 320 conicto
1919 320 2105 679 conicto
2292 1039 2292 1759 conicto
2292 2481 2105 2840 conicto
1919 3200 1546 3200 conicto
1547 3584 moveto
2143 3584 2457 3116 conicto
2772 2649 2772 1759 conicto
2772 871 2457 403 conicto
2143 -64 1547 -64 conicto
950 -64 635 403 conicto
321 871 321 1759 conicto
321 2649 635 3116 conicto
950 3584 1547 3584 conicto
end_ol grestore 
gsave 39.168972 2.349063 translate 0.035278 -0.035278 scale
start_ol
1546 3200 moveto
1176 3200 989 2840 conicto
803 2481 803 1759 conicto
803 1039 989 679 conicto
1176 320 1546 320 conicto
1919 320 2105 679 conicto
2292 1039 2292 1759 conicto
2292 2481 2105 2840 conicto
1919 3200 1546 3200 conicto
1547 3584 moveto
2143 3584 2457 3116 conicto
2772 2649 2772 1759 conicto
2772 871 2457 403 conicto
2143 -64 1547 -64 conicto
950 -64 635 403 conicto
321 871 321 1759 conicto
321 2649 635 3116 conicto
950 3584 1547 3584 conicto
end_ol grestore 
0.600000 0.600000 0.600000 srgb
gsave 18.500000 1.547859 translate 0.035278 -0.035278 scale
start_ol
835 6208 moveto
1675 6208 lineto
1675 0 lineto
835 0 lineto
835 6208 lineto
end_ol grestore 
gsave 18.832184 1.547859 translate 0.035278 -0.035278 scale
start_ol
1675 5504 moveto
1675 704 lineto
2689 704 lineto
3973 704 4569 1283 conicto
5166 1862 5166 3110 conicto
5166 4351 4569 4927 conicto
3973 5504 2689 5504 conicto
1675 5504 lineto
835 6208 moveto
2560 6208 lineto
4364 6208 5208 5457 conicto
6052 4707 6052 3110 conicto
6052 1505 5204 752 conicto
4356 0 2560 0 conicto
835 0 lineto
835 6208 lineto
end_ol grestore 
gsave 19.701365 1.547859 translate 0.035278 -0.035278 scale
start_ol
835 6208 moveto
1675 6208 lineto
1675 704 lineto
4697 704 lineto
4697 0 lineto
835 0 lineto
835 6208 lineto
end_ol grestore 
gsave 20.330776 1.547859 translate 0.035278 -0.035278 scale
start_ol
835 6208 moveto
4759 6208 lineto
4759 5504 lineto
1675 5504 lineto
1675 3648 lineto
4630 3648 lineto
4630 2944 lineto
1675 2944 lineto
1675 704 lineto
4834 704 lineto
4834 0 lineto
835 0 lineto
835 6208 lineto
end_ol grestore 
gsave 35.930000 30.500000 translate 0.035278 -0.035278 scale
start_ol
3778 2917 moveto
4048 2825 4303 2524 conicto
4559 2223 4817 1697 conicto
5669 0 lineto
4767 0 lineto
3973 1593 lineto
3665 2217 3376 2420 conicto
3088 2624 2589 2624 conicto
1675 2624 lineto
1675 0 lineto
835 0 lineto
835 6208 lineto
2731 6208 lineto
3795 6208 4318 5764 conicto
4842 5320 4842 4423 conicto
4842 3838 4570 3452 conicto
4298 3066 3778 2917 conicto
1675 5504 moveto
1675 3328 lineto
2731 3328 lineto
3338 3328 3647 3605 conicto
3957 3882 3957 4420 conicto
3957 4958 3647 5231 conicto
3338 5504 2731 5504 conicto
1675 5504 lineto
end_ol grestore 
gsave 36.714266 30.500000 translate 0.035278 -0.035278 scale
start_ol
835 6208 moveto
4759 6208 lineto
4759 5504 lineto
1675 5504 lineto
1675 3648 lineto
4630 3648 lineto
4630 2944 lineto
1675 2944 lineto
1675 704 lineto
4834 704 lineto
4834 0 lineto
835 0 lineto
835 6208 lineto
end_ol grestore 
gsave 37.426095 30.500000 translate 0.035278 -0.035278 scale
start_ol
2909 5383 moveto
1771 2304 lineto
4052 2304 lineto
2909 5383 lineto
2436 6208 moveto
3387 6208 lineto
5752 0 lineto
4879 0 lineto
4314 1600 lineto
1517 1600 lineto
952 0 lineto
67 0 lineto
2436 6208 lineto
end_ol grestore 
gsave 38.197868 30.500000 translate 0.035278 -0.035278 scale
start_ol
1675 5504 moveto
1675 704 lineto
2689 704 lineto
3973 704 4569 1283 conicto
5166 1862 5166 3110 conicto
5166 4351 4569 4927 conicto
3973 5504 2689 5504 conicto
1675 5504 lineto
835 6208 moveto
2560 6208 lineto
4364 6208 5208 5457 conicto
6052 4707 6052 3110 conicto
6052 1505 5204 752 conicto
4356 0 2560 0 conicto
835 0 lineto
835 6208 lineto
end_ol grestore 
gsave 18.500000 30.500000 translate 0.035278 -0.035278 scale
start_ol
3778 2917 moveto
4048 2825 4303 2524 conicto
4559 2223 4817 1697 conicto
5669 0 lineto
4767 0 lineto
3973 1593 lineto
3665 2217 3376 2420 conicto
3088 2624 2589 2624 conicto
1675 2624 lineto
1675 0 lineto
835 0 lineto
835 6208 lineto
2731 6208 lineto
3795 6208 4318 5764 conicto
4842 5320 4842 4423 conicto
4842 3838 4570 3452 conicto
4298 3066 3778 2917 conicto
1675 5504 moveto
1675 3328 lineto
2731 3328 lineto
3338 3328 3647 3605 conicto
3957 3882 3957 4420 conicto
3957 4958 3647 5231 conicto
3338 5504 2731 5504 conicto
1675 5504 lineto
end_ol grestore 
gsave 19.284266 30.500000 translate 0.035278 -0.035278 scale
start_ol
835 6208 moveto
4759 6208 lineto
4759 5504 lineto
1675 5504 lineto
1675 3648 lineto
4630 3648 lineto
4630 2944 lineto
1675 2944 lineto
1675 704 lineto
4834 704 lineto
4834 0 lineto
835 0 lineto
835 6208 lineto
end_ol grestore 
gsave 19.996095 30.500000 translate 0.035278 -0.035278 scale
start_ol
2909 5383 moveto
1771 2304 lineto
4052 2304 lineto
2909 5383 lineto
2436 6208 moveto
3387 6208 lineto
5752 0 lineto
4879 0 lineto
4314 1600 lineto
1517 1600 lineto
952 0 lineto
67 0 lineto
2436 6208 lineto
end_ol grestore 
gsave 20.767868 30.500000 translate 0.035278 -0.035278 scale
start_ol
1675 5504 moveto
1675 704 lineto
2689 704 lineto
3973 704 4569 1283 conicto
5166 1862 5166 3110 conicto
5166 4351 4569 4927 conicto
3973 5504 2689 5504 conicto
1675 5504 lineto
835 6208 moveto
2560 6208 lineto
4364 6208 5208 5457 conicto
6052 4707 6052 3110 conicto
6052 1505 5204 752 conicto
4356 0 2560 0 conicto
835 0 lineto
835 6208 lineto
end_ol grestore 
gsave 21.637049 30.500000 translate 0.035278 -0.035278 scale
start_ol
478 6208 moveto
5353 6208 lineto
5353 5567 lineto
1430 704 lineto
5449 704 lineto
5449 0 lineto
382 0 lineto
382 641 lineto
4306 5504 lineto
478 5504 lineto
478 6208 lineto
end_ol grestore 
0.000000 0.000000 0.000000 srgb
gsave 24.800000 15.000000 translate 0.035278 -0.035278 scale
start_ol
2373 2560 moveto
2373 2176 lineto
2188 2272 2001 2320 conicto
1815 2368 1625 2368 conicto
1199 2368 964 2099 conicto
729 1830 729 1344 conicto
729 858 964 589 conicto
1199 320 1625 320 conicto
1815 320 2001 368 conicto
2188 416 2373 512 conicto
2373 128 lineto
2190 32 1994 -16 conicto
1798 -64 1577 -64 conicto
976 -64 622 316 conicto
268 697 268 1344 conicto
268 2000 625 2376 conicto
983 2752 1606 2752 conicto
1808 2752 2000 2704 conicto
2192 2656 2373 2560 conicto
end_ol grestore 
gsave 25.152169 15.000000 translate 0.035278 -0.035278 scale
start_ol
458 3712 moveto
895 3712 lineto
895 0 lineto
458 0 lineto
458 3712 lineto
end_ol grestore 
gsave 25.329497 15.000000 translate 0.035278 -0.035278 scale
start_ol
442 3712 moveto
881 3712 lineto
881 1529 lineto
2185 2688 lineto
2743 2688 lineto
1332 1430 lineto
2803 0 lineto
2233 0 lineto
881 1313 lineto
881 0 lineto
442 0 lineto
442 3712 lineto
end_ol grestore 
gsave 25.699145 15.000000 translate 0.035278 -0.035278 scale
start_ol
1931 3584 moveto
2145 3584 lineto
3076 2624 lineto
2791 2339 lineto
2240 2895 lineto
2240 0 lineto
1836 0 lineto
1836 2895 lineto
1280 2339 lineto
995 2624 lineto
1931 3584 lineto
end_ol grestore 
gsave 24.800000 25.000000 translate 0.035278 -0.035278 scale
start_ol
2373 2560 moveto
2373 2176 lineto
2188 2272 2001 2320 conicto
1815 2368 1625 2368 conicto
1199 2368 964 2099 conicto
729 1830 729 1344 conicto
729 858 964 589 conicto
1199 320 1625 320 conicto
1815 320 2001 368 conicto
2188 416 2373 512 conicto
2373 128 lineto
2190 32 1994 -16 conicto
1798 -64 1577 -64 conicto
976 -64 622 316 conicto
268 697 268 1344 conicto
268 2000 625 2376 conicto
983 2752 1606 2752 conicto
1808 2752 2000 2704 conicto
2192 2656 2373 2560 conicto
end_ol grestore 
gsave 25.152169 25.000000 translate 0.035278 -0.035278 scale
start_ol
458 3712 moveto
895 3712 lineto
895 0 lineto
458 0 lineto
458 3712 lineto
end_ol grestore 
gsave 25.329497 25.000000 translate 0.035278 -0.035278 scale
start_ol
442 3712 moveto
881 3712 lineto
881 1529 lineto
2185 2688 lineto
2743 2688 lineto
1332 1430 lineto
2803 0 lineto
2233 0 lineto
881 1313 lineto
881 0 lineto
442 0 lineto
442 3712 lineto
end_ol grestore 
gsave 25.699145 25.000000 translate 0.035278 -0.035278 scale
start_ol
1931 3584 moveto
2145 3584 lineto
3076 2624 lineto
2791 2339 lineto
2240 2895 lineto
2240 0 lineto
1836 0 lineto
1836 2895 lineto
1280 2339 lineto
995 2624 lineto
1931 3584 lineto
end_ol grestore 
gsave 40.362500 15.000000 translate 0.035278 -0.035278 scale
start_ol
2373 2560 moveto
2373 2176 lineto
2188 2272 2001 2320 conicto
1815 2368 1625 2368 conicto
1199 2368 964 2099 conicto
729 1830 729 1344 conicto
729 858 964 589 conicto
1199 320 1625 320 conicto
1815 320 2001 368 conicto
2188 416 2373 512 conicto
2373 128 lineto
2190 32 1994 -16 conicto
1798 -64 1577 -64 conicto
976 -64 622 316 conicto
268 697 268 1344 conicto
268 2000 625 2376 conicto
983 2752 1606 2752 conicto
1808 2752 2000 2704 conicto
2192 2656 2373 2560 conicto
end_ol grestore 
gsave 40.714669 15.000000 translate 0.035278 -0.035278 scale
start_ol
458 3712 moveto
895 3712 lineto
895 0 lineto
458 0 lineto
458 3712 lineto
end_ol grestore 
gsave 40.891997 15.000000 translate 0.035278 -0.035278 scale
start_ol
442 3712 moveto
881 3712 lineto
881 1529 lineto
2185 2688 lineto
2743 2688 lineto
1332 1430 lineto
2803 0 lineto
2233 0 lineto
881 1313 lineto
881 0 lineto
442 0 lineto
442 3712 lineto
end_ol grestore 
gsave 41.261645 15.000000 translate 0.035278 -0.035278 scale
start_ol
1931 3584 moveto
2145 3584 lineto
3076 2624 lineto
2791 2339 lineto
2240 2895 lineto
2240 0 lineto
1836 0 lineto
1836 2895 lineto
1280 2339 lineto
995 2624 lineto
1931 3584 lineto
end_ol grestore 
0.100000 slw
[] 0 sd
0 slj
1.000000 1.000000 1.000000 srgb
n 50.500000 12.500000 2.500000 1.500000 0 360 ellipse f
0.000000 0.000000 0.000000 srgb
n 50.500000 12.500000 2.500000 1.500000 0 360 ellipse cp s
gsave 48.993292 12.773842 translate 0.035278 -0.035278 scale
start_ol
3039 2351 moveto
3256 2277 3462 2034 conicto
3668 1791 3875 1366 conicto
4561 0 lineto
3835 0 lineto
3197 1282 lineto
2949 1784 2716 1948 conicto
2484 2112 2083 2112 conicto
1348 2112 lineto
1348 0 lineto
672 0 lineto
672 4992 lineto
2197 4992 lineto
3053 4992 3474 4635 conicto
3895 4279 3895 3560 conicto
3895 3090 3676 2780 conicto
3457 2471 3039 2351 conicto
1348 4416 moveto
1348 2688 lineto
2197 2688 lineto
2685 2688 2934 2908 conicto
3183 3128 3183 3555 conicto
3183 3982 2934 4199 conicto
2685 4416 2197 4416 conicto
1348 4416 lineto
end_ol grestore 
gsave 49.620206 12.773842 translate 0.035278 -0.035278 scale
start_ol
672 4992 moveto
3829 4992 lineto
3829 4416 lineto
1348 4416 lineto
1348 2944 lineto
3725 2944 lineto
3725 2368 lineto
1348 2368 lineto
1348 576 lineto
3889 576 lineto
3889 0 lineto
672 0 lineto
672 4992 lineto
end_ol grestore 
gsave 50.189672 12.773842 translate 0.035278 -0.035278 scale
start_ol
2341 4330 moveto
1424 1856 lineto
3260 1856 lineto
2341 4330 lineto
1959 4992 moveto
2725 4992 lineto
4628 0 lineto
3926 0 lineto
3471 1280 lineto
1220 1280 lineto
766 0 lineto
54 0 lineto
1959 4992 lineto
end_ol grestore 
gsave 50.806589 12.773842 translate 0.035278 -0.035278 scale
start_ol
1348 4416 moveto
1348 576 lineto
2163 576 lineto
3196 576 3676 1039 conicto
4156 1502 4156 2501 conicto
4156 3493 3676 3954 conicto
3196 4416 2163 4416 conicto
1348 4416 lineto
672 4992 moveto
2060 4992 lineto
3511 4992 4190 4388 conicto
4869 3785 4869 2501 conicto
4869 1210 4187 605 conicto
3505 0 2060 0 conicto
672 0 lineto
672 4992 lineto
end_ol grestore 
gsave 51.450982 12.773842 translate 0.035278 -0.035278 scale
start_ol
-13 4992 moveto
713 4992 lineto
2097 2939 lineto
3471 4992 lineto
4196 4992 lineto
2431 2377 lineto
2431 0 lineto
1752 0 lineto
1752 2377 lineto
-13 4992 lineto
end_ol grestore 
0.100000 slw
[] 0 sd
0 slj
1.000000 1.000000 1.000000 srgb
n 50.500000 17.500000 2.500000 1.500000 0 360 ellipse f
0.000000 0.000000 0.000000 srgb
n 50.500000 17.500000 2.500000 1.500000 0 360 ellipse cp s
gsave 49.245000 17.773842 translate 0.035278 -0.035278 scale
start_ol
3039 2351 moveto
3256 2277 3462 2034 conicto
3668 1791 3875 1366 conicto
4561 0 lineto
3835 0 lineto
3197 1282 lineto
2949 1784 2716 1948 conicto
2484 2112 2083 2112 conicto
1348 2112 lineto
1348 0 lineto
672 0 lineto
672 4992 lineto
2197 4992 lineto
3053 4992 3474 4635 conicto
3895 4279 3895 3560 conicto
3895 3090 3676 2780 conicto
3457 2471 3039 2351 conicto
1348 4416 moveto
1348 2688 lineto
2197 2688 lineto
2685 2688 2934 2908 conicto
3183 3128 3183 3555 conicto
3183 3982 2934 4199 conicto
2685 4416 2197 4416 conicto
1348 4416 lineto
end_ol grestore 
gsave 49.871914 17.773842 translate 0.035278 -0.035278 scale
start_ol
672 4992 moveto
3829 4992 lineto
3829 4416 lineto
1348 4416 lineto
1348 2944 lineto
3725 2944 lineto
3725 2368 lineto
1348 2368 lineto
1348 576 lineto
3889 576 lineto
3889 0 lineto
672 0 lineto
672 4992 lineto
end_ol grestore 
gsave 50.441380 17.773842 translate 0.035278 -0.035278 scale
start_ol
2341 4330 moveto
1424 1856 lineto
3260 1856 lineto
2341 4330 lineto
1959 4992 moveto
2725 4992 lineto
4628 0 lineto
3926 0 lineto
3471 1280 lineto
1220 1280 lineto
766 0 lineto
54 0 lineto
1959 4992 lineto
end_ol grestore 
gsave 51.058297 17.773842 translate 0.035278 -0.035278 scale
start_ol
1348 4416 moveto
1348 576 lineto
2163 576 lineto
3196 576 3676 1039 conicto
4156 1502 4156 2501 conicto
4156 3493 3676 3954 conicto
3196 4416 2163 4416 conicto
1348 4416 lineto
672 4992 moveto
2060 4992 lineto
3511 4992 4190 4388 conicto
4869 3785 4869 2501 conicto
4869 1210 4187 605 conicto
3505 0 2060 0 conicto
672 0 lineto
672 4992 lineto
end_ol grestore 
0.100000 slw
[] 0 sd
0 slj
1.000000 1.000000 1.000000 srgb
n 50.505447 22.503268 2.505447 1.503268 0 360 ellipse f
0.000000 0.000000 0.000000 srgb
n 50.505447 22.503268 2.505447 1.503268 0 360 ellipse cp s
gsave 49.405447 22.777110 translate 0.035278 -0.035278 scale
start_ol
672 4992 moveto
1348 4992 lineto
1348 0 lineto
672 0 lineto
672 4992 lineto
end_ol grestore 
gsave 49.672692 22.777110 translate 0.035278 -0.035278 scale
start_ol
672 4992 moveto
1582 4992 lineto
3795 816 lineto
3795 4992 lineto
4451 4992 lineto
4451 0 lineto
3541 0 lineto
1327 4176 lineto
1327 0 lineto
672 0 lineto
672 4992 lineto
end_ol grestore 
gsave 50.347057 22.777110 translate 0.035278 -0.035278 scale
start_ol
4410 4672 moveto
4410 3968 lineto
4069 4258 3683 4401 conicto
3297 4544 2862 4544 conicto
2006 4544 1551 4017 conicto
1097 3491 1097 2494 conicto
1097 1501 1551 974 conicto
2006 448 2862 448 conicto
3297 448 3683 607 conicto
4069 766 4410 1088 conicto
4410 384 lineto
4056 128 3659 0 conicto
3263 -128 2822 -128 conicto
1689 -128 1037 575 conicto
385 1278 385 2494 conicto
385 3714 1037 4417 conicto
1689 5120 2822 5120 conicto
3270 5120 3666 5008 conicto
4062 4896 4410 4672 conicto
end_ol grestore 
gsave 50.976468 22.777110 translate 0.035278 -0.035278 scale
start_ol
3039 2351 moveto
3256 2277 3462 2034 conicto
3668 1791 3875 1366 conicto
4561 0 lineto
3835 0 lineto
3197 1282 lineto
2949 1784 2716 1948 conicto
2484 2112 2083 2112 conicto
1348 2112 lineto
1348 0 lineto
672 0 lineto
672 4992 lineto
2197 4992 lineto
3053 4992 3474 4635 conicto
3895 4279 3895 3560 conicto
3895 3090 3676 2780 conicto
3457 2471 3039 2351 conicto
1348 4416 moveto
1348 2688 lineto
2197 2688 lineto
2685 2688 2934 2908 conicto
3183 3128 3183 3555 conicto
3183 3982 2934 4199 conicto
2685 4416 2197 4416 conicto
1348 4416 lineto
end_ol grestore 
0.100000 slw
[] 0 sd
0 slj
1.000000 1.000000 1.000000 srgb
n 50.500000 27.500000 2.500000 1.500000 0 360 ellipse f
0.000000 0.000000 0.000000 srgb
n 50.500000 27.500000 2.500000 1.500000 0 360 ellipse cp s
gsave 49.045000 27.773842 translate 0.035278 -0.035278 scale
start_ol
227 4992 moveto
910 4992 lineto
1959 772 lineto
3006 4992 lineto
3765 4992 lineto
4815 772 lineto
5862 4992 lineto
6547 4992 lineto
5293 0 lineto
4444 0 lineto
3391 4333 lineto
2327 0 lineto
1478 0 lineto
227 4992 lineto
end_ol grestore 
gsave 49.936662 27.773842 translate 0.035278 -0.035278 scale
start_ol
3039 2351 moveto
3256 2277 3462 2034 conicto
3668 1791 3875 1366 conicto
4561 0 lineto
3835 0 lineto
3197 1282 lineto
2949 1784 2716 1948 conicto
2484 2112 2083 2112 conicto
1348 2112 lineto
1348 0 lineto
672 0 lineto
672 4992 lineto
2197 4992 lineto
3053 4992 3474 4635 conicto
3895 4279 3895 3560 conicto
3895 3090 3676 2780 conicto
3457 2471 3039 2351 conicto
1348 4416 moveto
1348 2688 lineto
2197 2688 lineto
2685 2688 2934 2908 conicto
3183 3128 3183 3555 conicto
3183 3982 2934 4199 conicto
2685 4416 2197 4416 conicto
1348 4416 lineto
end_ol grestore 
gsave 50.563576 27.773842 translate 0.035278 -0.035278 scale
start_ol
672 4992 moveto
1348 4992 lineto
1348 0 lineto
672 0 lineto
672 4992 lineto
end_ol grestore 
gsave 50.830822 27.773842 translate 0.035278 -0.035278 scale
start_ol
-20 4992 moveto
4203 4992 lineto
4203 4416 lineto
2431 4416 lineto
2431 0 lineto
1752 0 lineto
1752 4416 lineto
-20 4416 lineto
-20 4992 lineto
end_ol grestore 
gsave 51.382800 27.773842 translate 0.035278 -0.035278 scale
start_ol
672 4992 moveto
3829 4992 lineto
3829 4416 lineto
1348 4416 lineto
1348 2944 lineto
3725 2944 lineto
3725 2368 lineto
1348 2368 lineto
1348 576 lineto
3889 576 lineto
3889 0 lineto
672 0 lineto
672 4992 lineto
end_ol grestore 
0.100000 slw
[] 0 sd
0 slc
n 45.125000 20.000000 10.875000 10.875000 318.960231 403.602819 ellipse s
[] 0 sd
0 slj
0 slc
n 53.077106 12.580961 m 53.602968 12.770616 l 53.335726 12.852513 l 53.240899 13.115444 l ef
n 53.077106 12.580961 m 53.602968 12.770616 l 53.335726 12.852513 l 53.240899 13.115444 l cp s
0.100000 slw
[] 0 sd
0 slc
n 50.500000 14.000000 m 50.500000 15.513197 l s
[] 0 sd
0 slj
0 slc
n 50.500000 15.888197 m 50.250000 15.388197 l 50.500000 15.513197 l 50.750000 15.388197 l ef
n 50.500000 15.888197 m 50.250000 15.388197 l 50.500000 15.513197 l 50.750000 15.388197 l cp s
gsave 45.790000 15.000000 translate 0.035278 -0.035278 scale
start_ol
458 2688 moveto
895 2688 lineto
895 0 lineto
458 0 lineto
458 2688 lineto
458 3712 moveto
895 3712 lineto
895 3136 lineto
458 3136 lineto
458 3712 lineto
end_ol grestore 
gsave 45.967329 15.000000 translate 0.035278 -0.035278 scale
start_ol
2670 1646 moveto
2670 0 lineto
2233 0 lineto
2233 1632 lineto
2233 2001 2085 2184 conicto
1938 2368 1644 2368 conicto
1290 2368 1085 2146 conicto
881 1925 881 1542 conicto
881 0 lineto
442 0 lineto
442 2688 lineto
881 2688 lineto
881 2304 lineto
1038 2529 1250 2640 conicto
1463 2752 1741 2752 conicto
2200 2752 2435 2471 conicto
2670 2191 2670 1646 conicto
end_ol grestore 
gsave 46.371943 15.000000 translate 0.035278 -0.035278 scale
start_ol
2373 2560 moveto
2373 2176 lineto
2188 2272 2001 2320 conicto
1815 2368 1625 2368 conicto
1199 2368 964 2099 conicto
729 1830 729 1344 conicto
729 858 964 589 conicto
1199 320 1625 320 conicto
1815 320 2001 368 conicto
2188 416 2373 512 conicto
2373 128 lineto
2190 32 1994 -16 conicto
1798 -64 1577 -64 conicto
976 -64 622 316 conicto
268 697 268 1344 conicto
268 2000 625 2376 conicto
983 2752 1606 2752 conicto
1808 2752 2000 2704 conicto
2192 2656 2373 2560 conicto
end_ol grestore 
gsave 46.724111 15.000000 translate 0.035278 -0.035278 scale
start_ol
2000 2304 moveto
1926 2337 1839 2352 conicto
1753 2368 1648 2368 conicto
1278 2368 1079 2127 conicto
881 1887 881 1437 conicto
881 0 lineto
442 0 lineto
442 2688 lineto
881 2688 lineto
881 2304 lineto
1019 2531 1240 2641 conicto
1461 2752 1777 2752 conicto
1822 2752 1876 2752 conicto
1931 2752 1998 2752 conicto
2000 2304 lineto
end_ol grestore 
gsave 46.986363 15.000000 translate 0.035278 -0.035278 scale
start_ol
2480 -832 moveto
2480 -1152 lineto
-48 -1152 lineto
-48 -832 lineto
2480 -832 lineto
end_ol grestore 
gsave 47.306063 15.000000 translate 0.035278 -0.035278 scale
start_ol
1667 1344 moveto
1137 1344 933 1225 conicto
729 1106 729 818 conicto
729 589 882 454 conicto
1035 320 1299 320 conicto
1663 320 1882 572 conicto
2102 825 2102 1244 conicto
2102 1344 lineto
1667 1344 lineto
2539 1513 moveto
2539 0 lineto
2102 0 lineto
2102 384 lineto
1952 154 1729 45 conicto
1506 -64 1183 -64 conicto
774 -64 533 162 conicto
292 389 292 769 conicto
292 1213 592 1438 conicto
893 1664 1489 1664 conicto
2102 1664 lineto
2102 1712 lineto
2102 2025 1903 2196 conicto
1705 2368 1347 2368 conicto
1119 2368 903 2320 conicto
687 2272 487 2176 conicto
487 2560 lineto
727 2656 952 2704 conicto
1178 2752 1392 2752 conicto
1969 2752 2254 2444 conicto
2539 2137 2539 1513 conicto
end_ol grestore 
gsave 47.698192 15.000000 translate 0.035278 -0.035278 scale
start_ol
2373 2560 moveto
2373 2176 lineto
2188 2272 2001 2320 conicto
1815 2368 1625 2368 conicto
1199 2368 964 2099 conicto
729 1830 729 1344 conicto
729 858 964 589 conicto
1199 320 1625 320 conicto
1815 320 2001 368 conicto
2188 416 2373 512 conicto
2373 128 lineto
2190 32 1994 -16 conicto
1798 -64 1577 -64 conicto
976 -64 622 316 conicto
268 697 268 1344 conicto
268 2000 625 2376 conicto
983 2752 1606 2752 conicto
1808 2752 2000 2704 conicto
2192 2656 2373 2560 conicto
end_ol grestore 
gsave 48.050360 15.000000 translate 0.035278 -0.035278 scale
start_ol
891 3456 moveto
891 2688 lineto
1791 2688 lineto
1791 2368 lineto
891 2368 lineto
891 902 lineto
891 572 980 478 conicto
1069 384 1342 384 conicto
1791 384 lineto
1791 0 lineto
1342 0 lineto
836 0 643 194 conicto
451 389 451 902 conicto
451 2368 lineto
131 2368 lineto
131 2688 lineto
451 2688 lineto
451 3456 lineto
891 3456 lineto
end_ol grestore 
gsave 48.300127 15.000000 translate 0.035278 -0.035278 scale
start_ol
458 2688 moveto
895 2688 lineto
895 0 lineto
458 0 lineto
458 2688 lineto
458 3712 moveto
895 3712 lineto
895 3136 lineto
458 3136 lineto
458 3712 lineto
end_ol grestore 
gsave 48.477456 15.000000 translate 0.035278 -0.035278 scale
start_ol
145 2688 moveto
608 2688 lineto
1439 432 lineto
2271 2688 lineto
2734 2688 lineto
1736 0 lineto
1142 0 lineto
145 2688 lineto
end_ol grestore 
gsave 48.857100 15.000000 translate 0.035278 -0.035278 scale
start_ol
2734 1480 moveto
2734 1280 lineto
724 1280 lineto
753 811 996 565 conicto
1240 320 1674 320 conicto
1926 320 2162 384 conicto
2399 448 2632 576 conicto
2632 192 lineto
2397 67 2150 1 conicto
1903 -64 1648 -64 conicto
1012 -64 640 309 conicto
268 683 268 1320 conicto
268 1979 621 2365 conicto
974 2752 1572 2752 conicto
2109 2752 2421 2410 conicto
2734 2068 2734 1480 conicto
2297 1600 moveto
2292 1950 2096 2159 conicto
1900 2368 1577 2368 conicto
1212 2368 992 2166 conicto
772 1964 739 1597 conicto
2297 1600 lineto
end_ol grestore 
gsave 49.251726 15.000000 translate 0.035278 -0.035278 scale
start_ol
515 2176 moveto
3560 2176 lineto
3560 1792 lineto
515 1792 lineto
515 2176 lineto
515 1216 moveto
3560 1216 lineto
3560 832 lineto
515 832 lineto
515 1216 lineto
end_ol grestore 
gsave 49.788722 15.000000 translate 0.035278 -0.035278 scale
start_ol
603 384 moveto
1387 384 lineto
1387 3136 lineto
534 2944 lineto
534 3328 lineto
1382 3520 lineto
1862 3520 lineto
1862 384 lineto
2646 384 lineto
2646 0 lineto
603 0 lineto
603 384 lineto
end_ol grestore 
0.100000 slw
[] 0 sd
0 slc
n 50.500000 19.000000 m 50.504086 20.513198 l s
[] 0 sd
0 slj
0 slc
n 50.505098 20.888197 m 50.253749 20.388874 l 50.504086 20.513198 l 50.753747 20.387524 l ef
n 50.505098 20.888197 m 50.253749 20.388874 l 50.504086 20.513198 l 50.753747 20.387524 l cp s
gsave 45.890000 20.000000 translate 0.035278 -0.035278 scale
start_ol
2000 2304 moveto
1926 2337 1839 2352 conicto
1753 2368 1648 2368 conicto
1278 2368 1079 2127 conicto
881 1887 881 1437 conicto
881 0 lineto
442 0 lineto
442 2688 lineto
881 2688 lineto
881 2304 lineto
1019 2531 1240 2641 conicto
1461 2752 1777 2752 conicto
1822 2752 1876 2752 conicto
1931 2752 1998 2752 conicto
2000 2304 lineto
end_ol grestore 
gsave 46.139767 20.000000 translate 0.035278 -0.035278 scale
start_ol
2734 1480 moveto
2734 1280 lineto
724 1280 lineto
753 811 996 565 conicto
1240 320 1674 320 conicto
1926 320 2162 384 conicto
2399 448 2632 576 conicto
2632 192 lineto
2397 67 2150 1 conicto
1903 -64 1648 -64 conicto
1012 -64 640 309 conicto
268 683 268 1320 conicto
268 1979 621 2365 conicto
974 2752 1572 2752 conicto
2109 2752 2421 2410 conicto
2734 2068 2734 1480 conicto
2297 1600 moveto
2292 1950 2096 2159 conicto
1900 2368 1577 2368 conicto
1212 2368 992 2166 conicto
772 1964 739 1597 conicto
2297 1600 lineto
end_ol grestore 
gsave 46.534393 20.000000 translate 0.035278 -0.035278 scale
start_ol
1667 1344 moveto
1137 1344 933 1225 conicto
729 1106 729 818 conicto
729 589 882 454 conicto
1035 320 1299 320 conicto
1663 320 1882 572 conicto
2102 825 2102 1244 conicto
2102 1344 lineto
1667 1344 lineto
2539 1513 moveto
2539 0 lineto
2102 0 lineto
2102 384 lineto
1952 154 1729 45 conicto
1506 -64 1183 -64 conicto
774 -64 533 162 conicto
292 389 292 769 conicto
292 1213 592 1438 conicto
893 1664 1489 1664 conicto
2102 1664 lineto
2102 1712 lineto
2102 2025 1903 2196 conicto
1705 2368 1347 2368 conicto
1119 2368 903 2320 conicto
687 2272 487 2176 conicto
487 2560 lineto
727 2656 952 2704 conicto
1178 2752 1392 2752 conicto
1969 2752 2254 2444 conicto
2539 2137 2539 1513 conicto
end_ol grestore 
gsave 46.926522 20.000000 translate 0.035278 -0.035278 scale
start_ol
2209 2304 moveto
2209 3712 lineto
2646 3712 lineto
2646 0 lineto
2209 0 lineto
2209 384 lineto
2071 157 1861 46 conicto
1651 -64 1356 -64 conicto
874 -64 571 324 conicto
268 712 268 1344 conicto
268 1976 571 2364 conicto
874 2752 1356 2752 conicto
1651 2752 1861 2641 conicto
2071 2531 2209 2304 conicto
720 1344 moveto
720 865 918 592 conicto
1117 320 1463 320 conicto
1810 320 2009 592 conicto
2209 865 2209 1344 conicto
2209 1823 2009 2095 conicto
1810 2368 1463 2368 conicto
1117 2368 918 2095 conicto
720 1823 720 1344 conicto
end_ol grestore 
gsave 47.333641 20.000000 translate 0.035278 -0.035278 scale
start_ol
2480 -832 moveto
2480 -1152 lineto
-48 -1152 lineto
-48 -832 lineto
2480 -832 lineto
end_ol grestore 
gsave 47.653340 20.000000 translate 0.035278 -0.035278 scale
start_ol
2209 2304 moveto
2209 3712 lineto
2646 3712 lineto
2646 0 lineto
2209 0 lineto
2209 384 lineto
2071 157 1861 46 conicto
1651 -64 1356 -64 conicto
874 -64 571 324 conicto
268 712 268 1344 conicto
268 1976 571 2364 conicto
874 2752 1356 2752 conicto
1651 2752 1861 2641 conicto
2071 2531 2209 2304 conicto
720 1344 moveto
720 865 918 592 conicto
1117 320 1463 320 conicto
1810 320 2009 592 conicto
2209 865 2209 1344 conicto
2209 1823 2009 2095 conicto
1810 2368 1463 2368 conicto
1117 2368 918 2095 conicto
720 1823 720 1344 conicto
end_ol grestore 
gsave 48.060460 20.000000 translate 0.035278 -0.035278 scale
start_ol
1489 2368 moveto
1138 2368 933 2094 conicto
729 1820 729 1344 conicto
729 868 932 594 conicto
1135 320 1489 320 conicto
1838 320 2042 595 conicto
2247 870 2247 1344 conicto
2247 1816 2042 2092 conicto
1838 2368 1489 2368 conicto
1489 2752 moveto
2059 2752 2384 2378 conicto
2710 2005 2710 1344 conicto
2710 685 2384 310 conicto
2059 -64 1489 -64 conicto
917 -64 592 310 conicto
268 685 268 1344 conicto
268 2005 592 2378 conicto
917 2752 1489 2752 conicto
end_ol grestore 
gsave 48.452589 20.000000 translate 0.035278 -0.035278 scale
start_ol
2670 1646 moveto
2670 0 lineto
2233 0 lineto
2233 1632 lineto
2233 2001 2085 2184 conicto
1938 2368 1644 2368 conicto
1290 2368 1085 2146 conicto
881 1925 881 1542 conicto
881 0 lineto
442 0 lineto
442 2688 lineto
881 2688 lineto
881 2304 lineto
1038 2529 1250 2640 conicto
1463 2752 1741 2752 conicto
2200 2752 2435 2471 conicto
2670 2191 2670 1646 conicto
end_ol grestore 
gsave 48.857203 20.000000 translate 0.035278 -0.035278 scale
start_ol
2734 1480 moveto
2734 1280 lineto
724 1280 lineto
753 811 996 565 conicto
1240 320 1674 320 conicto
1926 320 2162 384 conicto
2399 448 2632 576 conicto
2632 192 lineto
2397 67 2150 1 conicto
1903 -64 1648 -64 conicto
1012 -64 640 309 conicto
268 683 268 1320 conicto
268 1979 621 2365 conicto
974 2752 1572 2752 conicto
2109 2752 2421 2410 conicto
2734 2068 2734 1480 conicto
2297 1600 moveto
2292 1950 2096 2159 conicto
1900 2368 1577 2368 conicto
1212 2368 992 2166 conicto
772 1964 739 1597 conicto
2297 1600 lineto
end_ol grestore 
gsave 49.251829 20.000000 translate 0.035278 -0.035278 scale
start_ol
515 2176 moveto
3560 2176 lineto
3560 1792 lineto
515 1792 lineto
515 2176 lineto
515 1216 moveto
3560 1216 lineto
3560 832 lineto
515 832 lineto
515 1216 lineto
end_ol grestore 
gsave 49.788826 20.000000 translate 0.035278 -0.035278 scale
start_ol
603 384 moveto
1387 384 lineto
1387 3136 lineto
534 2944 lineto
534 3328 lineto
1382 3520 lineto
1862 3520 lineto
1862 384 lineto
2646 384 lineto
2646 0 lineto
603 0 lineto
603 384 lineto
end_ol grestore 
0.100000 slw
[] 0 sd
0 slc
n 50.505400 24.006500 m 50.501319 25.513198 l s
[] 0 sd
0 slj
0 slc
n 50.500303 25.888197 m 50.251658 25.387522 l 50.501319 25.513198 l 50.751656 25.388876 l ef
n 50.500303 25.888197 m 50.251658 25.387522 l 50.501319 25.513198 l 50.751656 25.388876 l cp s
gsave 45.890000 25.000000 translate 0.035278 -0.035278 scale
start_ol
2000 2304 moveto
1926 2337 1839 2352 conicto
1753 2368 1648 2368 conicto
1278 2368 1079 2127 conicto
881 1887 881 1437 conicto
881 0 lineto
442 0 lineto
442 2688 lineto
881 2688 lineto
881 2304 lineto
1019 2531 1240 2641 conicto
1461 2752 1777 2752 conicto
1822 2752 1876 2752 conicto
1931 2752 1998 2752 conicto
2000 2304 lineto
end_ol grestore 
gsave 46.139767 25.000000 translate 0.035278 -0.035278 scale
start_ol
2734 1480 moveto
2734 1280 lineto
724 1280 lineto
753 811 996 565 conicto
1240 320 1674 320 conicto
1926 320 2162 384 conicto
2399 448 2632 576 conicto
2632 192 lineto
2397 67 2150 1 conicto
1903 -64 1648 -64 conicto
1012 -64 640 309 conicto
268 683 268 1320 conicto
268 1979 621 2365 conicto
974 2752 1572 2752 conicto
2109 2752 2421 2410 conicto
2734 2068 2734 1480 conicto
2297 1600 moveto
2292 1950 2096 2159 conicto
1900 2368 1577 2368 conicto
1212 2368 992 2166 conicto
772 1964 739 1597 conicto
2297 1600 lineto
end_ol grestore 
gsave 46.534393 25.000000 translate 0.035278 -0.035278 scale
start_ol
1667 1344 moveto
1137 1344 933 1225 conicto
729 1106 729 818 conicto
729 589 882 454 conicto
1035 320 1299 320 conicto
1663 320 1882 572 conicto
2102 825 2102 1244 conicto
2102 1344 lineto
1667 1344 lineto
2539 1513 moveto
2539 0 lineto
2102 0 lineto
2102 384 lineto
1952 154 1729 45 conicto
1506 -64 1183 -64 conicto
774 -64 533 162 conicto
292 389 292 769 conicto
292 1213 592 1438 conicto
893 1664 1489 1664 conicto
2102 1664 lineto
2102 1712 lineto
2102 2025 1903 2196 conicto
1705 2368 1347 2368 conicto
1119 2368 903 2320 conicto
687 2272 487 2176 conicto
487 2560 lineto
727 2656 952 2704 conicto
1178 2752 1392 2752 conicto
1969 2752 2254 2444 conicto
2539 2137 2539 1513 conicto
end_ol grestore 
gsave 46.926522 25.000000 translate 0.035278 -0.035278 scale
start_ol
2209 2304 moveto
2209 3712 lineto
2646 3712 lineto
2646 0 lineto
2209 0 lineto
2209 384 lineto
2071 157 1861 46 conicto
1651 -64 1356 -64 conicto
874 -64 571 324 conicto
268 712 268 1344 conicto
268 1976 571 2364 conicto
874 2752 1356 2752 conicto
1651 2752 1861 2641 conicto
2071 2531 2209 2304 conicto
720 1344 moveto
720 865 918 592 conicto
1117 320 1463 320 conicto
1810 320 2009 592 conicto
2209 865 2209 1344 conicto
2209 1823 2009 2095 conicto
1810 2368 1463 2368 conicto
1117 2368 918 2095 conicto
720 1823 720 1344 conicto
end_ol grestore 
gsave 47.333641 25.000000 translate 0.035278 -0.035278 scale
start_ol
2480 -832 moveto
2480 -1152 lineto
-48 -1152 lineto
-48 -832 lineto
2480 -832 lineto
end_ol grestore 
gsave 47.653340 25.000000 translate 0.035278 -0.035278 scale
start_ol
2209 2304 moveto
2209 3712 lineto
2646 3712 lineto
2646 0 lineto
2209 0 lineto
2209 384 lineto
2071 157 1861 46 conicto
1651 -64 1356 -64 conicto
874 -64 571 324 conicto
268 712 268 1344 conicto
268 1976 571 2364 conicto
874 2752 1356 2752 conicto
1651 2752 1861 2641 conicto
2071 2531 2209 2304 conicto
720 1344 moveto
720 865 918 592 conicto
1117 320 1463 320 conicto
1810 320 2009 592 conicto
2209 865 2209 1344 conicto
2209 1823 2009 2095 conicto
1810 2368 1463 2368 conicto
1117 2368 918 2095 conicto
720 1823 720 1344 conicto
end_ol grestore 
gsave 48.060460 25.000000 translate 0.035278 -0.035278 scale
start_ol
1489 2368 moveto
1138 2368 933 2094 conicto
729 1820 729 1344 conicto
729 868 932 594 conicto
1135 320 1489 320 conicto
1838 320 2042 595 conicto
2247 870 2247 1344 conicto
2247 1816 2042 2092 conicto
1838 2368 1489 2368 conicto
1489 2752 moveto
2059 2752 2384 2378 conicto
2710 2005 2710 1344 conicto
2710 685 2384 310 conicto
2059 -64 1489 -64 conicto
917 -64 592 310 conicto
268 685 268 1344 conicto
268 2005 592 2378 conicto
917 2752 1489 2752 conicto
end_ol grestore 
gsave 48.452589 25.000000 translate 0.035278 -0.035278 scale
start_ol
2670 1646 moveto
2670 0 lineto
2233 0 lineto
2233 1632 lineto
2233 2001 2085 2184 conicto
1938 2368 1644 2368 conicto
1290 2368 1085 2146 conicto
881 1925 881 1542 conicto
881 0 lineto
442 0 lineto
442 2688 lineto
881 2688 lineto
881 2304 lineto
1038 2529 1250 2640 conicto
1463 2752 1741 2752 conicto
2200 2752 2435 2471 conicto
2670 2191 2670 1646 conicto
end_ol grestore 
gsave 48.857203 25.000000 translate 0.035278 -0.035278 scale
start_ol
2734 1480 moveto
2734 1280 lineto
724 1280 lineto
753 811 996 565 conicto
1240 320 1674 320 conicto
1926 320 2162 384 conicto
2399 448 2632 576 conicto
2632 192 lineto
2397 67 2150 1 conicto
1903 -64 1648 -64 conicto
1012 -64 640 309 conicto
268 683 268 1320 conicto
268 1979 621 2365 conicto
974 2752 1572 2752 conicto
2109 2752 2421 2410 conicto
2734 2068 2734 1480 conicto
2297 1600 moveto
2292 1950 2096 2159 conicto
1900 2368 1577 2368 conicto
1212 2368 992 2166 conicto
772 1964 739 1597 conicto
2297 1600 lineto
end_ol grestore 
gsave 49.251829 25.000000 translate 0.035278 -0.035278 scale
start_ol
515 2176 moveto
3560 2176 lineto
3560 1792 lineto
515 1792 lineto
515 2176 lineto
515 1216 moveto
3560 1216 lineto
3560 832 lineto
515 832 lineto
515 1216 lineto
end_ol grestore 
gsave 49.788826 25.000000 translate 0.035278 -0.035278 scale
start_ol
1546 3200 moveto
1176 3200 989 2840 conicto
803 2481 803 1759 conicto
803 1039 989 679 conicto
1176 320 1546 320 conicto
1919 320 2105 679 conicto
2292 1039 2292 1759 conicto
2292 2481 2105 2840 conicto
1919 3200 1546 3200 conicto
1547 3584 moveto
2143 3584 2457 3116 conicto
2772 2649 2772 1759 conicto
2772 871 2457 403 conicto
2143 -64 1547 -64 conicto
950 -64 635 403 conicto
321 871 321 1759 conicto
321 2649 635 3116 conicto
950 3584 1547 3584 conicto
end_ol grestore 
gsave 51.390000 20.000000 translate 0.035278 -0.035278 scale
start_ol
458 2688 moveto
895 2688 lineto
895 0 lineto
458 0 lineto
458 2688 lineto
458 3712 moveto
895 3712 lineto
895 3136 lineto
458 3136 lineto
458 3712 lineto
end_ol grestore 
gsave 51.567329 20.000000 translate 0.035278 -0.035278 scale
start_ol
2670 1646 moveto
2670 0 lineto
2233 0 lineto
2233 1632 lineto
2233 2001 2085 2184 conicto
1938 2368 1644 2368 conicto
1290 2368 1085 2146 conicto
881 1925 881 1542 conicto
881 0 lineto
442 0 lineto
442 2688 lineto
881 2688 lineto
881 2304 lineto
1038 2529 1250 2640 conicto
1463 2752 1741 2752 conicto
2200 2752 2435 2471 conicto
2670 2191 2670 1646 conicto
end_ol grestore 
gsave 51.971943 20.000000 translate 0.035278 -0.035278 scale
start_ol
2373 2560 moveto
2373 2176 lineto
2188 2272 2001 2320 conicto
1815 2368 1625 2368 conicto
1199 2368 964 2099 conicto
729 1830 729 1344 conicto
729 858 964 589 conicto
1199 320 1625 320 conicto
1815 320 2001 368 conicto
2188 416 2373 512 conicto
2373 128 lineto
2190 32 1994 -16 conicto
1798 -64 1577 -64 conicto
976 -64 622 316 conicto
268 697 268 1344 conicto
268 2000 625 2376 conicto
983 2752 1606 2752 conicto
1808 2752 2000 2704 conicto
2192 2656 2373 2560 conicto
end_ol grestore 
gsave 52.324111 20.000000 translate 0.035278 -0.035278 scale
start_ol
2000 2304 moveto
1926 2337 1839 2352 conicto
1753 2368 1648 2368 conicto
1278 2368 1079 2127 conicto
881 1887 881 1437 conicto
881 0 lineto
442 0 lineto
442 2688 lineto
881 2688 lineto
881 2304 lineto
1019 2531 1240 2641 conicto
1461 2752 1777 2752 conicto
1822 2752 1876 2752 conicto
1931 2752 1998 2752 conicto
2000 2304 lineto
end_ol grestore 
gsave 52.586363 20.000000 translate 0.035278 -0.035278 scale
start_ol
2480 -832 moveto
2480 -1152 lineto
-48 -1152 lineto
-48 -832 lineto
2480 -832 lineto
end_ol grestore 
gsave 52.906063 20.000000 translate 0.035278 -0.035278 scale
start_ol
1667 1344 moveto
1137 1344 933 1225 conicto
729 1106 729 818 conicto
729 589 882 454 conicto
1035 320 1299 320 conicto
1663 320 1882 572 conicto
2102 825 2102 1244 conicto
2102 1344 lineto
1667 1344 lineto
2539 1513 moveto
2539 0 lineto
2102 0 lineto
2102 384 lineto
1952 154 1729 45 conicto
1506 -64 1183 -64 conicto
774 -64 533 162 conicto
292 389 292 769 conicto
292 1213 592 1438 conicto
893 1664 1489 1664 conicto
2102 1664 lineto
2102 1712 lineto
2102 2025 1903 2196 conicto
1705 2368 1347 2368 conicto
1119 2368 903 2320 conicto
687 2272 487 2176 conicto
487 2560 lineto
727 2656 952 2704 conicto
1178 2752 1392 2752 conicto
1969 2752 2254 2444 conicto
2539 2137 2539 1513 conicto
end_ol grestore 
gsave 53.298192 20.000000 translate 0.035278 -0.035278 scale
start_ol
2373 2560 moveto
2373 2176 lineto
2188 2272 2001 2320 conicto
1815 2368 1625 2368 conicto
1199 2368 964 2099 conicto
729 1830 729 1344 conicto
729 858 964 589 conicto
1199 320 1625 320 conicto
1815 320 2001 368 conicto
2188 416 2373 512 conicto
2373 128 lineto
2190 32 1994 -16 conicto
1798 -64 1577 -64 conicto
976 -64 622 316 conicto
268 697 268 1344 conicto
268 2000 625 2376 conicto
983 2752 1606 2752 conicto
1808 2752 2000 2704 conicto
2192 2656 2373 2560 conicto
end_ol grestore 
gsave 53.650360 20.000000 translate 0.035278 -0.035278 scale
start_ol
891 3456 moveto
891 2688 lineto
1791 2688 lineto
1791 2368 lineto
891 2368 lineto
891 902 lineto
891 572 980 478 conicto
1069 384 1342 384 conicto
1791 384 lineto
1791 0 lineto
1342 0 lineto
836 0 643 194 conicto
451 389 451 902 conicto
451 2368 lineto
131 2368 lineto
131 2688 lineto
451 2688 lineto
451 3456 lineto
891 3456 lineto
end_ol grestore 
gsave 53.900127 20.000000 translate 0.035278 -0.035278 scale
start_ol
458 2688 moveto
895 2688 lineto
895 0 lineto
458 0 lineto
458 2688 lineto
458 3712 moveto
895 3712 lineto
895 3136 lineto
458 3136 lineto
458 3712 lineto
end_ol grestore 
gsave 54.077456 20.000000 translate 0.035278 -0.035278 scale
start_ol
145 2688 moveto
608 2688 lineto
1439 432 lineto
2271 2688 lineto
2734 2688 lineto
1736 0 lineto
1142 0 lineto
145 2688 lineto
end_ol grestore 
gsave 54.457100 20.000000 translate 0.035278 -0.035278 scale
start_ol
2734 1480 moveto
2734 1280 lineto
724 1280 lineto
753 811 996 565 conicto
1240 320 1674 320 conicto
1926 320 2162 384 conicto
2399 448 2632 576 conicto
2632 192 lineto
2397 67 2150 1 conicto
1903 -64 1648 -64 conicto
1012 -64 640 309 conicto
268 683 268 1320 conicto
268 1979 621 2365 conicto
974 2752 1572 2752 conicto
2109 2752 2421 2410 conicto
2734 2068 2734 1480 conicto
2297 1600 moveto
2292 1950 2096 2159 conicto
1900 2368 1577 2368 conicto
1212 2368 992 2166 conicto
772 1964 739 1597 conicto
2297 1600 lineto
end_ol grestore 
gsave 54.851726 20.000000 translate 0.035278 -0.035278 scale
start_ol
515 2176 moveto
3560 2176 lineto
3560 1792 lineto
515 1792 lineto
515 2176 lineto
515 1216 moveto
3560 1216 lineto
3560 832 lineto
515 832 lineto
515 1216 lineto
end_ol grestore 
gsave 55.388722 20.000000 translate 0.035278 -0.035278 scale
start_ol
1546 3200 moveto
1176 3200 989 2840 conicto
803 2481 803 1759 conicto
803 1039 989 679 conicto
1176 320 1546 320 conicto
1919 320 2105 679 conicto
2292 1039 2292 1759 conicto
2292 2481 2105 2840 conicto
1919 3200 1546 3200 conicto
1547 3584 moveto
2143 3584 2457 3116 conicto
2772 2649 2772 1759 conicto
2772 871 2457 403 conicto
2143 -64 1547 -64 conicto
950 -64 635 403 conicto
321 871 321 1759 conicto
321 2649 635 3116 conicto
950 3584 1547 3584 conicto
end_ol grestore 
0.100000 slw
[] 0 sd
0 slj
0 slc
0.600000 0.600000 0.600000 srgb
n 44.000000 10.000000 m 57.000000 10.000000 l 57.000000 31.000000 l 44.000000 31.000000 l cp s
0.100000 slw
[] 0 sd
0 slj
0 slc
n 31.000000 10.000000 m 44.000000 10.000000 l 44.000000 31.000000 l 31.000000 31.000000 l cp s
0.100000 slw
[] 0 sd
0 slj
0 slc
n 18.000000 0.000000 m 57.000000 0.000000 l 57.000000 10.000000 l 18.000000 10.000000 l cp s
gsave 53.750000 30.500000 translate 0.035278 -0.035278 scale
start_ol
835 6208 moveto
1675 6208 lineto
1675 0 lineto
835 0 lineto
835 6208 lineto
end_ol grestore 
gsave 54.082184 30.500000 translate 0.035278 -0.035278 scale
start_ol
835 6208 moveto
1966 6208 lineto
4717 1015 lineto
4717 6208 lineto
5532 6208 lineto
5532 0 lineto
4401 0 lineto
1650 5193 lineto
1650 0 lineto
835 0 lineto
835 6208 lineto
end_ol grestore 
gsave 54.926395 30.500000 translate 0.035278 -0.035278 scale
start_ol
5482 5760 moveto
5482 4864 lineto
5058 5250 4578 5441 conicto
4098 5632 3558 5632 conicto
2494 5632 1928 4982 conicto
1363 4332 1363 3102 conicto
1363 1876 1928 1226 conicto
2494 576 3558 576 conicto
4098 576 4578 767 conicto
5058 958 5482 1344 conicto
5482 448 lineto
5041 160 4548 16 conicto
4056 -128 3508 -128 conicto
2099 -128 1288 738 conicto
478 1604 478 3102 conicto
478 4604 1288 5470 conicto
2099 6336 3508 6336 conicto
4065 6336 4557 6192 conicto
5050 6048 5482 5760 conicto
end_ol grestore 
gsave 55.713159 30.500000 translate 0.035278 -0.035278 scale
start_ol
3778 2917 moveto
4048 2825 4303 2524 conicto
4559 2223 4817 1697 conicto
5669 0 lineto
4767 0 lineto
3973 1593 lineto
3665 2217 3376 2420 conicto
3088 2624 2589 2624 conicto
1675 2624 lineto
1675 0 lineto
835 0 lineto
835 6208 lineto
2731 6208 lineto
3795 6208 4318 5764 conicto
4842 5320 4842 4423 conicto
4842 3838 4570 3452 conicto
4298 3066 3778 2917 conicto
1675 5504 moveto
1675 3328 lineto
2731 3328 lineto
3338 3328 3647 3605 conicto
3957 3882 3957 4420 conicto
3957 4958 3647 5231 conicto
3338 5504 2731 5504 conicto
1675 5504 lineto
end_ol grestore 
0.100000 slw
[] 0 sd
0 slc
0.000000 0.000000 0.000000 srgb
n 35.717743 6.603302 m 27.413912 11.743769 l s
[] 0 sd
0 slj
0 slc
n 27.095063 11.941152 m 27.388606 11.465408 l 27.413912 11.743769 l 27.651784 11.890541 l ef
n 27.095063 11.941152 m 27.388606 11.465408 l 27.413912 11.743769 l 27.651784 11.890541 l cp s
0.100000 slw
[] 0 sd
0 slc
n 37.500000 7.050232 m 37.500000 10.513197 l s
[] 0 sd
0 slj
0 slc
n 37.500000 10.888197 m 37.250000 10.388197 l 37.500000 10.513197 l 37.750000 10.388197 l ef
n 37.500000 10.888197 m 37.250000 10.388197 l 37.500000 10.513197 l 37.750000 10.388197 l cp s
0.100000 slw
[] 0 sd
0 slc
n 39.419908 6.515198 m 48.301856 11.211745 l s
[] 0 sd
0 slj
0 slc
n 48.633363 11.387038 m 48.074491 11.374319 l 48.301856 11.211745 l 48.308215 10.932309 l ef
n 48.633363 11.387038 m 48.074491 11.374319 l 48.301856 11.211745 l 48.308215 10.932309 l cp s
gsave 32.840000 9.349063 translate 0.035278 -0.035278 scale
start_ol
2529 2204 moveto
2693 2485 2921 2618 conicto
3149 2752 3458 2752 conicto
3874 2752 4099 2464 conicto
4325 2177 4325 1646 conicto
4325 0 lineto
3886 0 lineto
3886 1632 lineto
3886 2006 3750 2187 conicto
3615 2368 3337 2368 conicto
2997 2368 2800 2146 conicto
2603 1925 2603 1542 conicto
2603 0 lineto
2164 0 lineto
2164 1632 lineto
2164 2008 2028 2188 conicto
1893 2368 1610 2368 conicto
1275 2368 1078 2145 conicto
881 1922 881 1542 conicto
881 0 lineto
442 0 lineto
442 2688 lineto
881 2688 lineto
881 2304 lineto
1031 2534 1240 2643 conicto
1449 2752 1736 2752 conicto
2026 2752 2229 2611 conicto
2432 2471 2529 2204 conicto
end_ol grestore 
gsave 33.461911 9.349063 translate 0.035278 -0.035278 scale
start_ol
1489 2368 moveto
1138 2368 933 2094 conicto
729 1820 729 1344 conicto
729 868 932 594 conicto
1135 320 1489 320 conicto
1838 320 2042 595 conicto
2247 870 2247 1344 conicto
2247 1816 2042 2092 conicto
1838 2368 1489 2368 conicto
1489 2752 moveto
2059 2752 2384 2378 conicto
2710 2005 2710 1344 conicto
2710 685 2384 310 conicto
2059 -64 1489 -64 conicto
917 -64 592 310 conicto
268 685 268 1344 conicto
268 2005 592 2378 conicto
917 2752 1489 2752 conicto
end_ol grestore 
gsave 33.854040 9.349063 translate 0.035278 -0.035278 scale
start_ol
2209 2304 moveto
2209 3712 lineto
2646 3712 lineto
2646 0 lineto
2209 0 lineto
2209 384 lineto
2071 157 1861 46 conicto
1651 -64 1356 -64 conicto
874 -64 571 324 conicto
268 712 268 1344 conicto
268 1976 571 2364 conicto
874 2752 1356 2752 conicto
1651 2752 1861 2641 conicto
2071 2531 2209 2304 conicto
720 1344 moveto
720 865 918 592 conicto
1117 320 1463 320 conicto
1810 320 2009 592 conicto
2209 865 2209 1344 conicto
2209 1823 2009 2095 conicto
1810 2368 1463 2368 conicto
1117 2368 918 2095 conicto
720 1823 720 1344 conicto
end_ol grestore 
gsave 34.261160 9.349063 translate 0.035278 -0.035278 scale
start_ol
2734 1480 moveto
2734 1280 lineto
724 1280 lineto
753 811 996 565 conicto
1240 320 1674 320 conicto
1926 320 2162 384 conicto
2399 448 2632 576 conicto
2632 192 lineto
2397 67 2150 1 conicto
1903 -64 1648 -64 conicto
1012 -64 640 309 conicto
268 683 268 1320 conicto
268 1979 621 2365 conicto
974 2752 1572 2752 conicto
2109 2752 2421 2410 conicto
2734 2068 2734 1480 conicto
2297 1600 moveto
2292 1950 2096 2159 conicto
1900 2368 1577 2368 conicto
1212 2368 992 2166 conicto
772 1964 739 1597 conicto
2297 1600 lineto
end_ol grestore 
gsave 34.655786 9.349063 translate 0.035278 -0.035278 scale
start_ol
515 2176 moveto
3560 2176 lineto
3560 1792 lineto
515 1792 lineto
515 2176 lineto
515 1216 moveto
3560 1216 lineto
3560 832 lineto
515 832 lineto
515 1216 lineto
end_ol grestore 
gsave 35.192782 9.349063 translate 0.035278 -0.035278 scale
start_ol
872 3520 moveto
872 2176 lineto
468 2176 lineto
468 3520 lineto
872 3520 lineto
end_ol grestore 
gsave 35.367614 9.349063 translate 0.035278 -0.035278 scale
start_ol
2368 1344 moveto
2368 1823 2169 2095 conicto
1971 2368 1624 2368 conicto
1278 2368 1079 2095 conicto
881 1823 881 1344 conicto
881 865 1079 592 conicto
1278 320 1624 320 conicto
1971 320 2169 592 conicto
2368 865 2368 1344 conicto
881 2304 moveto
1019 2531 1229 2641 conicto
1439 2752 1732 2752 conicto
2216 2752 2519 2364 conicto
2822 1976 2822 1344 conicto
2822 712 2519 324 conicto
2216 -64 1732 -64 conicto
1439 -64 1229 46 conicto
1019 157 881 384 conicto
881 0 lineto
442 0 lineto
442 3712 lineto
881 3712 lineto
881 2304 lineto
end_ol grestore 
gsave 35.774734 9.349063 translate 0.035278 -0.035278 scale
start_ol
1546 3200 moveto
1176 3200 989 2840 conicto
803 2481 803 1759 conicto
803 1039 989 679 conicto
1176 320 1546 320 conicto
1919 320 2105 679 conicto
2292 1039 2292 1759 conicto
2292 2481 2105 2840 conicto
1919 3200 1546 3200 conicto
1547 3584 moveto
2143 3584 2457 3116 conicto
2772 2649 2772 1759 conicto
2772 871 2457 403 conicto
2143 -64 1547 -64 conicto
950 -64 635 403 conicto
321 871 321 1759 conicto
321 2649 635 3116 conicto
950 3584 1547 3584 conicto
end_ol grestore 
gsave 36.181853 9.349063 translate 0.035278 -0.035278 scale
start_ol
603 384 moveto
1387 384 lineto
1387 3136 lineto
534 2944 lineto
534 3328 lineto
1382 3520 lineto
1862 3520 lineto
1862 384 lineto
2646 384 lineto
2646 0 lineto
603 0 lineto
603 384 lineto
end_ol grestore 
gsave 36.588972 9.349063 translate 0.035278 -0.035278 scale
start_ol
1546 3200 moveto
1176 3200 989 2840 conicto
803 2481 803 1759 conicto
803 1039 989 679 conicto
1176 320 1546 320 conicto
1919 320 2105 679 conicto
2292 1039 2292 1759 conicto
2292 2481 2105 2840 conicto
1919 3200 1546 3200 conicto
1547 3584 moveto
2143 3584 2457 3116 conicto
2772 2649 2772 1759 conicto
2772 871 2457 403 conicto
2143 -64 1547 -64 conicto
950 -64 635 403 conicto
321 871 321 1759 conicto
321 2649 635 3116 conicto
950 3584 1547 3584 conicto
end_ol grestore 
gsave 46.000000 9.349063 translate 0.035278 -0.035278 scale
start_ol
2529 2204 moveto
2693 2485 2921 2618 conicto
3149 2752 3458 2752 conicto
3874 2752 4099 2464 conicto
4325 2177 4325 1646 conicto
4325 0 lineto
3886 0 lineto
3886 1632 lineto
3886 2006 3750 2187 conicto
3615 2368 3337 2368 conicto
2997 2368 2800 2146 conicto
2603 1925 2603 1542 conicto
2603 0 lineto
2164 0 lineto
2164 1632 lineto
2164 2008 2028 2188 conicto
1893 2368 1610 2368 conicto
1275 2368 1078 2145 conicto
881 1922 881 1542 conicto
881 0 lineto
442 0 lineto
442 2688 lineto
881 2688 lineto
881 2304 lineto
1031 2534 1240 2643 conicto
1449 2752 1736 2752 conicto
2026 2752 2229 2611 conicto
2432 2471 2529 2204 conicto
end_ol grestore 
gsave 46.621911 9.349063 translate 0.035278 -0.035278 scale
start_ol
1489 2368 moveto
1138 2368 933 2094 conicto
729 1820 729 1344 conicto
729 868 932 594 conicto
1135 320 1489 320 conicto
1838 320 2042 595 conicto
2247 870 2247 1344 conicto
2247 1816 2042 2092 conicto
1838 2368 1489 2368 conicto
1489 2752 moveto
2059 2752 2384 2378 conicto
2710 2005 2710 1344 conicto
2710 685 2384 310 conicto
2059 -64 1489 -64 conicto
917 -64 592 310 conicto
268 685 268 1344 conicto
268 2005 592 2378 conicto
917 2752 1489 2752 conicto
end_ol grestore 
gsave 47.014040 9.349063 translate 0.035278 -0.035278 scale
start_ol
2209 2304 moveto
2209 3712 lineto
2646 3712 lineto
2646 0 lineto
2209 0 lineto
2209 384 lineto
2071 157 1861 46 conicto
1651 -64 1356 -64 conicto
874 -64 571 324 conicto
268 712 268 1344 conicto
268 1976 571 2364 conicto
874 2752 1356 2752 conicto
1651 2752 1861 2641 conicto
2071 2531 2209 2304 conicto
720 1344 moveto
720 865 918 592 conicto
1117 320 1463 320 conicto
1810 320 2009 592 conicto
2209 865 2209 1344 conicto
2209 1823 2009 2095 conicto
1810 2368 1463 2368 conicto
1117 2368 918 2095 conicto
720 1823 720 1344 conicto
end_ol grestore 
gsave 47.421160 9.349063 translate 0.035278 -0.035278 scale
start_ol
2734 1480 moveto
2734 1280 lineto
724 1280 lineto
753 811 996 565 conicto
1240 320 1674 320 conicto
1926 320 2162 384 conicto
2399 448 2632 576 conicto
2632 192 lineto
2397 67 2150 1 conicto
1903 -64 1648 -64 conicto
1012 -64 640 309 conicto
268 683 268 1320 conicto
268 1979 621 2365 conicto
974 2752 1572 2752 conicto
2109 2752 2421 2410 conicto
2734 2068 2734 1480 conicto
2297 1600 moveto
2292 1950 2096 2159 conicto
1900 2368 1577 2368 conicto
1212 2368 992 2166 conicto
772 1964 739 1597 conicto
2297 1600 lineto
end_ol grestore 
gsave 47.815786 9.349063 translate 0.035278 -0.035278 scale
start_ol
515 2176 moveto
3560 2176 lineto
3560 1792 lineto
515 1792 lineto
515 2176 lineto
515 1216 moveto
3560 1216 lineto
3560 832 lineto
515 832 lineto
515 1216 lineto
end_ol grestore 
gsave 48.352782 9.349063 translate 0.035278 -0.035278 scale
start_ol
872 3520 moveto
872 2176 lineto
468 2176 lineto
468 3520 lineto
872 3520 lineto
end_ol grestore 
gsave 48.527614 9.349063 translate 0.035278 -0.035278 scale
start_ol
2368 1344 moveto
2368 1823 2169 2095 conicto
1971 2368 1624 2368 conicto
1278 2368 1079 2095 conicto
881 1823 881 1344 conicto
881 865 1079 592 conicto
1278 320 1624 320 conicto
1971 320 2169 592 conicto
2368 865 2368 1344 conicto
881 2304 moveto
1019 2531 1229 2641 conicto
1439 2752 1732 2752 conicto
2216 2752 2519 2364 conicto
2822 1976 2822 1344 conicto
2822 712 2519 324 conicto
2216 -64 1732 -64 conicto
1439 -64 1229 46 conicto
1019 157 881 384 conicto
881 0 lineto
442 0 lineto
442 3712 lineto
881 3712 lineto
881 2304 lineto
end_ol grestore 
gsave 48.934734 9.349063 translate 0.035278 -0.035278 scale
start_ol
1546 3200 moveto
1176 3200 989 2840 conicto
803 2481 803 1759 conicto
803 1039 989 679 conicto
1176 320 1546 320 conicto
1919 320 2105 679 conicto
2292 1039 2292 1759 conicto
2292 2481 2105 2840 conicto
1919 3200 1546 3200 conicto
1547 3584 moveto
2143 3584 2457 3116 conicto
2772 2649 2772 1759 conicto
2772 871 2457 403 conicto
2143 -64 1547 -64 conicto
950 -64 635 403 conicto
321 871 321 1759 conicto
321 2649 635 3116 conicto
950 3584 1547 3584 conicto
end_ol grestore 
gsave 49.341853 9.349063 translate 0.035278 -0.035278 scale
start_ol
603 384 moveto
1387 384 lineto
1387 3136 lineto
534 2944 lineto
534 3328 lineto
1382 3520 lineto
1862 3520 lineto
1862 384 lineto
2646 384 lineto
2646 0 lineto
603 0 lineto
603 384 lineto
end_ol grestore 
gsave 49.748972 9.349063 translate 0.035278 -0.035278 scale
start_ol
1546 3200 moveto
1176 3200 989 2840 conicto
803 2481 803 1759 conicto
803 1039 989 679 conicto
1176 320 1546 320 conicto
1919 320 2105 679 conicto
2292 1039 2292 1759 conicto
2292 2481 2105 2840 conicto
1919 3200 1546 3200 conicto
1547 3584 moveto
2143 3584 2457 3116 conicto
2772 2649 2772 1759 conicto
2772 871 2457 403 conicto
2143 -64 1547 -64 conicto
950 -64 635 403 conicto
321 871 321 1759 conicto
321 2649 635 3116 conicto
950 3584 1547 3584 conicto
end_ol grestore 
showpage
