%!PS-Adobe-2.0 EPSF-2.0
%%Title: /home/mikolaj/proj/bachelor-thesis/fig_src/sync_ctrl_state_diagram.dia
%%Creator: Dia v0.97+git
%%CreationDate: Mon Dec 28 04:27:34 2020
%%For: mikolaj
%%Orientation: Portrait
%%Magnification: 1.0000
%%BoundingBox: 0 0 528 618
%%BeginSetup
%%EndSetup
%%EndComments
%%BeginProlog
[ /.notdef /.notdef /.notdef /.notdef /.notdef /.notdef /.notdef /.notdef /.notdef /.notdef
/.notdef /.notdef /.notdef /.notdef /.notdef /.notdef /.notdef /.notdef /.notdef /.notdef
/.notdef /.notdef /.notdef /.notdef /.notdef /.notdef /.notdef /.notdef /.notdef /.notdef
/.notdef /.notdef /space /exclam /quotedbl /numbersign /dollar /percent /ampersand /quoteright
/parenleft /parenright /asterisk /plus /comma /hyphen /period /slash /zero /one
/two /three /four /five /six /seven /eight /nine /colon /semicolon
/less /equal /greater /question /at /A /B /C /D /E
/F /G /H /I /J /K /L /M /N /O
/P /Q /R /S /T /U /V /W /X /Y
/Z /bracketleft /backslash /bracketright /asciicircum /underscore /quoteleft /a /b /c
/d /e /f /g /h /i /j /k /l /m
/n /o /p /q /r /s /t /u /v /w
/x /y /z /braceleft /bar /braceright /asciitilde /.notdef /.notdef /.notdef
/.notdef /.notdef /.notdef /.notdef /.notdef /.notdef /.notdef /.notdef /.notdef /.notdef
/.notdef /.notdef /.notdef /.notdef /.notdef /.notdef /.notdef /.notdef /.notdef /.notdef
/.notdef /.notdef /.notdef /.notdef /.notdef /.notdef /.notdef /.notdef /.notdef /.notdef
/space /exclamdown /cent /sterling /currency /yen /brokenbar /section /dieresis /copyright
/ordfeminine /guillemotleft /logicalnot /hyphen /registered /macron /degree /plusminus /twosuperior /threesuperior
/acute /mu /paragraph /periodcentered /cedilla /onesuperior /ordmasculine /guillemotright /onequarter /onehalf
/threequarters /questiondown /Agrave /Aacute /Acircumflex /Atilde /Adieresis /Aring /AE /Ccedilla
/Egrave /Eacute /Ecircumflex /Edieresis /Igrave /Iacute /Icircumflex /Idieresis /Eth /Ntilde
/Ograve /Oacute /Ocircumflex /Otilde /Odieresis /multiply /Oslash /Ugrave /Uacute /Ucircumflex
/Udieresis /Yacute /Thorn /germandbls /agrave /aacute /acircumflex /atilde /adieresis /aring
/ae /ccedilla /egrave /eacute /ecircumflex /edieresis /igrave /iacute /icircumflex /idieresis
/eth /ntilde /ograve /oacute /ocircumflex /otilde /odieresis /divide /oslash /ugrave
/uacute /ucircumflex /udieresis /yacute /thorn /ydieresis] /isolatin1encoding exch def
/cp {closepath} bind def
/c {curveto} bind def
/f {fill} bind def
/a {arc} bind def
/ef {eofill} bind def
/ex {exch} bind def
/gr {grestore} bind def
/gs {gsave} bind def
/sa {save} bind def
/rs {restore} bind def
/l {lineto} bind def
/m {moveto} bind def
/rm {rmoveto} bind def
/n {newpath} bind def
/s {stroke} bind def
/sh {show} bind def
/slc {setlinecap} bind def
/slj {setlinejoin} bind def
/slw {setlinewidth} bind def
/srgb {setrgbcolor} bind def
/rot {rotate} bind def
/sc {scale} bind def
/sd {setdash} bind def
/ff {findfont} bind def
/sf {setfont} bind def
/scf {scalefont} bind def
/sw {stringwidth pop} bind def
/tr {translate} bind def

/ellipsedict 8 dict def
ellipsedict /mtrx matrix put
/ellipse
{ ellipsedict begin
   /endangle exch def
   /startangle exch def
   /yrad exch def
   /xrad exch def
   /y exch def
   /x exch def   /savematrix mtrx currentmatrix def
   x y tr xrad yrad sc
   0 0 1 startangle endangle arc
   savematrix setmatrix
   end
} def

/mergeprocs {
dup length
3 -1 roll
dup
length
dup
5 1 roll
3 -1 roll
add
array cvx
dup
3 -1 roll
0 exch
putinterval
dup
4 2 roll
putinterval
} bind def
/dpi_x 300 def
/dpi_y 300 def
/conicto {
    /to_y exch def
    /to_x exch def
    /conic_cntrl_y exch def
    /conic_cntrl_x exch def
    currentpoint
    /p0_y exch def
    /p0_x exch def
    /p1_x p0_x conic_cntrl_x p0_x sub 2 3 div mul add def
    /p1_y p0_y conic_cntrl_y p0_y sub 2 3 div mul add def
    /p2_x p1_x to_x p0_x sub 1 3 div mul add def
    /p2_y p1_y to_y p0_y sub 1 3 div mul add def
    p1_x p1_y p2_x p2_y to_x to_y curveto
} bind def
/start_ol { gsave 1.1 dpi_x div dup scale} bind def
/end_ol { closepath fill grestore } bind def
28.346000 -28.346000 scale
-14.450000 -25.554192 translate
%%EndProlog


0.100000 slw
[] 0 sd
0 slj
1.000000 1.000000 1.000000 srgb
n 23.750000 8.750000 1.750000 1.750000 0 360 ellipse f
0.000000 0.000000 0.000000 srgb
n 23.750000 8.750000 1.750000 1.750000 0 360 ellipse cp s
gsave 23.027500 8.944062 translate 0.035278 -0.035278 scale
start_ol
477 3520 moveto
957 3520 lineto
957 0 lineto
477 0 lineto
477 3520 lineto
end_ol grestore 
gsave 23.217322 8.944062 translate 0.035278 -0.035278 scale
start_ol
957 3136 moveto
957 384 lineto
1537 384 lineto
2271 384 2611 716 conicto
2952 1048 2952 1764 conicto
2952 2475 2611 2805 conicto
2271 3136 1537 3136 conicto
957 3136 lineto
477 3520 moveto
1463 3520 lineto
2494 3520 2976 3094 conicto
3458 2669 3458 1764 conicto
3458 853 2973 426 conicto
2489 0 1463 0 conicto
477 0 lineto
477 3520 lineto
end_ol grestore 
gsave 23.709356 8.944062 translate 0.035278 -0.035278 scale
start_ol
477 3520 moveto
957 3520 lineto
957 384 lineto
2684 384 lineto
2684 0 lineto
477 0 lineto
477 3520 lineto
end_ol grestore 
gsave 24.066519 8.944062 translate 0.035278 -0.035278 scale
start_ol
477 3520 moveto
2719 3520 lineto
2719 3136 lineto
957 3136 lineto
957 2112 lineto
2646 2112 lineto
2646 1728 lineto
957 1728 lineto
957 384 lineto
2762 384 lineto
2762 0 lineto
477 0 lineto
477 3520 lineto
end_ol grestore 
0.100000 slw
[] 0 sd
0 slj
1.000000 1.000000 1.000000 srgb
n 31.252096 16.252096 1.752096 1.752096 0 360 ellipse f
0.000000 0.000000 0.000000 srgb
n 31.252096 16.252096 1.752096 1.752096 0 360 ellipse cp s
gsave 30.362096 16.446158 translate 0.035278 -0.035278 scale
start_ol
2159 1632 moveto
2313 1581 2459 1413 conicto
2606 1245 2753 952 conicto
3240 0 lineto
2724 0 lineto
2271 893 lineto
2095 1243 1930 1357 conicto
1765 1472 1480 1472 conicto
957 1472 lineto
957 0 lineto
477 0 lineto
477 3520 lineto
1560 3520 lineto
2168 3520 2467 3265 conicto
2767 3010 2767 2496 conicto
2767 2161 2611 1939 conicto
2456 1718 2159 1632 conicto
957 3136 moveto
957 1856 lineto
1560 1856 lineto
1907 1856 2084 2019 conicto
2261 2182 2261 2498 conicto
2261 2815 2084 2975 conicto
1907 3136 1560 3136 conicto
957 3136 lineto
end_ol grestore 
gsave 30.806679 16.446158 translate 0.035278 -0.035278 scale
start_ol
477 3520 moveto
2719 3520 lineto
2719 3136 lineto
957 3136 lineto
957 2112 lineto
2646 2112 lineto
2646 1728 lineto
957 1728 lineto
957 384 lineto
2762 384 lineto
2762 0 lineto
477 0 lineto
477 3520 lineto
end_ol grestore 
gsave 31.211293 16.446158 translate 0.035278 -0.035278 scale
start_ol
1663 3047 moveto
1012 1280 lineto
2316 1280 lineto
1663 3047 lineto
1392 3520 moveto
1936 3520 lineto
3287 0 lineto
2788 0 lineto
2465 896 lineto
867 896 lineto
544 0 lineto
38 0 lineto
1392 3520 lineto
end_ol grestore 
gsave 31.648384 16.446158 translate 0.035278 -0.035278 scale
start_ol
957 3136 moveto
957 384 lineto
1537 384 lineto
2271 384 2611 716 conicto
2952 1048 2952 1764 conicto
2952 2475 2611 2805 conicto
2271 3136 1537 3136 conicto
957 3136 lineto
477 3520 moveto
1463 3520 lineto
2494 3520 2976 3094 conicto
3458 2669 3458 1764 conicto
3458 853 2973 426 conicto
2489 0 1463 0 conicto
477 0 lineto
477 3520 lineto
end_ol grestore 
0.100000 slw
[] 0 sd
0 slj
1.000000 1.000000 1.000000 srgb
n 23.752096 23.752096 1.752096 1.752096 0 360 ellipse f
0.000000 0.000000 0.000000 srgb
n 23.752096 23.752096 1.752096 1.752096 0 360 ellipse cp s
gsave 22.855846 23.946158 translate 0.035278 -0.035278 scale
start_ol
273 3520 moveto
3059 3520 lineto
3059 3155 lineto
817 384 lineto
3114 384 lineto
3114 0 lineto
219 0 lineto
219 365 lineto
2461 3136 lineto
273 3136 lineto
273 3520 lineto
end_ol grestore 
gsave 23.292938 23.946158 translate 0.035278 -0.035278 scale
start_ol
477 3520 moveto
2719 3520 lineto
2719 3136 lineto
957 3136 lineto
957 2112 lineto
2646 2112 lineto
2646 1728 lineto
957 1728 lineto
957 384 lineto
2762 384 lineto
2762 0 lineto
477 0 lineto
477 3520 lineto
end_ol grestore 
gsave 23.697552 23.946158 translate 0.035278 -0.035278 scale
start_ol
2159 1632 moveto
2313 1581 2459 1413 conicto
2606 1245 2753 952 conicto
3240 0 lineto
2724 0 lineto
2271 893 lineto
2095 1243 1930 1357 conicto
1765 1472 1480 1472 conicto
957 1472 lineto
957 0 lineto
477 0 lineto
477 3520 lineto
1560 3520 lineto
2168 3520 2467 3265 conicto
2767 3010 2767 2496 conicto
2767 2161 2611 1939 conicto
2456 1718 2159 1632 conicto
957 3136 moveto
957 1856 lineto
1560 1856 lineto
1907 1856 2084 2019 conicto
2261 2182 2261 2498 conicto
2261 2815 2084 2975 conicto
1907 3136 1560 3136 conicto
957 3136 lineto
end_ol grestore 
gsave 24.142134 23.946158 translate 0.035278 -0.035278 scale
start_ol
1917 3200 moveto
1394 3200 1086 2813 conicto
779 2426 779 1759 conicto
779 1094 1086 707 conicto
1394 320 1917 320 conicto
2439 320 2744 707 conicto
3050 1094 3050 1759 conicto
3050 2426 2744 2813 conicto
2439 3200 1917 3200 conicto
1916 3584 moveto
2662 3584 3108 3088 conicto
3555 2593 3555 1759 conicto
3555 927 3108 431 conicto
2662 -64 1916 -64 conicto
1168 -64 720 430 conicto
273 925 273 1759 conicto
273 2593 720 3088 conicto
1168 3584 1916 3584 conicto
end_ol grestore 
0.100000 slw
[] 0 sd
0 slj
1.000000 1.000000 1.000000 srgb
n 16.252096 16.252096 1.752096 1.752096 0 360 ellipse f
0.000000 0.000000 0.000000 srgb
n 16.252096 16.252096 1.752096 1.752096 0 360 ellipse cp s
gsave 15.220846 16.446158 translate 0.035278 -0.035278 scale
start_ol
162 3520 moveto
646 3520 lineto
1392 545 lineto
2135 3520 lineto
2674 3520 lineto
3420 545 lineto
4163 3520 lineto
4650 3520 lineto
3760 0 lineto
3156 0 lineto
2408 3056 lineto
1653 0 lineto
1050 0 lineto
162 3520 lineto
end_ol grestore 
gsave 15.852754 16.446158 translate 0.035278 -0.035278 scale
start_ol
2159 1632 moveto
2313 1581 2459 1413 conicto
2606 1245 2753 952 conicto
3240 0 lineto
2724 0 lineto
2271 893 lineto
2095 1243 1930 1357 conicto
1765 1472 1480 1472 conicto
957 1472 lineto
957 0 lineto
477 0 lineto
477 3520 lineto
1560 3520 lineto
2168 3520 2467 3265 conicto
2767 3010 2767 2496 conicto
2767 2161 2611 1939 conicto
2456 1718 2159 1632 conicto
957 3136 moveto
957 1856 lineto
1560 1856 lineto
1907 1856 2084 2019 conicto
2261 2182 2261 2498 conicto
2261 2815 2084 2975 conicto
1907 3136 1560 3136 conicto
957 3136 lineto
end_ol grestore 
gsave 16.297336 16.446158 translate 0.035278 -0.035278 scale
start_ol
477 3520 moveto
957 3520 lineto
957 0 lineto
477 0 lineto
477 3520 lineto
end_ol grestore 
gsave 16.487158 16.446158 translate 0.035278 -0.035278 scale
start_ol
-14 3520 moveto
2985 3520 lineto
2985 3136 lineto
1727 3136 lineto
1727 0 lineto
1245 0 lineto
1245 3136 lineto
-14 3136 lineto
-14 3520 lineto
end_ol grestore 
gsave 16.876790 16.446158 translate 0.035278 -0.035278 scale
start_ol
477 3520 moveto
2719 3520 lineto
2719 3136 lineto
957 3136 lineto
957 2112 lineto
2646 2112 lineto
2646 1728 lineto
957 1728 lineto
957 384 lineto
2762 384 lineto
2762 0 lineto
477 0 lineto
477 3520 lineto
end_ol grestore 
gsave 29.800000 9.445193 translate 0.035278 -0.035278 scale
start_ol
1997 1714 moveto
2126 1951 2306 2063 conicto
2486 2176 2730 2176 conicto
3058 2176 3236 1943 conicto
3414 1710 3414 1281 conicto
3414 0 lineto
3068 0 lineto
3068 1269 lineto
3068 1567 2961 1711 conicto
2854 1856 2635 1856 conicto
2366 1856 2210 1679 conicto
2055 1503 2055 1199 conicto
2055 0 lineto
1708 0 lineto
1708 1269 lineto
1708 1569 1601 1712 conicto
1494 1856 1271 1856 conicto
1007 1856 851 1679 conicto
696 1502 696 1199 conicto
696 0 lineto
349 0 lineto
349 2112 lineto
696 2112 lineto
696 1792 lineto
814 1989 979 2082 conicto
1144 2176 1371 2176 conicto
1600 2176 1760 2057 conicto
1920 1939 1997 1714 conicto
end_ol grestore 
gsave 30.294531 9.445193 translate 0.035278 -0.035278 scale
start_ol
1176 1856 moveto
898 1856 737 1642 conicto
576 1428 576 1056 conicto
576 684 736 470 conicto
897 256 1176 256 conicto
1452 256 1613 471 conicto
1774 686 1774 1056 conicto
1774 1425 1613 1640 conicto
1452 1856 1176 1856 conicto
1175 2176 moveto
1625 2176 1882 1879 conicto
2139 1582 2139 1056 conicto
2139 532 1882 234 conicto
1625 -64 1175 -64 conicto
724 -64 468 234 conicto
212 532 212 1056 conicto
212 1582 468 1879 conicto
724 2176 1175 2176 conicto
end_ol grestore 
gsave 30.604234 9.445193 translate 0.035278 -0.035278 scale
start_ol
1744 1792 moveto
1744 2944 lineto
2089 2944 lineto
2089 0 lineto
1744 0 lineto
1744 320 lineto
1635 125 1469 30 conicto
1303 -64 1071 -64 conicto
690 -64 451 244 conicto
212 553 212 1056 conicto
212 1559 451 1867 conicto
690 2176 1071 2176 conicto
1303 2176 1469 2081 conicto
1635 1987 1744 1792 conicto
568 1056 moveto
568 682 724 469 conicto
881 256 1155 256 conicto
1429 256 1586 469 conicto
1744 682 1744 1056 conicto
1744 1430 1586 1643 conicto
1429 1856 1155 1856 conicto
881 1856 724 1643 conicto
568 1430 568 1056 conicto
end_ol grestore 
gsave 30.926430 9.445193 translate 0.035278 -0.035278 scale
start_ol
2158 1224 moveto
2158 1024 lineto
572 1024 lineto
595 649 787 452 conicto
979 256 1322 256 conicto
1521 256 1707 304 conicto
1894 352 2078 448 conicto
2078 128 lineto
1892 34 1697 -15 conicto
1502 -64 1302 -64 conicto
799 -64 505 233 conicto
212 530 212 1037 conicto
212 1561 490 1868 conicto
769 2176 1241 2176 conicto
1665 2176 1911 1920 conicto
2158 1664 2158 1224 conicto
1813 1344 moveto
1809 1578 1654 1717 conicto
1500 1856 1245 1856 conicto
956 1856 782 1721 conicto
609 1587 583 1342 conicto
1813 1344 lineto
end_ol grestore 
gsave 31.238639 9.445193 translate 0.035278 -0.035278 scale
start_ol
407 1728 moveto
2811 1728 lineto
2811 1408 lineto
407 1408 lineto
407 1728 lineto
407 960 moveto
2811 960 lineto
2811 640 lineto
407 640 lineto
407 960 lineto
end_ol grestore 
gsave 31.663237 9.445193 translate 0.035278 -0.035278 scale
start_ol
688 2816 moveto
688 1792 lineto
369 1792 lineto
369 2816 lineto
688 2816 lineto
end_ol grestore 
gsave 31.803103 9.445193 translate 0.035278 -0.035278 scale
start_ol
1869 1056 moveto
1869 1430 1712 1643 conicto
1556 1856 1282 1856 conicto
1009 1856 852 1643 conicto
696 1430 696 1056 conicto
696 682 852 469 conicto
1009 256 1282 256 conicto
1556 256 1712 469 conicto
1869 682 1869 1056 conicto
696 1792 moveto
805 1987 971 2081 conicto
1137 2176 1367 2176 conicto
1750 2176 1989 1867 conicto
2228 1559 2228 1056 conicto
2228 553 1989 244 conicto
1750 -64 1367 -64 conicto
1137 -64 971 30 conicto
805 125 696 320 conicto
696 0 lineto
349 0 lineto
349 2944 lineto
696 2944 lineto
696 1792 lineto
end_ol grestore 
gsave 32.125299 9.445193 translate 0.035278 -0.035278 scale
start_ol
1221 2560 moveto
928 2560 781 2272 conicto
634 1984 634 1407 conicto
634 832 781 544 conicto
928 256 1221 256 conicto
1515 256 1662 544 conicto
1809 832 1809 1407 conicto
1809 1984 1662 2272 conicto
1515 2560 1221 2560 conicto
1221 2880 moveto
1691 2880 1939 2502 conicto
2188 2125 2188 1407 conicto
2188 691 1939 313 conicto
1691 -64 1221 -64 conicto
750 -64 501 313 conicto
253 691 253 1407 conicto
253 2125 501 2502 conicto
750 2880 1221 2880 conicto
end_ol grestore 
gsave 32.447495 9.445193 translate 0.035278 -0.035278 scale
start_ol
476 320 moveto
1095 320 lineto
1095 2496 lineto
422 2368 lineto
422 2688 lineto
1091 2816 lineto
1470 2816 lineto
1470 320 lineto
2089 320 lineto
2089 0 lineto
476 0 lineto
476 320 lineto
end_ol grestore 
gsave 29.800000 10.080193 translate 0.035278 -0.035278 scale
start_ol
1873 1984 moveto
1873 1664 lineto
1727 1760 1580 1808 conicto
1433 1856 1283 1856 conicto
947 1856 761 1646 conicto
576 1436 576 1056 conicto
576 676 761 466 conicto
947 256 1283 256 conicto
1433 256 1580 304 conicto
1727 352 1873 448 conicto
1873 128 lineto
1729 32 1574 -16 conicto
1419 -64 1245 -64 conicto
771 -64 491 239 conicto
212 542 212 1056 conicto
212 1578 494 1877 conicto
776 2176 1267 2176 conicto
1427 2176 1579 2128 conicto
1731 2080 1873 1984 conicto
end_ol grestore 
gsave 30.079731 10.080193 translate 0.035278 -0.035278 scale
start_ol
362 2944 moveto
707 2944 lineto
707 0 lineto
362 0 lineto
362 2944 lineto
end_ol grestore 
gsave 30.219596 10.080193 translate 0.035278 -0.035278 scale
start_ol
349 2944 moveto
696 2944 lineto
696 1201 lineto
1725 2112 lineto
2166 2112 lineto
1052 1124 lineto
2213 0 lineto
1763 0 lineto
696 1031 lineto
696 0 lineto
349 0 lineto
349 2944 lineto
end_ol grestore 
gsave 30.514317 10.080193 translate 0.035278 -0.035278 scale
start_ol
1524 2816 moveto
1693 2816 lineto
2428 2048 lineto
2203 1826 lineto
1768 2262 lineto
1768 0 lineto
1449 0 lineto
1449 2262 lineto
1011 1826 lineto
786 2048 lineto
1524 2816 lineto
end_ol grestore 
gsave 22.495000 13.071536 translate 0.035278 -0.035278 scale
start_ol
1997 1714 moveto
2126 1951 2306 2063 conicto
2486 2176 2730 2176 conicto
3058 2176 3236 1943 conicto
3414 1710 3414 1281 conicto
3414 0 lineto
3068 0 lineto
3068 1269 lineto
3068 1567 2961 1711 conicto
2854 1856 2635 1856 conicto
2366 1856 2210 1679 conicto
2055 1503 2055 1199 conicto
2055 0 lineto
1708 0 lineto
1708 1269 lineto
1708 1569 1601 1712 conicto
1494 1856 1271 1856 conicto
1007 1856 851 1679 conicto
696 1502 696 1199 conicto
696 0 lineto
349 0 lineto
349 2112 lineto
696 2112 lineto
696 1792 lineto
814 1989 979 2082 conicto
1144 2176 1371 2176 conicto
1600 2176 1760 2057 conicto
1920 1939 1997 1714 conicto
end_ol grestore 
gsave 22.989531 13.071536 translate 0.035278 -0.035278 scale
start_ol
1176 1856 moveto
898 1856 737 1642 conicto
576 1428 576 1056 conicto
576 684 736 470 conicto
897 256 1176 256 conicto
1452 256 1613 471 conicto
1774 686 1774 1056 conicto
1774 1425 1613 1640 conicto
1452 1856 1176 1856 conicto
1175 2176 moveto
1625 2176 1882 1879 conicto
2139 1582 2139 1056 conicto
2139 532 1882 234 conicto
1625 -64 1175 -64 conicto
724 -64 468 234 conicto
212 532 212 1056 conicto
212 1582 468 1879 conicto
724 2176 1175 2176 conicto
end_ol grestore 
gsave 23.299234 13.071536 translate 0.035278 -0.035278 scale
start_ol
1744 1792 moveto
1744 2944 lineto
2089 2944 lineto
2089 0 lineto
1744 0 lineto
1744 320 lineto
1635 125 1469 30 conicto
1303 -64 1071 -64 conicto
690 -64 451 244 conicto
212 553 212 1056 conicto
212 1559 451 1867 conicto
690 2176 1071 2176 conicto
1303 2176 1469 2081 conicto
1635 1987 1744 1792 conicto
568 1056 moveto
568 682 724 469 conicto
881 256 1155 256 conicto
1429 256 1586 469 conicto
1744 682 1744 1056 conicto
1744 1430 1586 1643 conicto
1429 1856 1155 1856 conicto
881 1856 724 1643 conicto
568 1430 568 1056 conicto
end_ol grestore 
gsave 23.621430 13.071536 translate 0.035278 -0.035278 scale
start_ol
2158 1224 moveto
2158 1024 lineto
572 1024 lineto
595 649 787 452 conicto
979 256 1322 256 conicto
1521 256 1707 304 conicto
1894 352 2078 448 conicto
2078 128 lineto
1892 34 1697 -15 conicto
1502 -64 1302 -64 conicto
799 -64 505 233 conicto
212 530 212 1037 conicto
212 1561 490 1868 conicto
769 2176 1241 2176 conicto
1665 2176 1911 1920 conicto
2158 1664 2158 1224 conicto
1813 1344 moveto
1809 1578 1654 1717 conicto
1500 1856 1245 1856 conicto
956 1856 782 1721 conicto
609 1587 583 1342 conicto
1813 1344 lineto
end_ol grestore 
gsave 23.933639 13.071536 translate 0.035278 -0.035278 scale
start_ol
643 1176 moveto
656 1037 774 812 conicto
913 551 1176 405 conicto
1433 263 1710 261 conicto
3017 261 lineto
3017 -38 lineto
1710 -38 lineto
1350 -38 1017 148 conicto
684 334 506 664 conicto
328 994 328 1344 conicto
328 1691 506 2021 conicto
684 2351 1017 2538 conicto
1350 2726 1710 2726 conicto
3017 2726 lineto
3017 2428 lineto
1710 2428 lineto
1433 2426 1176 2282 conicto
915 2134 774 1875 conicto
654 1650 638 1476 conicto
3017 1476 lineto
3017 1176 lineto
643 1176 lineto
end_ol grestore 
gsave 24.375724 13.071536 translate 0.035278 -0.035278 scale
start_ol
1963 -256 moveto
1963 -576 lineto
1847 -576 lineto
1380 -576 1221 -433 conicto
1063 -290 1063 138 conicto
1063 519 lineto
1063 805 961 914 conicto
860 1024 594 1024 conicto
480 1024 lineto
480 1344 lineto
594 1344 lineto
862 1344 962 1445 conicto
1063 1546 1063 1808 conicto
1063 2229 lineto
1063 2658 1221 2801 conicto
1380 2944 1847 2944 conicto
1963 2944 lineto
1963 2624 lineto
1836 2624 lineto
1571 2624 1490 2547 conicto
1410 2470 1410 2222 conicto
1410 1786 lineto
1410 1494 1324 1362 conicto
1239 1230 1033 1183 conicto
1241 1133 1325 1001 conicto
1410 869 1410 579 conicto
1410 145 lineto
1410 -102 1490 -179 conicto
1571 -256 1836 -256 conicto
1963 -256 lineto
end_ol grestore 
gsave 24.697921 13.071536 translate 0.035278 -0.035278 scale
start_ol
688 2816 moveto
688 1792 lineto
369 1792 lineto
369 2816 lineto
688 2816 lineto
end_ol grestore 
gsave 24.837786 13.071536 translate 0.035278 -0.035278 scale
start_ol
1869 1056 moveto
1869 1430 1712 1643 conicto
1556 1856 1282 1856 conicto
1009 1856 852 1643 conicto
696 1430 696 1056 conicto
696 682 852 469 conicto
1009 256 1282 256 conicto
1556 256 1712 469 conicto
1869 682 1869 1056 conicto
696 1792 moveto
805 1987 971 2081 conicto
1137 2176 1367 2176 conicto
1750 2176 1989 1867 conicto
2228 1559 2228 1056 conicto
2228 553 1989 244 conicto
1750 -64 1367 -64 conicto
1137 -64 971 30 conicto
805 125 696 320 conicto
696 0 lineto
349 0 lineto
349 2944 lineto
696 2944 lineto
696 1792 lineto
end_ol grestore 
gsave 25.159983 13.071536 translate 0.035278 -0.035278 scale
start_ol
1221 2560 moveto
928 2560 781 2272 conicto
634 1984 634 1407 conicto
634 832 781 544 conicto
928 256 1221 256 conicto
1515 256 1662 544 conicto
1809 832 1809 1407 conicto
1809 1984 1662 2272 conicto
1515 2560 1221 2560 conicto
1221 2880 moveto
1691 2880 1939 2502 conicto
2188 2125 2188 1407 conicto
2188 691 1939 313 conicto
1691 -64 1221 -64 conicto
750 -64 501 313 conicto
253 691 253 1407 conicto
253 2125 501 2502 conicto
750 2880 1221 2880 conicto
end_ol grestore 
gsave 25.482179 13.071536 translate 0.035278 -0.035278 scale
start_ol
476 320 moveto
1095 320 lineto
1095 2496 lineto
422 2368 lineto
422 2688 lineto
1091 2816 lineto
1470 2816 lineto
1470 320 lineto
2089 320 lineto
2089 0 lineto
476 0 lineto
476 320 lineto
end_ol grestore 
gsave 25.804375 13.071536 translate 0.035278 -0.035278 scale
start_ol
450 448 moveto
846 448 lineto
846 135 lineto
538 -448 lineto
296 -448 lineto
450 135 lineto
450 448 lineto
end_ol grestore 
gsave 25.966722 13.071536 translate 0.035278 -0.035278 scale
start_ol
688 2816 moveto
688 1792 lineto
369 1792 lineto
369 2816 lineto
688 2816 lineto
end_ol grestore 
gsave 26.106587 13.071536 translate 0.035278 -0.035278 scale
start_ol
1869 1056 moveto
1869 1430 1712 1643 conicto
1556 1856 1282 1856 conicto
1009 1856 852 1643 conicto
696 1430 696 1056 conicto
696 682 852 469 conicto
1009 256 1282 256 conicto
1556 256 1712 469 conicto
1869 682 1869 1056 conicto
696 1792 moveto
805 1987 971 2081 conicto
1137 2176 1367 2176 conicto
1750 2176 1989 1867 conicto
2228 1559 2228 1056 conicto
2228 553 1989 244 conicto
1750 -64 1367 -64 conicto
1137 -64 971 30 conicto
805 125 696 320 conicto
696 0 lineto
349 0 lineto
349 2944 lineto
696 2944 lineto
696 1792 lineto
end_ol grestore 
gsave 26.428784 13.071536 translate 0.035278 -0.035278 scale
start_ol
476 320 moveto
1095 320 lineto
1095 2496 lineto
422 2368 lineto
422 2688 lineto
1091 2816 lineto
1470 2816 lineto
1470 320 lineto
2089 320 lineto
2089 0 lineto
476 0 lineto
476 320 lineto
end_ol grestore 
gsave 26.750980 13.071536 translate 0.035278 -0.035278 scale
start_ol
1221 2560 moveto
928 2560 781 2272 conicto
634 1984 634 1407 conicto
634 832 781 544 conicto
928 256 1221 256 conicto
1515 256 1662 544 conicto
1809 832 1809 1407 conicto
1809 1984 1662 2272 conicto
1515 2560 1221 2560 conicto
1221 2880 moveto
1691 2880 1939 2502 conicto
2188 2125 2188 1407 conicto
2188 691 1939 313 conicto
1691 -64 1221 -64 conicto
750 -64 501 313 conicto
253 691 253 1407 conicto
253 2125 501 2502 conicto
750 2880 1221 2880 conicto
end_ol grestore 
gsave 27.073176 13.071536 translate 0.035278 -0.035278 scale
start_ol
480 -256 moveto
611 -256 lineto
874 -256 953 -180 conicto
1033 -105 1033 145 conicto
1033 579 lineto
1033 869 1117 1001 conicto
1202 1133 1410 1183 conicto
1202 1230 1117 1362 conicto
1033 1494 1033 1786 conicto
1033 2222 lineto
1033 2471 953 2547 conicto
874 2624 611 2624 conicto
480 2624 lineto
480 2944 lineto
598 2944 lineto
1065 2944 1221 2801 conicto
1378 2658 1378 2229 conicto
1378 1808 lineto
1378 1546 1479 1445 conicto
1581 1344 1847 1344 conicto
1963 1344 lineto
1963 1024 lineto
1847 1024 lineto
1581 1024 1479 914 conicto
1378 805 1378 519 conicto
1378 138 lineto
1378 -290 1221 -433 conicto
1065 -576 598 -576 conicto
480 -576 lineto
480 -256 lineto
end_ol grestore 
gsave 26.017500 13.706536 translate 0.035278 -0.035278 scale
start_ol
2158 1224 moveto
2158 1024 lineto
572 1024 lineto
595 649 787 452 conicto
979 256 1322 256 conicto
1521 256 1707 304 conicto
1894 352 2078 448 conicto
2078 128 lineto
1892 34 1697 -15 conicto
1502 -64 1302 -64 conicto
799 -64 505 233 conicto
212 530 212 1037 conicto
212 1561 490 1868 conicto
769 2176 1241 2176 conicto
1665 2176 1911 1920 conicto
2158 1664 2158 1224 conicto
1813 1344 moveto
1809 1578 1654 1717 conicto
1500 1856 1245 1856 conicto
956 1856 782 1721 conicto
609 1587 583 1342 conicto
1813 1344 lineto
end_ol grestore 
gsave 26.329708 13.706536 translate 0.035278 -0.035278 scale
start_ol
2108 1281 moveto
2108 0 lineto
1763 0 lineto
1763 1269 lineto
1763 1563 1646 1709 conicto
1530 1856 1298 1856 conicto
1019 1856 857 1679 conicto
696 1503 696 1199 conicto
696 0 lineto
349 0 lineto
349 2112 lineto
696 2112 lineto
696 1792 lineto
820 1985 987 2080 conicto
1155 2176 1375 2176 conicto
1737 2176 1922 1949 conicto
2108 1722 2108 1281 conicto
end_ol grestore 
gsave 26.651905 13.706536 translate 0.035278 -0.035278 scale
start_ol
407 1728 moveto
2811 1728 lineto
2811 1408 lineto
407 1408 lineto
407 1728 lineto
407 960 moveto
2811 960 lineto
2811 640 lineto
407 640 lineto
407 960 lineto
end_ol grestore 
gsave 27.076503 13.706536 translate 0.035278 -0.035278 scale
start_ol
476 320 moveto
1095 320 lineto
1095 2496 lineto
422 2368 lineto
422 2688 lineto
1091 2816 lineto
1470 2816 lineto
1470 320 lineto
2089 320 lineto
2089 0 lineto
476 0 lineto
476 320 lineto
end_ol grestore 
gsave 26.260000 14.341536 translate 0.035278 -0.035278 scale
start_ol
1873 1984 moveto
1873 1664 lineto
1727 1760 1580 1808 conicto
1433 1856 1283 1856 conicto
947 1856 761 1646 conicto
576 1436 576 1056 conicto
576 676 761 466 conicto
947 256 1283 256 conicto
1433 256 1580 304 conicto
1727 352 1873 448 conicto
1873 128 lineto
1729 32 1574 -16 conicto
1419 -64 1245 -64 conicto
771 -64 491 239 conicto
212 542 212 1056 conicto
212 1578 494 1877 conicto
776 2176 1267 2176 conicto
1427 2176 1579 2128 conicto
1731 2080 1873 1984 conicto
end_ol grestore 
gsave 26.539731 14.341536 translate 0.035278 -0.035278 scale
start_ol
362 2944 moveto
707 2944 lineto
707 0 lineto
362 0 lineto
362 2944 lineto
end_ol grestore 
gsave 26.679596 14.341536 translate 0.035278 -0.035278 scale
start_ol
349 2944 moveto
696 2944 lineto
696 1201 lineto
1725 2112 lineto
2166 2112 lineto
1052 1124 lineto
2213 0 lineto
1763 0 lineto
696 1031 lineto
696 0 lineto
349 0 lineto
349 2944 lineto
end_ol grestore 
gsave 26.974317 14.341536 translate 0.035278 -0.035278 scale
start_ol
1524 2816 moveto
1693 2816 lineto
2428 2048 lineto
2203 1826 lineto
1768 2262 lineto
1768 0 lineto
1449 0 lineto
1449 2262 lineto
1011 1826 lineto
786 2048 lineto
1524 2816 lineto
end_ol grestore 
0.100000 slw
[] 0 sd
0 slc
n 24.987400 9.987440 m 29.668977 14.668979 l s
[] 0 sd
0 slj
0 slc
n 29.934143 14.934143 m 29.403812 14.757369 l 29.668977 14.668979 l 29.757364 14.403814 l ef
n 29.934143 14.934143 m 29.403812 14.757369 l 29.668977 14.668979 l 29.757364 14.403814 l cp s
0.100000 slw
[] 0 sd
0 slc
n 30.013200 17.491000 m 25.335222 22.168978 l s
[] 0 sd
0 slj
0 slc
n 25.070057 22.434143 m 25.246834 21.903813 l 25.335222 22.168978 l 25.600387 22.257366 l ef
n 25.070057 22.434143 m 25.246834 21.903813 l 25.335222 22.168978 l 25.600387 22.257366 l cp s
0.100000 slw
[] 0 sd
0 slc
n 22.513200 22.513200 m 17.835222 17.835222 l s
[] 0 sd
0 slj
0 slc
n 17.570057 17.570057 m 18.100387 17.746834 l 17.835222 17.835222 l 17.746834 18.100387 l ef
n 17.570057 17.570057 m 18.100387 17.746834 l 17.835222 17.835222 l 17.746834 18.100387 l cp s
0.100000 slw
[] 0 sd
0 slc
n 17.525671 14.977676 m 22.168492 10.331776 l s
[] 0 sd
0 slj
0 slc
n 22.433569 10.066523 m 22.256968 10.596912 l 22.168492 10.331776 l 21.903298 10.243476 l ef
n 22.433569 10.066523 m 22.256968 10.596912 l 22.168492 10.331776 l 21.903298 10.243476 l cp s
0.100000 slw
[] 0 sd
0 slc
n 26.055663 13.946234 5.225860 5.225860 269.218129 366.082853 ellipse s
[] 0 sd
0 slj
0 slc
n 25.611170 8.738112 m 26.081753 8.436364 l 25.984044 8.698238 l 26.134917 8.933530 l ef
n 25.611170 8.738112 m 26.081753 8.436364 l 25.984044 8.698238 l 26.134917 8.933530 l cp s
gsave 18.660000 20.671536 translate 0.035278 -0.035278 scale
start_ol
1873 1984 moveto
1873 1664 lineto
1727 1760 1580 1808 conicto
1433 1856 1283 1856 conicto
947 1856 761 1646 conicto
576 1436 576 1056 conicto
576 676 761 466 conicto
947 256 1283 256 conicto
1433 256 1580 304 conicto
1727 352 1873 448 conicto
1873 128 lineto
1729 32 1574 -16 conicto
1419 -64 1245 -64 conicto
771 -64 491 239 conicto
212 542 212 1056 conicto
212 1578 494 1877 conicto
776 2176 1267 2176 conicto
1427 2176 1579 2128 conicto
1731 2080 1873 1984 conicto
end_ol grestore 
gsave 18.939731 20.671536 translate 0.035278 -0.035278 scale
start_ol
362 2944 moveto
707 2944 lineto
707 0 lineto
362 0 lineto
362 2944 lineto
end_ol grestore 
gsave 19.079596 20.671536 translate 0.035278 -0.035278 scale
start_ol
349 2944 moveto
696 2944 lineto
696 1201 lineto
1725 2112 lineto
2166 2112 lineto
1052 1124 lineto
2213 0 lineto
1763 0 lineto
696 1031 lineto
696 0 lineto
349 0 lineto
349 2944 lineto
end_ol grestore 
gsave 19.374317 20.671536 translate 0.035278 -0.035278 scale
start_ol
1524 2816 moveto
1693 2816 lineto
2428 2048 lineto
2203 1826 lineto
1768 2262 lineto
1768 0 lineto
1449 0 lineto
1449 2262 lineto
1011 1826 lineto
786 2048 lineto
1524 2816 lineto
end_ol grestore 
gsave 27.600000 20.686319 translate 0.035278 -0.035278 scale
start_ol
1997 1714 moveto
2126 1951 2306 2063 conicto
2486 2176 2730 2176 conicto
3058 2176 3236 1943 conicto
3414 1710 3414 1281 conicto
3414 0 lineto
3068 0 lineto
3068 1269 lineto
3068 1567 2961 1711 conicto
2854 1856 2635 1856 conicto
2366 1856 2210 1679 conicto
2055 1503 2055 1199 conicto
2055 0 lineto
1708 0 lineto
1708 1269 lineto
1708 1569 1601 1712 conicto
1494 1856 1271 1856 conicto
1007 1856 851 1679 conicto
696 1502 696 1199 conicto
696 0 lineto
349 0 lineto
349 2112 lineto
696 2112 lineto
696 1792 lineto
814 1989 979 2082 conicto
1144 2176 1371 2176 conicto
1600 2176 1760 2057 conicto
1920 1939 1997 1714 conicto
end_ol grestore 
gsave 28.094531 20.686319 translate 0.035278 -0.035278 scale
start_ol
1176 1856 moveto
898 1856 737 1642 conicto
576 1428 576 1056 conicto
576 684 736 470 conicto
897 256 1176 256 conicto
1452 256 1613 471 conicto
1774 686 1774 1056 conicto
1774 1425 1613 1640 conicto
1452 1856 1176 1856 conicto
1175 2176 moveto
1625 2176 1882 1879 conicto
2139 1582 2139 1056 conicto
2139 532 1882 234 conicto
1625 -64 1175 -64 conicto
724 -64 468 234 conicto
212 532 212 1056 conicto
212 1582 468 1879 conicto
724 2176 1175 2176 conicto
end_ol grestore 
gsave 28.404234 20.686319 translate 0.035278 -0.035278 scale
start_ol
1744 1792 moveto
1744 2944 lineto
2089 2944 lineto
2089 0 lineto
1744 0 lineto
1744 320 lineto
1635 125 1469 30 conicto
1303 -64 1071 -64 conicto
690 -64 451 244 conicto
212 553 212 1056 conicto
212 1559 451 1867 conicto
690 2176 1071 2176 conicto
1303 2176 1469 2081 conicto
1635 1987 1744 1792 conicto
568 1056 moveto
568 682 724 469 conicto
881 256 1155 256 conicto
1429 256 1586 469 conicto
1744 682 1744 1056 conicto
1744 1430 1586 1643 conicto
1429 1856 1155 1856 conicto
881 1856 724 1643 conicto
568 1430 568 1056 conicto
end_ol grestore 
gsave 28.726430 20.686319 translate 0.035278 -0.035278 scale
start_ol
2158 1224 moveto
2158 1024 lineto
572 1024 lineto
595 649 787 452 conicto
979 256 1322 256 conicto
1521 256 1707 304 conicto
1894 352 2078 448 conicto
2078 128 lineto
1892 34 1697 -15 conicto
1502 -64 1302 -64 conicto
799 -64 505 233 conicto
212 530 212 1037 conicto
212 1561 490 1868 conicto
769 2176 1241 2176 conicto
1665 2176 1911 1920 conicto
2158 1664 2158 1224 conicto
1813 1344 moveto
1809 1578 1654 1717 conicto
1500 1856 1245 1856 conicto
956 1856 782 1721 conicto
609 1587 583 1342 conicto
1813 1344 lineto
end_ol grestore 
gsave 29.038639 20.686319 translate 0.035278 -0.035278 scale
start_ol
407 1728 moveto
2811 1728 lineto
2811 1408 lineto
407 1408 lineto
407 1728 lineto
407 960 moveto
2811 960 lineto
2811 640 lineto
407 640 lineto
407 960 lineto
end_ol grestore 
gsave 29.463237 20.686319 translate 0.035278 -0.035278 scale
start_ol
688 2816 moveto
688 1792 lineto
369 1792 lineto
369 2816 lineto
688 2816 lineto
end_ol grestore 
gsave 29.603103 20.686319 translate 0.035278 -0.035278 scale
start_ol
1869 1056 moveto
1869 1430 1712 1643 conicto
1556 1856 1282 1856 conicto
1009 1856 852 1643 conicto
696 1430 696 1056 conicto
696 682 852 469 conicto
1009 256 1282 256 conicto
1556 256 1712 469 conicto
1869 682 1869 1056 conicto
696 1792 moveto
805 1987 971 2081 conicto
1137 2176 1367 2176 conicto
1750 2176 1989 1867 conicto
2228 1559 2228 1056 conicto
2228 553 1989 244 conicto
1750 -64 1367 -64 conicto
1137 -64 971 30 conicto
805 125 696 320 conicto
696 0 lineto
349 0 lineto
349 2944 lineto
696 2944 lineto
696 1792 lineto
end_ol grestore 
gsave 29.925299 20.686319 translate 0.035278 -0.035278 scale
start_ol
476 320 moveto
1095 320 lineto
1095 2496 lineto
422 2368 lineto
422 2688 lineto
1091 2816 lineto
1470 2816 lineto
1470 320 lineto
2089 320 lineto
2089 0 lineto
476 0 lineto
476 320 lineto
end_ol grestore 
gsave 30.247495 20.686319 translate 0.035278 -0.035278 scale
start_ol
1221 2560 moveto
928 2560 781 2272 conicto
634 1984 634 1407 conicto
634 832 781 544 conicto
928 256 1221 256 conicto
1515 256 1662 544 conicto
1809 832 1809 1407 conicto
1809 1984 1662 2272 conicto
1515 2560 1221 2560 conicto
1221 2880 moveto
1691 2880 1939 2502 conicto
2188 2125 2188 1407 conicto
2188 691 1939 313 conicto
1691 -64 1221 -64 conicto
750 -64 501 313 conicto
253 691 253 1407 conicto
253 2125 501 2502 conicto
750 2880 1221 2880 conicto
end_ol grestore 
gsave 27.600000 21.321319 translate 0.035278 -0.035278 scale
start_ol
1873 1984 moveto
1873 1664 lineto
1727 1760 1580 1808 conicto
1433 1856 1283 1856 conicto
947 1856 761 1646 conicto
576 1436 576 1056 conicto
576 676 761 466 conicto
947 256 1283 256 conicto
1433 256 1580 304 conicto
1727 352 1873 448 conicto
1873 128 lineto
1729 32 1574 -16 conicto
1419 -64 1245 -64 conicto
771 -64 491 239 conicto
212 542 212 1056 conicto
212 1578 494 1877 conicto
776 2176 1267 2176 conicto
1427 2176 1579 2128 conicto
1731 2080 1873 1984 conicto
end_ol grestore 
gsave 27.879731 21.321319 translate 0.035278 -0.035278 scale
start_ol
362 2944 moveto
707 2944 lineto
707 0 lineto
362 0 lineto
362 2944 lineto
end_ol grestore 
gsave 28.019596 21.321319 translate 0.035278 -0.035278 scale
start_ol
349 2944 moveto
696 2944 lineto
696 1201 lineto
1725 2112 lineto
2166 2112 lineto
1052 1124 lineto
2213 0 lineto
1763 0 lineto
696 1031 lineto
696 0 lineto
349 0 lineto
349 2944 lineto
end_ol grestore 
gsave 28.314317 21.321319 translate 0.035278 -0.035278 scale
start_ol
1524 2816 moveto
1693 2816 lineto
2428 2048 lineto
2203 1826 lineto
1768 2262 lineto
1768 0 lineto
1449 0 lineto
1449 2262 lineto
1011 1826 lineto
786 2048 lineto
1524 2816 lineto
end_ol grestore 
gsave 20.100000 13.071536 translate 0.035278 -0.035278 scale
start_ol
1873 1984 moveto
1873 1664 lineto
1727 1760 1580 1808 conicto
1433 1856 1283 1856 conicto
947 1856 761 1646 conicto
576 1436 576 1056 conicto
576 676 761 466 conicto
947 256 1283 256 conicto
1433 256 1580 304 conicto
1727 352 1873 448 conicto
1873 128 lineto
1729 32 1574 -16 conicto
1419 -64 1245 -64 conicto
771 -64 491 239 conicto
212 542 212 1056 conicto
212 1578 494 1877 conicto
776 2176 1267 2176 conicto
1427 2176 1579 2128 conicto
1731 2080 1873 1984 conicto
end_ol grestore 
gsave 20.379731 13.071536 translate 0.035278 -0.035278 scale
start_ol
362 2944 moveto
707 2944 lineto
707 0 lineto
362 0 lineto
362 2944 lineto
end_ol grestore 
gsave 20.519596 13.071536 translate 0.035278 -0.035278 scale
start_ol
349 2944 moveto
696 2944 lineto
696 1201 lineto
1725 2112 lineto
2166 2112 lineto
1052 1124 lineto
2213 0 lineto
1763 0 lineto
696 1031 lineto
696 0 lineto
349 0 lineto
349 2944 lineto
end_ol grestore 
gsave 20.814317 13.071536 translate 0.035278 -0.035278 scale
start_ol
1524 2816 moveto
1693 2816 lineto
2428 2048 lineto
2203 1826 lineto
1768 2262 lineto
1768 0 lineto
1449 0 lineto
1449 2262 lineto
1011 1826 lineto
786 2048 lineto
1524 2816 lineto
end_ol grestore 
0.100000 slw
[] 0 sd
0 slc
n 23.750000 6.560979 1.560982 1.560982 159.759583 397.560878 ellipse s
[] 0 sd
0 slj
0 slc
n 22.444444 7.423933 m 21.941466 7.179981 l 22.215843 7.126668 l 22.337819 6.875179 l ef
n 22.444444 7.423933 m 21.941466 7.179981 l 22.215843 7.126668 l 22.337819 6.875179 l cp s
gsave 22.213750 4.245193 translate 0.035278 -0.035278 scale
start_ol
1997 1714 moveto
2126 1951 2306 2063 conicto
2486 2176 2730 2176 conicto
3058 2176 3236 1943 conicto
3414 1710 3414 1281 conicto
3414 0 lineto
3068 0 lineto
3068 1269 lineto
3068 1567 2961 1711 conicto
2854 1856 2635 1856 conicto
2366 1856 2210 1679 conicto
2055 1503 2055 1199 conicto
2055 0 lineto
1708 0 lineto
1708 1269 lineto
1708 1569 1601 1712 conicto
1494 1856 1271 1856 conicto
1007 1856 851 1679 conicto
696 1502 696 1199 conicto
696 0 lineto
349 0 lineto
349 2112 lineto
696 2112 lineto
696 1792 lineto
814 1989 979 2082 conicto
1144 2176 1371 2176 conicto
1600 2176 1760 2057 conicto
1920 1939 1997 1714 conicto
end_ol grestore 
gsave 22.708281 4.245193 translate 0.035278 -0.035278 scale
start_ol
1176 1856 moveto
898 1856 737 1642 conicto
576 1428 576 1056 conicto
576 684 736 470 conicto
897 256 1176 256 conicto
1452 256 1613 471 conicto
1774 686 1774 1056 conicto
1774 1425 1613 1640 conicto
1452 1856 1176 1856 conicto
1175 2176 moveto
1625 2176 1882 1879 conicto
2139 1582 2139 1056 conicto
2139 532 1882 234 conicto
1625 -64 1175 -64 conicto
724 -64 468 234 conicto
212 532 212 1056 conicto
212 1582 468 1879 conicto
724 2176 1175 2176 conicto
end_ol grestore 
gsave 23.017984 4.245193 translate 0.035278 -0.035278 scale
start_ol
1744 1792 moveto
1744 2944 lineto
2089 2944 lineto
2089 0 lineto
1744 0 lineto
1744 320 lineto
1635 125 1469 30 conicto
1303 -64 1071 -64 conicto
690 -64 451 244 conicto
212 553 212 1056 conicto
212 1559 451 1867 conicto
690 2176 1071 2176 conicto
1303 2176 1469 2081 conicto
1635 1987 1744 1792 conicto
568 1056 moveto
568 682 724 469 conicto
881 256 1155 256 conicto
1429 256 1586 469 conicto
1744 682 1744 1056 conicto
1744 1430 1586 1643 conicto
1429 1856 1155 1856 conicto
881 1856 724 1643 conicto
568 1430 568 1056 conicto
end_ol grestore 
gsave 23.340180 4.245193 translate 0.035278 -0.035278 scale
start_ol
2158 1224 moveto
2158 1024 lineto
572 1024 lineto
595 649 787 452 conicto
979 256 1322 256 conicto
1521 256 1707 304 conicto
1894 352 2078 448 conicto
2078 128 lineto
1892 34 1697 -15 conicto
1502 -64 1302 -64 conicto
799 -64 505 233 conicto
212 530 212 1037 conicto
212 1561 490 1868 conicto
769 2176 1241 2176 conicto
1665 2176 1911 1920 conicto
2158 1664 2158 1224 conicto
1813 1344 moveto
1809 1578 1654 1717 conicto
1500 1856 1245 1856 conicto
956 1856 782 1721 conicto
609 1587 583 1342 conicto
1813 1344 lineto
end_ol grestore 
gsave 23.652389 4.245193 translate 0.035278 -0.035278 scale
start_ol
407 1728 moveto
2811 1728 lineto
2811 1408 lineto
407 1408 lineto
407 1728 lineto
407 960 moveto
2811 960 lineto
2811 640 lineto
407 640 lineto
407 960 lineto
end_ol grestore 
gsave 24.076987 4.245193 translate 0.035278 -0.035278 scale
start_ol
688 2816 moveto
688 1792 lineto
369 1792 lineto
369 2816 lineto
688 2816 lineto
end_ol grestore 
gsave 24.216853 4.245193 translate 0.035278 -0.035278 scale
start_ol
1869 1056 moveto
1869 1430 1712 1643 conicto
1556 1856 1282 1856 conicto
1009 1856 852 1643 conicto
696 1430 696 1056 conicto
696 682 852 469 conicto
1009 256 1282 256 conicto
1556 256 1712 469 conicto
1869 682 1869 1056 conicto
696 1792 moveto
805 1987 971 2081 conicto
1137 2176 1367 2176 conicto
1750 2176 1989 1867 conicto
2228 1559 2228 1056 conicto
2228 553 1989 244 conicto
1750 -64 1367 -64 conicto
1137 -64 971 30 conicto
805 125 696 320 conicto
696 0 lineto
349 0 lineto
349 2944 lineto
696 2944 lineto
696 1792 lineto
end_ol grestore 
gsave 24.539049 4.245193 translate 0.035278 -0.035278 scale
start_ol
1221 2560 moveto
928 2560 781 2272 conicto
634 1984 634 1407 conicto
634 832 781 544 conicto
928 256 1221 256 conicto
1515 256 1662 544 conicto
1809 832 1809 1407 conicto
1809 1984 1662 2272 conicto
1515 2560 1221 2560 conicto
1221 2880 moveto
1691 2880 1939 2502 conicto
2188 2125 2188 1407 conicto
2188 691 1939 313 conicto
1691 -64 1221 -64 conicto
750 -64 501 313 conicto
253 691 253 1407 conicto
253 2125 501 2502 conicto
750 2880 1221 2880 conicto
end_ol grestore 
gsave 24.861245 4.245193 translate 0.035278 -0.035278 scale
start_ol
1221 2560 moveto
928 2560 781 2272 conicto
634 1984 634 1407 conicto
634 832 781 544 conicto
928 256 1221 256 conicto
1515 256 1662 544 conicto
1809 832 1809 1407 conicto
1809 1984 1662 2272 conicto
1515 2560 1221 2560 conicto
1221 2880 moveto
1691 2880 1939 2502 conicto
2188 2125 2188 1407 conicto
2188 691 1939 313 conicto
1691 -64 1221 -64 conicto
750 -64 501 313 conicto
253 691 253 1407 conicto
253 2125 501 2502 conicto
750 2880 1221 2880 conicto
end_ol grestore 
gsave 23.130000 4.880193 translate 0.035278 -0.035278 scale
start_ol
1873 1984 moveto
1873 1664 lineto
1727 1760 1580 1808 conicto
1433 1856 1283 1856 conicto
947 1856 761 1646 conicto
576 1436 576 1056 conicto
576 676 761 466 conicto
947 256 1283 256 conicto
1433 256 1580 304 conicto
1727 352 1873 448 conicto
1873 128 lineto
1729 32 1574 -16 conicto
1419 -64 1245 -64 conicto
771 -64 491 239 conicto
212 542 212 1056 conicto
212 1578 494 1877 conicto
776 2176 1267 2176 conicto
1427 2176 1579 2128 conicto
1731 2080 1873 1984 conicto
end_ol grestore 
gsave 23.409731 4.880193 translate 0.035278 -0.035278 scale
start_ol
362 2944 moveto
707 2944 lineto
707 0 lineto
362 0 lineto
362 2944 lineto
end_ol grestore 
gsave 23.549596 4.880193 translate 0.035278 -0.035278 scale
start_ol
349 2944 moveto
696 2944 lineto
696 1201 lineto
1725 2112 lineto
2166 2112 lineto
1052 1124 lineto
2213 0 lineto
1763 0 lineto
696 1031 lineto
696 0 lineto
349 0 lineto
349 2944 lineto
end_ol grestore 
gsave 23.844317 4.880193 translate 0.035278 -0.035278 scale
start_ol
1524 2816 moveto
1693 2816 lineto
2428 2048 lineto
2203 1826 lineto
1768 2262 lineto
1768 0 lineto
1449 0 lineto
1449 2262 lineto
1011 1826 lineto
786 2048 lineto
1524 2816 lineto
end_ol grestore 
showpage
